Month,DayOfWeek,Hour,NormalizedPrice
1,0,0,0.7655122207235932
1,0,1,0.7313359556205169
1,0,2,0.7286045632311693
1,0,3,0.7499365120570657
1,0,4,0.8133003007917652
1,0,5,0.9193505606690782
1,0,6,1.520866370577712
1,0,7,1.3797143324736596
1,0,8,1.1605257366012223
1,0,9,1.1458981145491791
1,0,10,1.0530307733113615
1,0,11,0.9619693113392285
1,0,12,0.9216304832420047
1,0,13,0.8980637588248239
1,0,14,0.8809756262732857
1,0,15,0.8633683034328635
1,0,16,0.9012466210305927
1,0,17,1.3134837104046861
1,0,18,1.391881444026208
1,0,19,1.1376813638903154
1,0,20,1.0619924491673203
1,0,21,0.989531543631736
1,0,22,0.8984700816596028
1,0,23,0.811629862471007
1,1,0,0.6208446204404496
1,1,1,0.5847002160388388
1,1,2,0.5861244364465701
1,1,3,0.6163025121130907
1,1,4,0.7061631213522396
1,1,5,0.8541858126476546
1,1,6,1.537195729263399
1,1,7,1.4861932416892407
1,1,8,1.1906867533067413
1,1,9,1.125037890999023
1,1,10,1.0196263346051877
1,1,11,0.95565189358764
1,1,12,0.9165050785967579
1,1,13,0.8834978083365009
1,1,14,0.8633277679675508
1,1,15,0.8736822352561913
1,1,16,0.928572459619021
1,1,17,1.486635904788941
1,1,18,1.649612910365534
1,1,19,1.259915412855514
1,1,20,1.1158959356791267
1,1,21,1.0159310600337772
1,1,22,0.8960655911236426
1,1,23,0.8276452728873662
1,2,0,0.5779907024021287
1,2,1,0.5484536390678485
1,2,2,0.5505762417973363
1,2,3,0.571114665391112
1,2,4,0.6774690204636842
1,2,5,1.0455462712447123
1,2,6,3.4386164217701305
1,2,7,3.4675555688425845
1,2,8,1.5853899161422444
1,2,9,0.8979356941060406
1,2,10,0.8365894856425358
1,2,11,0.7619844840730057
1,2,12,0.7147789952017221
1,2,13,0.6863331290452772
1,2,14,0.6522817979341994
1,2,15,0.6434176893526062
1,2,16,0.6705481397330304
1,2,17,0.9476972749966368
1,2,18,1.0413758053184652
1,2,19,0.8598783240407182
1,2,20,0.8079642446075428
1,2,21,0.7440768920312711
1,2,22,0.6680966830595376
1,2,23,0.6043289137356315
1,3,0,0.7266127962572393
1,3,1,0.6845120084046973
1,3,2,0.6871472605236596
1,3,3,0.7170415605611681
1,3,4,0.8037308142665521
1,3,5,1.0483454569571093
1,3,6,1.9977319263429458
1,3,7,1.761297106229648
1,3,8,1.2690109283905373
1,3,9,1.1210362514065657
1,3,10,1.0096599558507426
1,3,11,0.9318673132989752
1,3,12,0.8813126366488025
1,3,13,0.8525146014927822
1,3,14,0.8168859928444121
1,3,15,0.8159583840985374
1,3,16,0.8463164885089831
1,3,17,1.1981331873989272
1,3,18,1.2678303354412421
1,3,19,1.0382893348711493
1,3,20,0.9880087244413482
1,3,21,0.9020151772953704
1,3,22,0.8450094034579778
1,3,23,0.7897323550106243
1,4,0,0.7968611598252238
1,4,1,0.7399102339268199
1,4,2,0.7450940760336473
1,4,3,0.764497815295901
1,4,4,0.8314835181166959
1,4,5,0.9811491246321671
1,4,6,1.6052314002912935
1,4,7,1.421965936450376
1,4,8,1.171239187944
1,4,9,1.0952887673513063
1,4,10,1.041215111613114
1,4,11,0.9730642332728947
1,4,12,0.922604999554142
1,4,13,0.8960437535297089
1,4,14,0.8678655292334214
1,4,15,0.8505781291799184
1,4,16,0.8893380495199594
1,4,17,1.3003834378622596
1,4,18,1.3143893231875872
1,4,19,1.092173706268763
1,4,20,1.0225960823945546
1,4,21,0.9753708052195107
1,4,22,0.8778289688791131
1,4,23,0.8238266504176203
1,5,0,0.8930351872683273
1,5,1,0.8239225274063866
1,5,2,0.7930895641959064
1,5,3,0.786913009368605
1,5,4,0.826761750189904
1,5,5,0.8930351872683273
1,5,6,1.0812457712599257
1,5,7,1.187691720178821
1,5,8,1.3774713483402585
1,5,9,1.326265716384889
1,5,10,1.1548165090012494
1,5,11,1.0617447937205027
1,5,12,0.957764485639925
1,5,13,0.8927114162491543
1,5,14,0.8647674867482182
1,5,15,0.8456400911539945
1,5,16,0.8671833166605094
1,5,17,1.1691620556969171
1,5,18,1.333687544362856
1,5,19,1.1148432408648836
1,5,20,1.026030359759413
1,5,21,0.9725832361328455
1,5,22,0.9063347045174359
1,5,23,0.8432989776307434
1,6,0,0.8454396776339925
1,6,1,0.7678330462468361
1,6,2,0.7376361069827313
1,6,3,0.7499984453799802
1,6,4,0.7825832809944593
1,6,5,0.8509865618645489
1,6,6,1.0505002767223635
1,6,7,1.1523838543383225
1,6,8,1.2439198811026606
1,6,9,1.192729353091517
1,6,10,1.094676359204283
1,6,11,1.0216714030756602
1,6,12,0.9543128268588592
1,6,13,0.9199370689815993
1,6,14,0.8900883646019239
1,6,15,0.8891680295502173
1,6,16,0.9210812693161536
1,6,17,1.2727238808290475
1,6,18,1.526960220382934
1,6,19,1.200390520548967
1,6,20,1.1009943349646476
1,6,21,1.0363967639029665
1,6,22,0.9302597459129038
1,6,23,0.8673287275124213
2,0,0,0.6823303203347247
2,0,1,0.6299501827371552
2,0,2,0.6163898425469214
2,0,3,0.6480010930993181
2,0,4,0.7236022054017325
2,0,5,0.8831060761796672
2,0,6,1.4377210356377457
2,0,7,1.312191873397434
2,0,8,1.1477247408505247
2,0,9,1.12861027439501
2,0,10,1.0624629940334995
2,0,11,1.038178463235303
2,0,12,1.0198912070746176
2,0,13,1.026213457185097
2,0,14,1.0095215351644387
2,0,15,1.0250021849676685
2,0,16,1.0099351403118533
2,0,17,1.1639735144989531
2,0,18,1.6449372144924288
2,0,19,1.1549923741550945
2,0,20,1.048459505471036
2,0,21,0.9755763698516314
2,0,22,0.8591169776296239
2,0,23,0.7521114173485202
2,1,0,0.6393856755483108
2,1,1,0.5747703622443856
2,1,2,0.5536645473297126
2,1,3,0.5885833919176781
2,1,4,0.6780127160217239
2,1,5,0.8510000540778566
2,1,6,1.2738579915484036
2,1,7,1.1487063804145454
2,1,8,1.0755931182064693
2,1,9,1.0767055769721037
2,1,10,1.0489868127283823
2,1,11,1.0313110790077484
2,1,12,1.0214534582789336
2,1,13,1.046514682138084
2,1,14,1.0446605841953602
2,1,15,1.061749186900798
2,1,16,1.0714522994677194
2,1,17,1.2331914433379942
2,1,18,1.8791900682153535
2,1,19,1.231862673145709
2,1,20,1.1104501595296772
2,1,21,1.018641409732469
2,1,22,0.9137921710714368
2,1,23,0.8264641579691446
2,2,0,0.6963115398066816
2,2,1,0.6363392146626051
2,2,2,0.6172101109528565
2,2,3,0.6412659472555768
2,2,4,0.7241384553780963
2,2,5,0.883162435184575
2,2,6,1.422426770607884
2,2,7,1.2190926093942451
2,2,8,1.078315787339514
2,2,9,1.0622887004475623
2,2,10,1.044710605146712
2,2,11,1.0400271679904305
2,2,12,1.0224186607599943
2,2,13,1.0249732628452388
2,2,14,1.0277407484375871
2,2,15,1.0628665271097009
2,2,16,1.0258856207328262
2,2,17,1.156444034446579
2,2,18,1.6810498198093173
2,2,19,1.2019402811076025
2,2,20,1.0981139535001598
2,2,21,0.9910335494269886
2,2,22,0.8596236016848209
2,2,23,0.7826205959724469
2,3,0,0.6499699738610625
2,3,1,0.611217566163407
2,3,2,0.5995260604459816
2,3,3,0.6277232212938899
2,3,4,0.6841773460880052
2,3,5,0.8864314245347193
2,3,6,1.6877331386410241
2,3,7,1.3846510364624474
2,3,8,1.1452592339721468
2,3,9,1.1075234789455717
2,3,10,1.0692195944851575
2,3,11,1.0326799014245598
2,3,12,1.0045126421258008
2,3,13,0.9965887316012031
2,3,14,0.9722787721427202
2,3,15,0.980352190413065
2,3,16,0.9932995611947661
2,3,17,1.1454386432670431
2,3,18,1.6061617125613914
2,3,19,1.1520767871782158
2,3,20,1.0506208309142149
2,3,21,0.97697331535918
2,3,22,0.8748296234647424
2,3,23,0.760755213459684
2,4,0,0.7024763278568668
2,4,1,0.6568301867218636
2,4,2,0.637978923240135
2,4,3,0.6741105115801148
2,4,4,0.7376594249524828
2,4,5,0.8596887516101503
2,4,6,1.5688934392317222
2,4,7,1.3019524346461127
2,4,8,1.184132037885309
2,4,9,1.1552326952836027
2,4,10,1.0904685275043935
2,4,11,1.058249465547414
2,4,12,1.0095503682196154
2,4,13,1.012840447223502
2,4,14,1.0140557016303429
2,4,15,1.0013992715883648
2,4,16,1.0072384208114789
2,4,17,1.1733725903320584
2,4,18,1.5016394819360583
2,4,19,1.0693053166145283
2,4,20,0.9997394119107283
2,4,21,0.9432152618169289
2,4,22,0.8558651462813092
2,4,23,0.7841058555749179
2,5,0,0.8085038401159759
2,5,1,0.7350207750472341
2,5,2,0.716230150818789
2,5,3,0.7254828696631498
2,5,4,0.7669299801029577
2,5,5,0.8532781268525571
2,5,6,0.9725494752435638
2,5,7,1.0660589728795524
2,5,8,1.218570396844992
2,5,9,1.3305536447763995
2,5,10,1.236378711881056
2,5,11,1.0851347836477208
2,5,12,1.0322802116189749
2,5,13,1.0523700189728267
2,5,14,1.0273686656570713
2,5,15,1.0101624110937566
2,5,16,1.0047121794457081
2,5,17,1.1504425012443904
2,5,18,1.5243220548218313
2,5,19,1.0862121550200092
2,5,20,1.020555876097011
2,5,21,0.9339859175942932
2,5,22,0.8634497801026937
2,5,23,0.7794465004574869
2,6,0,0.7627155987711545
2,6,1,0.6909137771200285
2,6,2,0.6417267024456352
2,6,3,0.6579893660803737
2,6,4,0.6910800620242692
2,6,5,0.7448233430748572
2,6,6,0.9165623921746324
2,6,7,0.9981417661951102
2,6,8,1.1694152175630115
2,6,9,1.2205977110882928
2,6,10,1.1450045936204796
2,6,11,1.091128284646499
2,6,12,1.066950459569904
2,6,13,1.0511533936670394
2,6,14,1.0387152828298363
2,6,15,1.0284721327286106
2,6,16,1.0260111161458485
2,6,17,1.1931607018885806
2,6,18,1.7512128405203053
2,6,19,1.2263511687750206
2,6,20,1.0942544408462236
2,6,21,1.0213883958079575
2,6,22,0.9356186422006143
2,6,23,0.8366126102157131
3,0,0,0.5782219397132082
3,0,1,0.5219521011833563
3,0,2,0.49665626212143055
3,0,3,0.5118142697288658
3,0,4,0.5758580703596372
3,0,5,0.7351146293863078
3,0,6,1.218050701342166
3,0,7,1.1697741529975854
3,0,8,1.0083486829145454
3,0,9,0.9962612684880375
3,0,10,1.0114436458826228
3,0,11,1.0309394756027968
3,0,12,0.993410003391462
3,0,13,1.0477302589492965
3,0,14,1.127590051440559
3,0,15,1.2346952659657644
3,0,16,1.3871282845903745
3,0,17,1.35527697278504
3,0,18,1.6524665270819416
3,0,19,1.5013738467505937
3,0,20,1.2715911237111936
3,0,21,0.9891452906401739
3,0,22,0.8392223600920365
3,0,23,0.7459348148810043
3,1,0,0.594550378131582
3,1,1,0.5314802938191429
3,1,2,0.5021756713112273
3,1,3,0.5130627691984935
3,1,4,0.5773253551050754
3,1,5,0.7605951834345335
3,1,6,2.4031336291890533
3,1,7,2.1646553937233564
3,1,8,1.2589062662462243
3,1,9,0.9802142270224911
3,1,10,0.8846815993139436
3,1,11,0.8895399391419326
3,1,12,0.8885903545391891
3,1,13,0.9672733763897566
3,1,14,1.0162101084753188
3,1,15,1.103174391396322
3,1,16,1.170749481731078
3,1,17,1.0625410037440501
3,1,18,1.2401574911827573
3,1,19,1.1702857311111337
3,1,20,0.9964013319948362
3,1,21,0.8633490707965008
3,1,22,0.7760756207955348
3,1,23,0.6848713322064685
3,2,0,0.7092419622215597
3,2,1,0.6394695242584274
3,2,2,0.6126892208637545
3,2,3,0.6188199608171328
3,2,4,0.6804351799301634
3,2,5,0.8308306960249592
3,2,6,1.4124301393845533
3,2,7,1.217092964719387
3,2,8,1.0199601758419345
3,2,9,1.0320420943274624
3,2,10,1.0307082094840494
3,2,11,1.0212427574221392
3,2,12,1.022833158581593
3,2,13,1.0938112232301176
3,2,14,1.1299287205286803
3,2,15,1.1924160951162501
3,2,16,1.2377425281606818
3,2,17,1.1519634720765959
3,2,18,1.3509431784295431
3,2,19,1.2509531184367897
3,2,20,1.153066492235572
3,2,21,0.9451856697160046
3,2,22,0.8765419035434523
3,2,23,0.769651554649198
3,3,0,0.7181963761080359
3,3,1,0.6272081909541403
3,3,2,0.5744511833759945
3,3,3,0.58242021511342
3,3,4,0.6485682222250243
3,3,5,0.7767031913954633
3,3,6,1.1899580112726493
3,3,7,1.1232047612442786
3,3,8,1.0196325671126132
3,3,9,1.0307286872533323
3,3,10,1.0277529095792302
3,3,11,1.0345114554831227
3,3,12,1.0296190752392602
3,3,13,1.0847466175747411
3,3,14,1.131627725169279
3,3,15,1.2117719747311082
3,3,16,1.3268690027362025
3,3,17,1.2473299960911397
3,3,18,1.4211608054774483
3,3,19,1.3494647382954847
3,3,20,1.2169921948882192
3,3,21,0.9672286179025813
3,3,22,0.8905645151121591
3,3,23,0.7692889656650739
3,4,0,0.7180556896829229
3,4,1,0.6167712860131981
3,4,2,0.59052953484629
3,4,3,0.598512795750845
3,4,4,0.6563528086270723
3,4,5,0.8046354418155479
3,4,6,1.2138934492193787
3,4,7,1.1016127474649928
3,4,8,1.0457556735876388
3,4,9,1.1248672139063256
3,4,10,1.0877064220183488
3,4,11,1.0697054563013038
3,4,12,1.0593014646708514
3,4,13,1.1170642201834862
3,4,14,1.1739256397875424
3,4,15,1.2667889908256877
3,4,16,1.2906615161757604
3,4,17,1.162929341702881
3,4,18,1.2664284564622565
3,4,19,1.1937807822308064
3,4,20,1.1119137292773216
3,4,21,1.002929341702881
3,4,22,0.9115081281184614
3,4,23,0.814369869628199
3,5,0,0.7198753322028287
3,5,1,0.6523948271608409
3,5,2,0.6179175606084737
3,5,3,0.6193666051447329
3,5,4,0.6666854043115322
3,5,5,0.7170521937097727
3,5,6,0.8003972380711468
3,5,7,0.8552860457635749
3,5,8,0.9995659112272846
3,5,9,1.134676822470184
3,5,10,1.1446702330650729
3,5,11,1.1713276558269392
3,5,12,1.1580114362092497
3,5,13,1.168829303178217
3,5,14,1.2075787527598991
3,5,15,1.34906046325704
3,5,16,1.3912076724409845
3,5,17,1.2800809466258187
3,5,18,1.2258167270955713
3,5,19,1.2450040754377585
3,5,20,1.1527898791734201
3,5,21,0.9839012401197961
3,5,22,0.9090505947640777
3,5,23,0.8294530793757866
3,6,0,0.8044294974063313
3,6,1,0.7232138481689048
3,6,2,0.6549671569341224
3,6,3,0.6365180606563484
3,6,4,0.6519446499008392
3,6,5,0.683044434612202
3,6,6,0.8106768550399797
3,6,7,0.8630943776415978
3,6,8,0.9801501311983745
3,6,9,1.0774225855819317
3,6,10,1.1080291578485326
3,6,11,1.077806195261191
3,6,12,1.0577214884828394
3,6,13,1.059310728582627
3,6,14,1.081477887905528
3,6,15,1.1809149969077617
3,6,16,1.2979159490817869
3,6,17,1.1995200663518277
3,6,18,1.308711821483793
3,6,19,1.527259735895977
3,6,20,1.342359870493091
3,6,21,1.0915339416403915
3,6,22,0.9456252600650554
3,6,23,0.8363513028589635
4,0,0,0.6154538195967298
4,0,1,0.5495316172418836
4,0,2,0.5077876364944953
4,0,3,0.5095644546405317
4,0,4,0.5714157192177503
4,0,5,0.7269435354182833
4,0,6,1.0991307085905784
4,0,7,1.0066911822588083
4,0,8,0.9615510048019074
4,0,9,0.9693780011920425
4,0,10,0.9376426796216952
4,0,11,0.9640700381228704
4,0,12,1.013101222405902
4,0,13,1.1386030610753126
4,0,14,1.2940184204311598
4,0,15,1.604331837657299
4,0,16,1.9325708759263636
4,0,17,1.5582020399671628
4,0,18,1.1617016969737866
4,0,19,1.1467449366305682
4,0,20,1.2220235484632775
4,0,21,0.9488658727213434
4,0,22,0.8379609324921562
4,0,23,0.7227151580580953
4,1,0,0.6752376057133918
4,1,1,0.5693981080934396
4,1,2,0.5250599401715679
4,1,3,0.517474435636547
4,1,4,0.5878382908351398
4,1,5,0.736151505767346
4,1,6,0.9841489772658342
4,1,7,0.9490819815534323
4,1,8,0.9233372388891194
4,1,9,0.9503590025189239
4,1,10,0.9686970235833845
4,1,11,1.0107876346059912
4,1,12,1.0328290164703777
4,1,13,1.1621656998553773
4,1,14,1.3192137381915467
4,1,15,1.6670231683528665
4,1,16,1.8189120419884497
4,1,17,1.4985074817465818
4,1,18,1.1708749828400309
4,1,19,1.1024521995089853
4,1,20,1.2111011432530194
4,1,21,0.9884653081291961
4,1,22,0.8768536757452216
4,1,23,0.7540297992842298
4,2,0,0.6502253706747305
4,2,1,0.5827556074043944
4,2,2,0.5302849724741874
4,2,3,0.5372319371790895
4,2,4,0.5733087879761374
4,2,5,0.7018276350168247
4,2,6,0.961602012163767
4,2,7,0.8920007938135176
4,2,8,0.872238784368891
4,2,9,0.9055000093196339
4,2,10,0.9242620768749186
4,2,11,0.9871005303419869
4,2,12,1.020651212155434
4,2,13,1.1133037224810403
4,2,14,1.25332190124916
4,2,15,1.5088333682362758
4,2,16,1.762055494582004
4,2,17,1.5569884644861651
4,2,18,1.2254814139090602
4,2,19,1.2360071180073966
4,2,20,1.487439874656407
4,2,21,1.025782492903373
4,2,22,0.9191307961269796
4,2,23,0.7726656235986287
4,3,0,0.6953126389753624
4,3,1,0.6026950102285866
4,3,2,0.527795072489549
4,3,3,0.5128257582495775
4,3,4,0.5630970381570755
4,3,5,0.7130303299831006
4,3,6,0.9366094458774348
4,3,7,0.905016454682914
4,3,8,0.9055501200747131
4,3,9,0.9087787956950992
4,3,10,0.9618251356399538
4,3,11,0.9688695188117051
4,3,12,1.0016899404073645
4,3,13,1.114880370008005
4,3,14,1.262305434492573
4,3,15,1.5602508227341458
4,3,16,1.9105754691808237
4,3,17,1.54869696700169
4,3,18,1.200773814818109
4,3,19,1.1836431557413505
4,3,20,1.311882949390732
4,3,21,0.9980343324735391
4,3,22,0.916970559459219
4,3,23,0.7888908654273771
4,4,0,0.7138391168426866
4,4,1,0.6370106916297454
4,4,2,0.585252594644185
4,4,3,0.5768784267347269
4,4,4,0.6211232515772221
4,4,5,0.76742335636302
4,4,6,0.9724208997665149
4,4,7,0.9015143939163368
4,4,8,0.9181322909827694
4,4,9,0.9721600222615472
4,4,10,0.9971259994869411
4,4,11,1.0281965103285755
4,4,12,1.0739283369493857
4,4,13,1.1552438552477686
4,4,14,1.3351971581743796
4,4,15,1.5549603683590376
4,4,16,1.7559925736870254
4,4,17,1.3899031709660732
4,4,18,1.1272777867152481
4,4,19,1.0975116633984516
4,4,20,1.1632006191492787
4,4,21,0.9743774810537713
4,4,22,0.8918619262325378
4,4,23,0.7894675055327773
4,5,0,0.7812974002610321
4,5,1,0.6789657483509117
4,5,2,0.6067145225581149
4,5,3,0.5757081378531871
4,5,4,0.585814314437899
4,5,5,0.6553405763871741
4,5,6,0.7988377015062258
4,5,7,0.8238385833715473
4,5,8,0.9339482874175455
4,5,9,1.0348777734664363
4,5,10,1.0832128117393909
4,5,11,1.1491410631768315
4,5,12,1.148373840347102
4,5,13,1.2060742883346853
4,5,14,1.2819235246393168
4,5,15,1.4007636953684433
4,5,16,1.509391865674274
4,5,17,1.2888814420261736
4,5,18,1.1388232389149529
4,5,19,1.1544851670252918
4,5,20,1.3072418780203885
4,5,21,1.077815795971639
4,5,22,0.9356414688348795
4,5,23,0.8428868743165545
4,6,0,0.8024718198048632
4,6,1,0.721702867758958
4,6,2,0.6620682385648688
4,6,3,0.6353209347062736
4,6,4,0.6385358815740063
4,6,5,0.6886837823059337
4,6,6,0.7783860703203748
4,6,7,0.8302995566272044
4,6,8,0.9447990987607962
4,6,9,1.0100467089616645
4,6,10,1.0287829976744338
4,6,11,1.0577175194840274
4,6,12,1.045015844154133
4,6,13,1.0956117292856624
4,6,14,1.1613863799566508
4,6,15,1.2419445158145082
4,6,16,1.3430572300070491
4,6,17,1.251721116535236
4,6,18,1.1934304405399527
4,6,19,1.3427146537014711
4,6,20,1.6338254573723079
4,6,21,1.1230968898024258
4,6,22,0.9474079490878905
4,6,23,0.821972317199307
5,0,0,0.6883287164032585
5,0,1,0.6089052803057899
5,0,2,0.545320152778999
5,0,3,0.5389662778912014
5,0,4,0.5950844429586101
5,0,5,0.6799573702919632
5,0,6,0.7895037387954499
5,0,7,0.7959271816564716
5,0,8,0.827858881366315
5,0,9,0.8609964259453757
5,0,10,0.9263207528027679
5,0,11,0.9920161088506887
5,0,12,1.0819443089049905
5,0,13,1.2821145571950194
5,0,14,1.4823311841338644
5,0,15,1.8548908700731142
5,0,16,1.9690982927826128
5,0,17,1.5554239346679435
5,0,18,1.1557327391713104
5,0,19,1.0483893564865856
5,0,20,1.1096323622481665
5,0,21,0.9606177636022297
5,0,22,0.8756752682956523
5,0,23,0.7749640323916214
5,1,0,0.6417425779231298
5,1,1,0.5928302750288605
5,1,2,0.545213798493859
5,1,3,0.5367395054776946
5,1,4,0.572919800175348
5,1,5,0.6589791253686292
5,1,6,0.7928606138206054
5,1,7,0.7822060415332918
5,1,8,0.797509133776074
5,1,9,0.8359108450896152
5,1,10,0.888216978924824
5,1,11,0.9699363142481766
5,1,12,1.0844832506729813
5,1,13,1.2792685780105468
5,1,14,1.6193304382926974
5,1,15,1.990512699869646
5,1,16,2.1891443689402763
5,1,17,1.5291573786255501
5,1,18,1.1071704962963536
5,1,19,1.0341928467299668
5,1,20,1.0684396862249033
5,1,21,0.9242327242435229
5,1,22,0.8254825281983644
5,1,23,0.7335199940350852
5,2,0,0.5931095794369601
5,2,1,0.547285135658315
5,2,2,0.5153529244402315
5,2,3,0.5058438995454534
5,2,4,0.540728436588011
5,2,5,0.5998111779342321
5,2,6,0.7019109366615927
5,2,7,0.6978899775632292
5,2,8,0.7162197550746874
5,2,9,0.7475180312997856
5,2,10,0.7891585041247281
5,2,11,0.874486154180537
5,2,12,0.9957850869811637
5,2,13,1.237767130017803
5,2,14,1.6745845650413527
5,2,15,2.2744863051174398
5,2,16,2.7865971048792613
5,2,17,1.9864443567333328
5,2,18,1.0627467346687727
5,2,19,0.935488812934085
5,2,20,0.9650664084639375
5,2,21,0.822014449189733
5,2,22,0.7560127602057871
5,2,23,0.6736917732595653
5,3,0,0.6556067691746182
5,3,1,0.5871673415584198
5,3,2,0.5465586721744684
5,3,3,0.5317822191787376
5,3,4,0.5719018836434057
5,3,5,0.6605180794508971
5,3,6,0.7802817625083828
5,3,7,0.7570008761338137
5,3,8,0.7741373093921724
5,3,9,0.7988001661908024
5,3,10,0.8536962836512014
5,3,11,0.9154597310650121
5,3,12,1.048554113443826
5,3,13,1.2283803572393548
5,3,14,1.5933055935252916
5,3,15,2.093855281120247
5,3,16,2.390489917374114
5,3,17,1.5312870131101157
5,3,18,1.1053637284144637
5,3,19,1.0129843208368363
5,3,20,1.0638620935257344
5,3,21,0.9056583715959013
5,3,22,0.8434059192628074
5,3,23,0.7499421964293784
5,4,0,0.6831610516769709
5,4,1,0.6229910403504085
5,4,2,0.5846989806093766
5,4,3,0.578354600428227
5,4,4,0.6056738175783735
5,4,5,0.686638042950626
5,4,6,0.7733144682724546
5,4,7,0.7675796904574652
5,4,8,0.786251585154301
5,4,9,0.8158285888457819
5,4,10,0.8807173740437333
5,4,11,0.9517473386341144
5,4,12,1.0538670238986705
5,4,13,1.2346254143979052
5,4,14,1.4690513909846583
5,4,15,1.9738924616270366
5,4,16,2.2087699955220566
5,4,17,1.5844242832468476
5,4,18,1.1151885063613136
5,4,19,1.0416072429792247
5,4,20,1.0480193567566145
5,4,21,0.9178353847832713
5,4,22,0.8573041276100954
5,4,23,0.7584582328304743
5,5,0,0.7023645677546295
5,5,1,0.6275728772799769
5,5,2,0.583880792793509
5,5,3,0.5558577582566095
5,5,4,0.5698812002206068
5,5,5,0.5932536034939359
5,5,6,0.6854076506859184
5,5,7,0.706299717285343
5,5,8,0.7623457863591421
5,5,9,0.8305550448915102
5,5,10,0.9024848084347346
5,5,11,0.9651848576241038
5,5,12,1.0827862051147008
5,5,13,1.2705286118163797
5,5,14,1.4956430143642896
5,5,15,2.011481494363097
5,5,16,2.3180415675012296
5,5,17,1.6018443529113648
5,5,18,1.1394523583569756
5,5,19,1.0406204816583275
5,5,20,1.0479660941156594
5,5,21,0.9276459160402061
5,5,22,0.8317236650551767
5,5,23,0.7471775736225735
5,6,0,0.736211434010863
5,6,1,0.658441744280817
5,6,2,0.5887103296812688
5,6,3,0.5439647609981896
5,6,4,0.5439647609981896
5,6,5,0.5658149330247433
5,6,6,0.6739707959261126
5,6,7,0.7013457267110887
5,6,8,0.7766516726704866
5,6,9,0.8484237639285515
5,6,10,0.9108634924190109
5,6,11,0.9690725497881554
5,6,12,1.0960175697283039
5,6,13,1.285825385271043
5,6,14,1.508582662958608
5,6,15,1.8604749550491193
5,6,16,1.9718162644418313
5,6,17,1.5953114209455548
5,6,18,1.2463557123392501
5,6,19,1.1232929553104256
5,6,20,1.1345913358344066
5,6,21,1.0008772421001548
5,6,22,0.8744548344749925
5,6,23,0.7849636971088341
6,0,0,0.6971470219549377
6,0,1,0.6560952760728002
6,0,2,0.6214313924891103
6,0,3,0.6142421854578826
6,0,4,0.6242933379633251
6,0,5,0.6651161282075253
6,0,6,0.7056870672499947
6,0,7,0.7270486282695341
6,0,8,0.7707791551155367
6,0,9,0.8158147290977812
6,0,10,0.9036421118104856
6,0,11,1.0267973494568983
6,0,12,1.1796710289075572
6,0,13,1.360545982877934
6,0,14,1.5603326725419226
6,0,15,1.944314172926377
6,0,16,2.0105052478540175
6,0,17,1.3700476418523273
6,0,18,1.1660710640140883
6,0,19,1.053173038947262
6,0,20,1.0146627006462272
6,0,21,0.9095262717054713
6,0,22,0.8412059093450149
6,0,23,0.7618498852359864
6,1,0,0.6994084314212032
6,1,1,0.6534810050196916
6,1,2,0.6256511164686244
6,1,3,0.6129990605578144
6,1,4,0.6236583018013538
6,1,5,0.6633292170381793
6,1,6,0.700034082537672
6,1,7,0.7222562833040945
6,1,8,0.7667933738912314
6,1,9,0.8209932983882726
6,1,10,0.923878148652002
6,1,11,1.0297753931802098
6,1,12,1.167233260694724
6,1,13,1.4050502017435198
6,1,14,1.6203205303358725
6,1,15,1.9614162501291375
6,1,16,1.9300641775149874
6,1,17,1.3549749401624571
6,1,18,1.14563671104477
6,1,19,1.0316060020024698
6,1,20,0.9908691626412905
6,1,21,0.9175984652237428
6,1,22,0.850607451234454
6,1,23,0.7823651350122283
6,2,0,0.6853221346994381
6,2,1,0.6366733847763886
6,2,2,0.6091799891332568
6,2,3,0.5920501476110562
6,2,4,0.599030558031353
6,2,5,0.6427758908186725
6,2,6,0.6923025451197349
6,2,7,0.7126870565311535
6,2,8,0.7658966267594889
6,2,9,0.8057235082986053
6,2,10,0.9007513041430129
6,2,11,1.0168702173616295
6,2,12,1.1282570118597386
6,2,13,1.377453381403951
6,2,14,1.5864802725786031
6,2,15,2.00712494345814
6,2,16,2.128725405963861
6,2,17,1.4383071434115686
6,2,18,1.1754925498572066
6,2,19,1.0420296720973619
6,2,20,0.9800196457869956
6,2,21,0.8884178182470283
6,2,22,0.8305189539019906
6,2,23,0.757909838149763
6,3,0,0.6868125098998574
6,3,1,0.6258067598112301
6,3,2,0.5948915478474253
6,3,3,0.5725046702184631
6,3,4,0.5880930171748383
6,3,5,0.6341942961735637
6,3,6,0.696929849924447
6,3,7,0.7208655052510101
6,3,8,0.7539329147945983
6,3,9,0.8001146497776146
6,3,10,0.8922970937789925
6,3,11,1.0028637301908565
6,3,12,1.1332627667304447
6,3,13,1.3859146714001604
6,3,14,1.6782313763253236
6,3,15,2.11359882131983
6,3,16,2.1195123361652164
6,3,17,1.3894748487050357
6,3,18,1.125679790211021
6,3,19,1.02657813156062
6,3,20,0.9811808424244406
6,3,21,0.8986330025419063
6,3,22,0.8347308370188041
6,3,23,0.7438960307543001
6,4,0,0.6619378221886811
6,4,1,0.6161074286949078
6,4,2,0.5852460707100307
6,4,3,0.5703359684117991
6,4,4,0.5779383525875772
6,4,5,0.6111570389990522
6,4,6,0.661034179625152
6,4,7,0.6746477512887548
6,4,8,0.7121292732716608
6,4,9,0.7710428395330526
6,4,10,0.8712685864705719
6,4,11,0.9767786779643814
6,4,12,1.143088198460861
6,4,13,1.3890164865656836
6,4,14,1.7827099782110825
6,4,15,2.307392352761103
6,4,16,2.195517474515479
6,4,17,1.428501737711198
6,4,18,1.1380199423436754
6,4,19,0.9968159695904633
6,4,20,0.9268426041276167
6,4,21,0.8440807319504766
6,4,22,0.813690839650919
6,4,23,0.7446996943658214
6,5,0,0.7409900182041248
6,5,1,0.6779883779780438
6,5,2,0.643880154854301
6,5,3,0.6195655918195381
6,5,4,0.6117645811858915
6,5,5,0.6195019966241553
6,5,6,0.625522341787078
6,5,7,0.6638702446030204
6,5,8,0.7298608590121018
6,5,9,0.8075529893716531
6,5,10,0.9189293748857276
6,5,11,1.02451859761995
6,5,12,1.1835489828743442
6,5,13,1.343745280044093
6,5,14,1.5989316007175658
6,5,15,1.9332303444474772
6,5,16,2.0172607959468665
6,5,17,1.4569871246227348
6,5,18,1.1581109047211486
6,5,19,1.04026900767647
6,5,20,0.9966215052452789
6,5,21,0.9225543010225579
6,5,22,0.8697490904562162
6,5,23,0.7950459342796653
6,6,0,0.7404626885833934
6,6,1,0.6942225722358109
6,6,2,0.6598241564943966
6,6,3,0.6385090954032933
6,6,4,0.6251498176320622
6,6,5,0.6262994973025642
6,6,6,0.6183207203892817
6,6,7,0.6514314948997335
6,6,8,0.7129623508649902
6,6,9,0.7868177728980262
6,6,10,0.8800797877691329
6,6,11,0.9884026063238129
6,6,12,1.1370791813131067
6,6,13,1.348574253498619
6,6,14,1.5882134840180155
6,6,15,1.8969714563279805
6,6,16,1.9970855620352777
6,6,17,1.4633352782081093
6,6,18,1.1873661701008555
6,6,19,1.0719383311824742
6,6,20,1.0499794494758896
6,6,21,0.9487616512849109
6,6,22,0.8812754546264547
6,6,23,0.806937167131808
7,0,0,0.43615632321915065
7,0,1,0.40618441807745176
7,0,2,0.38785811310652274
7,0,3,0.3689963782426847
7,0,4,0.3727078809094399
7,0,5,0.3951959364116159
7,0,6,0.3758352782384763
7,0,7,0.39032839193062535
7,0,8,0.4291470591665244
7,0,9,0.47094709739702995
7,0,10,0.5555206827542393
7,0,11,0.6843037408600445
7,0,12,0.8259371163956646
7,0,13,1.121129351445331
7,0,14,2.0962445373221508
7,0,15,3.8732146632749345
7,0,16,4.265684774777196
7,0,17,2.516703029590108
7,0,18,0.938547757963379
7,0,19,0.751171633167651
7,0,20,0.6936737639859512
7,0,21,0.6179226030005371
7,0,22,0.5364520772499591
7,0,23,0.4901373915133349
7,1,0,0.49829180137090495
7,1,1,0.4692463886387287
7,1,2,0.4452712474558102
7,1,3,0.43190021705591064
7,1,4,0.4340442175967396
7,1,5,0.429901081416489
7,1,6,0.46009092686978337
7,1,7,0.46960855089224707
7,1,8,0.5090842365257534
7,1,9,0.5492552736860149
7,1,10,0.6243822115558733
7,1,11,0.741273700501474
7,1,12,0.9455187249957144
7,1,13,1.2764336192805525
7,1,14,1.9088123733941127
7,1,15,3.011683354298504
7,1,16,4.061533781287801
7,1,17,2.2341065095043446
7,1,18,1.0376962617612193
7,1,19,0.8422445367824056
7,1,20,0.7713911135040648
7,1,21,0.6856310918709061
7,1,22,0.6068825314658639
7,1,23,0.5557162482887834
7,2,0,0.40220348035623343
7,2,1,0.37728701139003096
7,2,2,0.3551279981120123
7,2,3,0.340347041945621
7,2,4,0.34423480604652895
7,2,5,0.35725198425020804
7,2,6,0.3744798718155734
7,2,7,0.38537306388105674
7,2,8,0.4130594095070117
7,2,9,0.4388080835682968
7,2,10,0.5138183308698407
7,2,11,0.6073482467798632
7,2,12,0.7776770298972786
7,2,13,1.091157510340459
7,2,14,1.8869443167844593
7,2,15,4.014035697872288
7,2,16,4.438559664136929
7,2,17,3.2293780819535707
7,2,18,0.9005080177371474
7,2,19,0.6739991802158766
7,2,20,0.6112111689376343
7,2,21,0.5450819163074936
7,2,22,0.48103938690084336
7,2,23,0.4410687003937449
7,3,0,0.43221660386575167
7,3,1,0.40535704488215313
7,3,2,0.38598757904685377
7,3,3,0.37347105287842924
7,3,4,0.3743205908536617
7,3,5,0.3948510919217787
7,3,6,0.4217248098716312
7,3,7,0.4323298755957826
7,3,8,0.4597982701282979
7,3,9,0.5032096606626748
7,3,10,0.5879793916246173
7,3,11,0.6891452055085456
7,3,12,0.8334817075005352
7,3,13,1.0707576639829524
7,3,14,1.7350680426822036
7,3,15,3.3798301985971997
7,3,16,4.984706546575034
7,3,17,2.560677364945585
7,3,18,0.9138763178900305
7,3,19,0.7417174472091792
7,3,20,0.6819807685840855
7,3,21,0.623362648293048
7,3,22,0.5328019001332711
7,3,23,0.48134821676669376
7,4,0,0.5071984542762666
7,4,1,0.4749016250520346
7,4,2,0.45672680432614143
7,4,3,0.44282471587115824
7,4,4,0.4405626811394999
7,4,5,0.46641899480831617
7,4,6,0.4905316567048123
7,4,7,0.5054390939294213
7,4,8,0.5458572561832876
7,4,9,0.6048900792497585
7,4,10,0.7104988257840542
7,4,11,0.8505564762525625
7,4,12,1.000369151501347
7,4,13,1.3389046410983436
7,4,14,1.8298761378898676
7,4,15,3.178598638066589
7,4,16,3.8377461337270944
7,4,17,1.7585277923954792
7,4,18,0.9865927316425669
7,4,19,0.872627023460756
7,4,20,0.7845490460968119
7,4,21,0.7039169330579097
7,4,22,0.6366685255146523
7,4,23,0.575216581971269
7,5,0,0.4908147462975861
7,5,1,0.4492103982171457
7,5,2,0.42850756598227524
7,5,3,0.40649342191678906
7,5,4,0.3965989781039623
7,5,5,0.4016720329638186
7,5,6,0.41650707589603553
7,5,7,0.4361767533552695
7,5,8,0.4797414463946099
7,5,9,0.5292534021808838
7,5,10,0.6182901509222782
7,5,11,0.7364141802700552
7,5,12,0.8984737787304777
7,5,13,1.1315428996548424
7,5,14,1.9196810465769576
7,5,15,3.641751373952358
7,5,16,3.966638814167907
7,5,17,2.4255162738434133
7,5,18,1.0116704545329114
7,5,19,0.7712367944386249
7,5,20,0.7081746164026566
7,5,21,0.645787962643066
7,5,22,0.5709239781315572
7,5,23,0.5189218544245184
7,6,0,0.49394468197424835
7,6,1,0.4555770585035728
7,6,2,0.43331562991229855
7,6,3,0.40783552702585724
7,6,4,0.3979615062797276
7,6,5,0.39488388942379093
7,6,6,0.4047835569770536
7,6,7,0.42499324099770347
7,6,8,0.4712729044688492
7,6,9,0.5242976782159225
7,6,10,0.5991094146223133
7,6,11,0.7032995685993316
7,6,12,0.8467293374895407
7,6,13,1.0519294413591096
7,6,14,1.6078881029804797
7,6,15,3.3868275861331982
7,6,16,4.056093841667298
7,6,17,2.7824349292415276
7,6,18,1.199885871708259
7,6,19,0.8177612688330382
7,6,20,0.7403976751169333
7,6,21,0.6833976462642752
7,6,22,0.5882351683980043
7,6,23,0.5271444738076638
8,0,0,0.2728572158398579
8,0,1,0.2543438302664288
8,0,2,0.24263926616035292
8,0,3,0.23848266761451029
8,0,4,0.24390885483753505
8,0,5,0.254135130757851
8,0,6,0.27668337349711897
8,0,7,0.28311827501160347
8,0,8,0.2991098748563832
8,0,9,0.3295626114830383
8,0,10,0.36884159815996603
8,0,11,0.41868599745864865
8,0,12,0.5050702023841745
8,0,13,1.047419354488072
8,0,14,2.867166023720004
8,0,15,5.904343884615259
8,0,16,5.205852716843681
8,0,17,2.4886633774754534
8,0,18,0.6118373926474728
8,0,19,0.4492691712781649
8,0,20,0.4349384716891508
8,0,21,0.3740938691258425
8,0,22,0.3293365203487456
8,0,23,0.2996403194406853
8,1,0,0.27289726342615567
8,1,1,0.256677663083963
8,1,2,0.2441481047419113
8,1,3,0.2378128416225682
8,1,4,0.24086438197324653
8,1,5,0.25781369848625363
8,1,6,0.2816123963298594
8,1,7,0.28899248033014124
8,1,8,0.3060247191352864
8,1,9,0.32939222105977456
8,1,10,0.371981110301851
8,1,11,0.4313120103265895
8,1,12,0.5968249054340361
8,1,13,1.615707693392061
8,1,14,3.199929792459323
8,1,15,5.1627667851994765
8,1,16,5.011980889175739
8,1,17,2.2876767799615516
8,1,18,0.6607082392971506
8,1,19,0.4683699826830614
8,1,20,0.438998906807782
8,1,21,0.3902903524059212
8,1,22,0.3383229519230371
8,1,23,0.30889383044326113
8,2,0,0.2875044664650257
8,2,1,0.27050623292048936
8,2,2,0.26116565930056423
8,2,3,0.25546468850495463
8,2,4,0.25729254213575037
8,2,5,0.2697815332430814
8,2,6,0.2927303563610011
8,2,7,0.3000256664469082
8,2,8,0.3228214974107084
8,2,9,0.34669632567198283
8,2,10,0.39188537666768997
8,2,11,0.4647982164335717
8,2,12,0.6327433405635547
8,2,13,1.353489378620353
8,2,14,3.498077029536544
8,2,15,5.430947695807311
8,2,16,4.696609512689793
8,2,17,2.018594585889493
8,2,18,0.625423873821734
8,2,19,0.4958878325943745
8,2,20,0.4585174858960358
8,2,21,0.40360940700442377
8,2,22,0.34758206972214817
8,2,23,0.31784522629250694
8,3,0,0.40361346134396026
8,3,1,0.3828900317884025
8,3,2,0.3708212145759703
8,3,3,0.3622573452194042
8,3,4,0.3633462610581199
8,3,5,0.3795098555390558
8,3,6,0.40870641146462017
8,3,7,0.41792816747374356
8,3,8,0.44567283561435367
8,3,9,0.48333117503660444
8,3,10,0.5500045844113002
8,3,11,0.6544611048147662
8,3,12,0.8260220637790863
8,3,13,1.3783292514743373
8,3,14,2.545023172544953
8,3,15,4.377884043696529
8,3,16,4.402906422240349
8,3,17,1.665542146808919
8,3,18,0.7991961683773925
8,3,19,0.6728025309731334
8,3,20,0.6289850113381471
8,3,21,0.5578651956220291
8,3,22,0.48092648589277387
8,3,23,0.44197505891204825
8,4,0,0.29244070440638487
8,4,1,0.27459984400232895
8,4,2,0.264413855229767
8,4,3,0.25920221472749844
8,4,4,0.2594395069594735
8,4,5,0.26923000867874364
8,4,6,0.29334593032836415
8,4,7,0.30380436573763825
8,4,8,0.325266129829611
8,4,9,0.3517110307930614
8,4,10,0.40997945664473173
8,4,11,0.4824766278137256
8,4,12,0.617214672569677
8,4,13,1.5494567545892974
8,4,14,3.4658463972228017
8,4,15,4.8368154503608825
8,4,16,4.801766508838036
8,4,17,2.2751491315763457
8,4,18,0.6472013798103857
8,4,19,0.4883737792083667
8,4,20,0.44506355257231367
8,4,21,0.39669109165412453
8,4,22,0.36138728069693604
8,4,23,0.3291243257495029
8,5,0,0.5639785313824695
8,5,1,0.5225967455216737
8,5,2,0.49793176534937783
8,5,3,0.4820354163817858
8,5,4,0.4756255982496923
8,5,5,0.4835224941884315
8,5,6,0.505965404074935
8,5,7,0.520357582387529
8,5,8,0.5719608915629699
8,5,9,0.6257008067824421
8,5,10,0.6919185012990564
8,5,11,0.8311055654314234
8,5,12,1.0357582387529058
8,5,13,1.4316286065910022
8,5,14,1.9273724873512927
8,5,15,3.05220155886777
8,5,16,3.555432107206345
8,5,17,1.683047313004239
8,5,18,0.9726514426364008
8,5,19,0.8421475454669765
8,5,20,0.7929201422124982
8,5,21,0.7010631751675098
8,5,22,0.6414604129632162
8,5,23,0.5916176671680569
8,6,0,0.5781170194654106
8,6,1,0.532905813139625
8,6,2,0.5055710042941187
8,6,3,0.4909104666780167
8,6,4,0.4858975086544464
8,6,5,0.485046251631576
8,6,6,0.5041900762347955
8,6,7,0.512002724022473
8,6,8,0.5623403893082117
8,6,9,0.6105026199799481
8,6,10,0.6757845752227456
8,6,11,0.7787488413446078
8,6,12,0.917579403363411
8,6,13,1.312922081607173
8,6,14,1.8214441102472427
8,6,15,2.876794733556552
8,6,16,3.6112025424209753
8,6,17,1.8517677770841607
8,6,18,1.0594934074872784
8,6,19,0.9131339500217542
8,6,20,0.8705710988782323
8,6,21,0.7675879159336396
8,6,22,0.6649452357981953
8,6,23,0.6105404536254091
9,0,0,0.6206189961659402
9,0,1,0.5867666918210838
9,0,2,0.5578125038575136
9,0,3,0.5494185544137773
9,0,4,0.5588000273214826
9,0,5,0.594173117800851
9,0,6,0.6716937097224154
9,0,7,0.6730367416334131
9,0,8,0.6989888582665179
9,0,9,0.7471800033082037
9,0,10,0.8232983119109321
9,0,11,0.9300890993045368
9,0,12,1.092200951149683
9,0,13,1.5496415701293902
9,0,14,1.8933589869984306
9,0,15,2.3856789347255223
9,0,16,2.4122433159062875
9,0,17,1.4326397901183467
9,0,18,1.0898308948361575
9,0,19,1.0214350197216664
9,0,20,0.9310568722992261
9,0,21,0.7993409926750448
9,0,22,0.717791305020487
9,0,23,0.6629047508930915
9,1,0,0.5597164432115889
9,1,1,0.5302037768057186
9,1,2,0.5022084711405099
9,1,3,0.49490617257607555
9,1,4,0.5052621596310917
9,1,5,0.5439927925364818
9,1,6,0.6326445938096423
9,1,7,0.6307099588652987
9,1,8,0.6450679848738102
9,1,9,0.6974358974358974
9,1,10,0.7547731664236519
9,1,11,0.8474459736595661
9,1,12,0.9848240217172257
9,1,13,1.5064357433289473
9,1,14,2.036165344903209
9,1,15,2.7783254501701107
9,1,16,2.9879867705110428
9,1,17,1.6191377123415958
9,1,18,0.9642258496627429
9,1,19,0.9058074611472671
9,1,20,0.83291724456773
9,1,21,0.7463897483314959
9,1,22,0.6740685420297071
9,1,23,0.6193487203195942
9,2,0,0.5392928546983914
9,2,1,0.5099515481186621
9,2,2,0.49172355409859686
9,2,3,0.47825068895333117
9,2,4,0.4883733496640789
9,2,5,0.5204344458653793
9,2,6,0.5909508456564418
9,2,7,0.5867901078909922
9,2,8,0.6035411300635818
9,2,9,0.6407716277310469
9,2,10,0.6886651416632144
9,2,11,0.7702768421621426
9,2,12,0.8800050433185035
9,2,13,1.2417370629874456
9,2,14,1.844485671571894
9,2,15,3.0941839730542697
9,2,16,4.066175543507628
9,2,17,1.4917956015057907
9,2,18,0.9024658225112123
9,2,19,0.8658297159530971
9,2,20,0.7912426376555773
9,2,21,0.695995965345197
9,2,22,0.6316396188692159
9,2,23,0.5854212071543075
9,3,0,0.26113077558966113
9,3,1,0.24556548271357148
9,3,2,0.23247705123713636
9,3,3,0.2256263342554833
9,3,4,0.23400127363692375
9,3,5,0.24653468934821893
9,3,6,0.2935619206720937
9,3,7,0.29312287835041584
9,3,8,0.3003629347494059
9,3,9,0.317179084051408
9,3,10,0.34425888309980446
9,3,11,0.39541973930136365
9,3,12,0.4708521804560587
9,3,13,1.0629877313212863
9,3,14,3.0560659115737008
9,3,15,5.094232909880697
9,3,16,5.811271859354587
9,3,17,2.599321072133065
9,3,18,0.7531481094775501
9,3,19,0.42617755327098616
9,3,20,0.39188254927577
9,3,21,0.3483925079774887
9,3,22,0.3090195239221114
9,3,23,0.2874070443512131
9,4,0,0.3281262828538226
9,4,1,0.30567672390024325
9,4,2,0.28640343442306554
9,4,3,0.28215860515367697
9,4,4,0.2901286887472403
9,4,5,0.31789163676319515
9,4,6,0.3658591878373715
9,4,7,0.36537882609556993
9,4,8,0.371280413209131
9,4,9,0.39612197757086465
9,4,10,0.4322275346128003
9,4,11,0.480881316746693
9,4,12,0.5564549630231747
9,4,13,1.050580539222394
9,4,14,2.7193180170373203
9,4,15,4.779599330924716
9,4,16,5.223404563845018
9,4,17,2.5213991761142576
9,4,18,0.7802545181983986
9,4,19,0.4998997204016903
9,4,20,0.469509487757107
9,4,21,0.4280709350510895
9,4,22,0.38611280739985826
9,4,23,0.3632613131113022
9,5,0,0.7432966207671025
9,5,1,0.6948133610596458
9,5,2,0.6621865291214846
9,5,3,0.6447784669994296
9,5,4,0.641696453559017
9,5,5,0.6469465040402718
9,5,6,0.6978528639698458
9,5,7,0.7063974805425759
9,5,8,0.753371616427486
9,5,9,0.828764041759511
9,5,10,0.9148691207051081
9,5,11,1.02979633913484
9,5,12,1.1463177024475437
9,5,13,1.3402507412773703
9,5,14,1.5924444617635496
9,5,15,1.9260671028719405
9,5,16,1.9184152074336749
9,5,17,1.3747267812797794
9,5,18,1.1191322183765937
9,5,19,1.0634646790632096
9,5,20,1.0231646964216763
9,5,21,0.9188438552799851
9,5,22,0.8302944208471641
9,5,23,0.7821087348511953
9,6,0,0.7121381469611147
9,6,1,0.6731202758254873
9,6,2,0.6504287384807209
9,6,3,0.6340404059539453
9,6,4,0.6262698977193077
9,6,5,0.6291631720619919
9,6,6,0.654995978693101
9,6,7,0.6608238598690792
9,6,8,0.7036649863861109
9,6,9,0.7651470661681509
9,6,10,0.8331803457118401
9,6,11,0.9513292701198813
9,6,12,1.1057267887926951
9,6,13,1.316067833505839
9,6,14,1.6027706546205416
9,6,15,2.0581307036684304
9,6,16,2.139679707641516
9,6,17,1.4697833660835913
9,6,18,1.181675240288156
9,6,19,1.0981009442751917
9,6,20,1.032320285469735
9,6,21,0.9219832017869414
9,6,22,0.8247278513821412
9,6,23,0.7547312785344876
10,0,0,0.7045263037791741
10,0,1,0.6472846825755687
10,0,2,0.5926597052894915
10,0,3,0.622213582714599
10,0,4,0.659434835339906
10,0,5,0.7331065462582246
10,0,6,0.8515046125110401
10,0,7,0.8500847282147068
10,0,8,0.8523971112115925
10,0,9,0.8712815723528244
10,0,10,0.9219511576705445
10,0,11,0.9931482131009681
10,0,12,1.053858408799902
10,0,13,1.2760500171146767
10,0,14,1.5078765545831416
10,0,15,1.8221780856071907
10,0,16,1.7919345500952926
10,0,17,1.3303910175414875
10,0,18,1.1801266908666785
10,0,19,1.1307552854770346
10,0,20,1.0176919273661569
10,0,21,0.9420932306171003
10,0,22,0.859212555833992
10,0,23,0.7882386250787063
10,1,0,0.6730067051451318
10,1,1,0.6053824645097984
10,1,2,0.5681048890519859
10,1,3,0.5712831517772026
10,1,4,0.6002321472020679
10,1,5,0.7049425016852611
10,1,6,0.8665552466464304
10,1,7,0.8502235713174553
10,1,8,0.8386401439153102
10,1,9,0.8694846092787083
10,1,10,0.9378746963538529
10,1,11,0.9913116316916829
10,1,12,1.0587827030390542
10,1,13,1.2603726321583706
10,1,14,1.4820468841617371
10,1,15,1.9128355065555658
10,1,16,2.004239279147039
10,1,17,1.2616554249450547
10,1,18,1.2017470871908194
10,1,19,1.171228106564341
10,1,20,1.0154166483847422
10,1,21,0.9256020071558777
10,1,22,0.8523487951879316
10,1,23,0.77668316693458
10,2,0,0.6203791822670386
10,2,1,0.5746625098823075
10,2,2,0.5440176613612971
10,2,3,0.5448768627216993
10,2,4,0.5622935902981847
10,2,5,0.6388520115156848
10,2,6,0.7788302331478691
10,2,7,0.7422783752740941
10,2,8,0.7359954653261536
10,2,9,0.7667298139888722
10,2,10,0.7885678485657603
10,2,11,0.8378645266188338
10,2,12,0.9190053550918122
10,2,13,1.1833708736705502
10,2,14,1.4928086636137174
10,2,15,2.4882650397529797
10,2,16,3.0229388863199027
10,2,17,1.6523337161950509
10,2,18,1.0559763719625888
10,2,19,0.9799549515953401
10,2,20,0.8890228076194454
10,2,21,0.7934545563030475
10,2,22,0.7202255403571056
10,2,23,0.6672951565506646
10,3,0,0.6194251827385924
10,3,1,0.5708763007515976
10,3,2,0.5412064969551388
10,3,3,0.5252362230583731
10,3,4,0.5489570529120884
10,3,5,0.6276824336370376
10,3,6,0.8574592063655897
10,3,7,0.806245484315915
10,3,8,0.7391365542867331
10,3,9,0.7672675067793908
10,3,10,0.7970499094517374
10,3,11,0.8654161935950005
10,3,12,0.9651224981937263
10,3,13,1.2559653946121438
10,3,14,1.5854672384187363
10,3,15,2.50834639167519
10,3,16,2.693102380527901
10,3,17,1.4769782215007554
10,3,18,1.0604749795914539
10,3,19,1.0849840015763843
10,3,20,0.9082225329117131
10,3,21,0.8118191286723655
10,3,22,0.722922316158877
10,3,23,0.6606363713135597
10,4,0,0.7493881670752309
10,4,1,0.6771538799074575
10,4,2,0.6406962380002209
10,4,3,0.629897576888271
10,4,4,0.6545350627135083
10,4,5,0.7340900638333018
10,4,6,0.9160134537373239
10,4,7,0.8789234578010091
10,4,8,0.8780235693750134
10,4,9,0.8959726952773086
10,4,10,0.9428398573555238
10,4,11,0.9895367702720643
10,4,12,1.0530397075767972
10,4,13,1.213219847404055
10,4,14,1.4192942969571
10,4,15,1.8643985695016871
10,4,16,1.760303367791899
10,4,17,1.1993080587643357
10,4,18,1.1280466239489901
10,4,19,1.1416422355741704
10,4,20,1.0012109985011994
10,4,21,0.919150902573904
10,4,22,0.8852713194006014
10,4,23,0.8280432797690287
10,5,0,0.7198936558573823
10,5,1,0.6305937114400596
10,5,2,0.5904909398501783
10,5,3,0.5616469121264753
10,5,4,0.5632493581111254
10,5,5,0.5868906391314188
10,5,6,0.6774808647311872
10,5,7,0.709946004160463
10,5,8,0.7831382447840297
10,5,9,0.8375381643148805
10,5,10,0.8799717664278897
10,5,11,0.9454639419304098
10,5,12,1.013786411639585
10,5,13,1.1313684871366423
10,5,14,1.4097570577426843
10,5,15,2.254058792771997
10,5,16,2.466663834060128
10,5,17,1.66271460246246
10,5,18,1.1654985055110094
10,5,19,1.0910159837049973
10,5,20,0.9401363293061182
10,5,21,0.866527868946279
10,5,22,0.7934396832567807
10,5,23,0.7187282405958185
10,6,0,0.7881621326945636
10,6,1,0.7132644508131297
10,6,2,0.6661066511100048
10,6,3,0.6220504760283915
10,6,4,0.6272708160603724
10,6,5,0.6555567589114827
10,6,6,0.7278551919903821
10,6,7,0.7526245041086514
10,6,8,0.8377225993580146
10,6,9,0.8972432126933623
10,6,10,0.9312300289685185
10,6,11,1.0089672263485194
10,6,12,1.0806103866200574
10,6,13,1.2498236679077412
10,6,14,1.5525378624819002
10,6,15,1.8780992356060682
10,6,16,1.8078539906569016
10,6,17,1.3160062214512656
10,6,18,1.1747512466110108
10,6,19,1.1171527668439238
10,6,20,0.997478109792779
10,6,21,0.9387875086800894
10,6,22,0.8697654396379981
10,6,23,0.7890795146248699
11,0,0,0.6180537416055073
11,0,1,0.5656518844951508
11,0,2,0.5659046672115539
11,0,3,0.599423655406601
11,0,4,0.6618862646297998
11,0,5,0.7941927383951668
11,0,6,1.199656215505692
11,0,7,1.0993014770936729
11,0,8,1.0313787611961678
11,0,9,1.0199024258714684
11,0,10,1.0409339478762039
11,0,11,1.0413889567657295
11,0,12,1.0627996528450696
11,0,13,1.1475071411117383
11,0,14,1.2155309700958048
11,0,15,1.2515525071832423
11,0,16,1.250288593601227
11,0,17,1.666950345048408
11,0,18,1.3842634332948542
11,0,19,1.1284220460233065
11,0,20,1.031884326628974
11,0,21,0.9724803882742524
11,0,22,0.884613116052545
11,0,23,0.7660327437878649
11,1,0,0.5668840940520478
11,1,1,0.5299919538626541
11,1,2,0.5096613693953018
11,1,3,0.542230211906251
11,1,4,0.6093410943301059
11,1,5,0.7774397763709611
11,1,6,1.471406651411954
11,1,7,1.3304006348226847
11,1,8,1.0827532754984495
11,1,9,1.0242003054021822
11,1,10,1.019588787878508
11,1,11,1.0036701841189017
11,1,12,1.0350861472489326
11,1,13,1.098073268810271
11,1,14,1.1618807083926481
11,1,15,1.16635920137237
11,1,16,1.1631887830748437
11,1,17,1.6562442552334533
11,1,18,1.4688791850768632
11,1,19,1.2019210961222422
11,1,20,1.060471664386466
11,1,21,0.9346969580797169
11,1,22,0.8381211391704626
11,1,23,0.7475092539817294
11,2,0,0.7128179664386407
11,2,1,0.6590073256079065
11,2,2,0.6289226787447428
11,2,3,0.642505107378867
11,2,4,0.7027825414605617
11,2,5,0.8228399639892616
11,2,6,1.403185995103044
11,2,7,1.2358279811367174
11,2,8,1.099614389516153
11,2,9,1.0440951310706166
11,2,10,0.9990438590246282
11,2,11,0.9738687842951368
11,2,12,0.9835365320649672
11,2,13,1.0198500633972836
11,2,14,1.0112853472521985
11,2,15,1.0506916927480177
11,2,16,1.0993764807343451
11,2,17,1.621132067310162
11,2,18,1.4134593288629311
11,2,19,1.1410321456218027
11,2,20,1.0575694193493737
11,2,21,0.9851370093244022
11,2,22,0.880824822537171
11,2,23,0.8115933670310695
11,3,0,0.7592679334300243
11,3,1,0.7053618289248691
11,3,2,0.6761514021117739
11,3,3,0.6912306641760301
11,3,4,0.7115244614750813
11,3,5,0.8422264485290384
11,3,6,1.236792947961873
11,3,7,1.1009441469099364
11,3,8,1.0452998639931828
11,3,9,1.103878733838609
11,3,10,1.094668645631698
11,3,11,1.0715982776232105
11,3,12,1.0620495832322219
11,3,13,1.0648035801960531
11,3,14,1.0808986608125422
11,3,15,1.0887317505375373
11,3,16,1.1139691981241218
11,3,17,1.5087840087586137
11,3,18,1.2987353059024702
11,3,19,1.1069939107321232
11,3,20,0.999384865432259
11,3,21,0.9630411350079291
11,3,22,0.8745520522356474
11,3,23,0.7991105944231562
11,4,0,0.7473434445056091
11,4,1,0.6923786564416013
11,4,2,0.6713312199844347
11,4,3,0.6942009453123517
11,4,4,0.7246103908429984
11,4,5,0.8396651544199997
11,4,6,1.3814316356940834
11,4,7,1.2399081262694331
11,4,8,1.0722119929386307
11,4,9,1.0701619179590365
11,4,10,1.0397296938175054
11,4,11,1.0484311231753383
11,4,12,1.041028074637915
11,4,13,1.071391962946793
11,4,14,1.08968318748695
11,4,15,1.118202008314193
11,4,16,1.1279056965509389
11,4,17,1.4818169738615439
11,4,18,1.2432793606803214
11,4,19,1.0746037470814904
11,4,20,0.9698221370133445
11,4,21,0.9241965794119322
11,4,22,0.848867713217289
11,4,23,0.7877982574362674
11,5,0,0.8045120894570779
11,5,1,0.726328695908058
11,5,2,0.6880086318233092
11,5,3,0.6942078503817292
11,5,4,0.7210972878418808
11,5,5,0.7797675293040591
11,5,6,0.9639654073141622
11,5,7,1.050728310091713
11,5,8,1.1911654596282428
11,5,9,1.2840229528028904
11,5,10,1.1567689515931274
11,5,11,1.1016037535352874
11,5,12,1.0549657506253165
11,5,13,1.0494727721558303
11,5,14,1.0706338177835177
11,5,15,1.1058673511092219
11,5,16,1.1169317791691868
11,5,17,1.4541221860746454
11,5,18,1.247219997057333
11,5,19,1.1156762412333043
11,5,20,0.9962693521228072
11,5,21,0.9433275024930929
11,5,22,0.8802890352956563
11,5,23,0.8030472951985481
11,6,0,0.7921217162637184
11,6,1,0.7323695868007714
11,6,2,0.7098855380853325
11,6,3,0.715373549976025
11,6,4,0.7435136109461571
11,6,5,0.7831336967896765
11,6,6,0.8833739139768135
11,6,7,0.9091899699116015
11,6,8,0.9919861493033234
11,6,9,1.0587382939329704
11,6,10,1.0281902277454935
11,6,11,1.0231222167648029
11,6,12,1.0374302477655368
11,6,13,1.0420222577148917
11,6,14,1.0665223107983401
11,6,15,1.1229704331026051
11,6,16,1.124930437349281
11,6,17,1.6768116330918716
11,6,18,1.429067096312042
11,6,19,1.1860265697242345
11,6,20,1.105078394336521
11,6,21,1.04518626457024
11,6,22,0.9405500378584153
11,6,23,0.852405846879335
12,0,0,0.750977584648221
12,0,1,0.7003946000595556
12,0,2,0.6867859798402698
12,0,3,0.7087395086845893
12,0,4,0.7741935483870968
12,0,5,0.912761825965861
12,0,6,1.6234912743994965
12,0,7,1.4864635953361236
12,0,8,1.2159815698770196
12,0,9,1.1620392246367381
12,0,10,1.0464515415792206
12,0,11,0.9775311552170836
12,0,12,0.926819787418802
12,0,13,0.9002016686251051
12,0,14,0.8847100946647862
12,0,15,0.8722783205336464
12,0,16,0.9168272942703645
12,0,17,1.4999224351441907
12,0,18,1.2848163674327462
12,0,19,1.0888180007524682
12,0,20,1.0054331061069397
12,0,21,0.9449646143778497
12,0,22,0.8525073062527972
12,0,23,0.7768895957890307
12,1,0,0.7583047314581913
12,1,1,0.7118245194732161
12,1,2,0.7016531527263726
12,1,3,0.7378152955595015
12,1,4,0.7835375451186302
12,1,5,0.9071343213332804
12,1,6,1.445483246890979
12,1,7,1.2537432035526432
12,1,8,1.143349643788223
12,1,9,1.120146213396986
12,1,10,1.074057207825351
12,1,11,1.01192873930677
12,1,12,0.9538345869257594
12,1,13,0.9086502461849735
12,1,14,0.8847377541695575
12,1,15,0.8747375402285502
12,1,16,0.9174523904851266
12,1,17,1.562478414880514
12,1,18,1.3364344591724153
12,1,19,1.15009795441834
12,1,20,1.0748885214536985
12,1,21,0.9926862738506019
12,1,22,0.881754805267839
12,1,23,0.813269232532481
12,2,0,0.7856899969845312
12,2,1,0.7436274163849022
12,2,2,0.7384947036820799
12,2,3,0.7489911011593516
12,2,4,0.792516504879285
12,2,5,0.9189352187497996
12,2,6,1.5821586906449896
12,2,7,1.3494928238260526
12,2,8,1.16797443909074
12,2,9,1.1219083425829095
12,2,10,1.067167961607309
12,2,11,1.016097470214227
12,2,12,0.9772684986173756
12,2,13,0.9451120535341936
12,2,14,0.9060521098657156
12,2,15,0.9116211031482779
12,2,16,0.948191681155887
12,2,17,1.3972013883987862
12,2,18,1.2577455842631031
12,2,19,1.0830537074225441
12,2,20,1.0022391459166062
12,2,21,0.9514252901586653
12,2,22,0.8401737423249906
12,2,23,0.7468610253876803
12,3,0,0.701691461846953
12,3,1,0.6580111806582206
12,3,2,0.6419819455658504
12,3,3,0.6486792603817101
12,3,4,0.7093982983813799
12,3,5,0.8428767675607023
12,3,6,1.425814003830848
12,3,7,1.2185665817533056
12,3,8,1.0985319871675838
12,3,9,1.088215167653447
12,3,10,1.0191491086148932
12,3,11,0.9728342219655104
12,3,12,0.9461926975877151
12,3,13,0.9382888812057629
12,3,14,0.9103669878190537
12,3,15,0.9000009233430353
12,3,16,0.9733759165462048
12,3,17,1.6594813479577195
12,3,18,1.44228644358015
12,3,19,1.206920148268373
12,3,20,1.1458071505736527
12,3,21,1.0549009509407328
12,3,22,0.9397416075812621
12,3,23,0.8568869592159383
12,4,0,0.7838160849541354
12,4,1,0.7518212613709891
12,4,2,0.7345335515548282
12,4,3,0.7380047957979675
12,4,4,0.7744528603509306
12,4,5,0.9107905454268641
12,4,6,1.499623187302554
12,4,7,1.346271838008602
12,4,8,1.1289993529478934
12,4,9,1.0906101320747537
12,4,10,1.0187645110950405
12,4,11,0.985171088189396
12,4,12,0.9541810984661059
12,4,13,0.9358200433905531
12,4,14,0.8995318387698397
12,4,15,0.897453659650592
12,4,16,0.9484261409051117
12,4,17,1.549773531762646
12,4,18,1.2851139953564497
12,4,19,1.1080348646899858
12,4,20,1.0001065732881664
12,4,21,0.9708065314200891
12,4,22,0.8716705362920107
12,4,23,0.8162219769344954
12,5,0,0.7789472068636065
12,5,1,0.7247305474232697
12,5,2,0.708845411536292
12,5,3,0.7183074272602744
12,5,4,0.7663311858982969
12,5,5,0.8260500880589052
12,5,6,0.9710422414156954
12,5,7,1.0719473872021057
12,5,8,1.1733129717098774
12,5,9,1.1781475782841748
12,5,10,1.1248748182226298
12,5,11,1.0742495808089139
12,5,12,1.0181221006749261
12,5,13,0.9795833796969545
12,5,14,0.9719400969223506
12,5,15,0.9636291780017727
12,5,16,1.0136328231416498
12,5,17,1.5956734108149377
12,5,18,1.3386334946147853
12,5,19,1.1493931801351385
12,5,20,1.0614263624189915
12,5,21,1.018881824565173
12,5,22,0.9124283921863547
12,5,23,0.8598693121429201
12,6,0,0.7769340489912359
12,6,1,0.7127117223335286
12,6,2,0.6987723333910477
12,6,3,0.7122500075578313
12,6,4,0.7468786157351297
12,6,5,0.7974253904650404
12,6,6,0.9355000948164273
12,6,7,0.9723713176185412
12,6,8,1.1122708946548272
12,6,9,1.1605090955062511
12,6,10,1.088085834975444
12,6,11,1.0297778547302407
12,6,12,0.9771863431365275
12,6,13,0.9349724207870589
12,6,14,0.9192301455775695
12,6,15,0.9098199587205005
12,6,16,0.9864865979041448
12,6,17,1.6588312569909944
12,6,18,1.4703416964170386
12,6,19,1.262657993024809
12,6,20,1.1881680092123093
12,6,21,1.0917575667631323
12,6,22,0.958212064497157
12,6,23,0.8988487361932169
