Month,DayOfWeek,Hour,NormalizedPrice
1,0,0,0.7497407012186577
1,0,1,0.7208786444326917
1,0,2,0.7162140695985961
1,0,3,0.7361282160056962
1,0,4,0.7999970098879269
1,0,5,0.9058694031175656
1,0,6,1.5033834986927603
1,0,7,1.3883837883598675
1,0,8,1.1710549676040047
1,0,9,1.1469247631737796
1,0,10,1.0611907747567264
1,0,11,0.967338632061103
1,0,12,0.9383195943912972
1,0,13,0.9193249074466874
1,0,14,0.9076858962019969
1,0,15,0.8809991459492392
1,0,16,0.9115655666168938
1,0,17,1.3372528719092052
1,0,18,1.4023999387027026
1,0,19,1.1194979601829202
1,0,20,1.0458739256620762
1,0,21,0.9780133321622062
1,0,22,0.8877268981138
1,0,23,0.8042354937516002
1,1,0,0.6250701679273107
1,1,1,0.6010941439512867
1,1,2,0.5976499690785404
1,1,3,0.6303981732553161
1,1,4,0.7196993482707768
1,1,5,0.8706721849578991
1,1,6,1.5406878835450262
1,1,7,1.4911564625850338
1,1,8,1.1831787260358686
1,1,9,1.1274059274059274
1,1,10,1.0220446220446218
1,1,11,0.9490319204604919
1,1,12,0.9114123971266828
1,1,13,0.8893011750154606
1,1,14,0.8853241996099139
1,1,15,0.8802816231387659
1,1,16,0.9308596165739023
1,1,17,1.4920698349269774
1,1,18,1.6451358165643877
1,1,19,1.231283002711574
1,1,20,1.0879025736168593
1,1,21,1.0017982017982017
1,1,22,0.8846391703534557
1,1,23,0.8019028590457161
1,2,0,0.5675877632429092
1,2,1,0.5507626904385119
1,2,2,0.5568305038719765
1,2,3,0.5803376625808807
1,2,4,0.6904272751959398
1,2,5,1.0533724120494787
1,2,6,3.3960278295393893
1,2,7,3.40747427265832
1,2,8,1.5581096139260062
1,2,9,0.9010777859972094
1,2,10,0.8596668320957365
1,2,11,0.7910331201483244
1,2,12,0.7421909675727809
1,2,13,0.7123612970887605
1,2,14,0.6835654022267377
1,2,15,0.6758195761894505
1,2,16,0.6936634423604543
1,2,17,0.9606921801990767
1,2,18,1.0303596677684868
1,2,19,0.8321743934527543
1,2,20,0.7745826037287088
1,2,21,0.717650033241879
1,2,22,0.6610920191398313
1,2,23,0.6031406552863952
1,3,0,0.707630212898276
1,3,1,0.6775254858677087
1,3,2,0.6835506594658208
1,3,3,0.7080953140181302
1,3,4,0.7887692173528522
1,3,5,1.0254634054386882
1,3,6,1.9188592337987576
1,3,7,1.6976402284280727
1,3,8,1.240107572251433
1,3,9,1.095207432456835
1,3,10,1.0365412684752173
1,3,11,0.9478549413030056
1,3,12,0.9065455054759491
1,3,13,0.883523000043163
1,3,14,0.8535662597325493
1,3,15,0.8521709563729865
1,3,16,0.8772652758851235
1,3,17,1.2452871074498102
1,3,18,1.2884569477562837
1,3,19,1.0404734870339851
1,3,20,0.9861200788910156
1,3,21,0.9112810805144653
1,3,22,0.8476256499744107
1,3,23,0.7804396791154623
1,4,0,0.7891334298936659
1,4,1,0.7413007383332744
1,4,2,0.7371086068228117
1,4,3,0.7563500194298229
1,4,4,0.8209747883326854
1,4,5,0.9805584013377138
1,4,6,1.5814462853711095
1,4,7,1.387995902073692
1,4,8,1.1443341458532046
1,4,9,1.098738827851768
1,4,10,1.0491868913460745
1,4,11,0.9876473428245074
1,4,12,0.9477749908738708
1,4,13,0.9196547379329021
1,4,14,0.8941486793608178
1,4,15,0.8754253953674589
1,4,16,0.9050764828487652
1,4,17,1.3283875602030122
1,4,18,1.3186844243473346
1,4,19,1.0774720033913872
1,4,20,1.0119051824637015
1,4,21,0.9541102907408061
1,4,22,0.876155485686697
1,4,23,0.8164293873129143
1,5,0,0.8799222576413713
1,5,1,0.8159261242792295
1,5,2,0.7814704487900884
1,5,3,0.7732128831949733
1,5,4,0.815631211222261
1,5,5,0.8739011160615999
1,5,6,1.0543633308381777
1,5,7,1.1680031621233329
1,5,8,1.3561822685572504
1,5,9,1.3148452884055135
1,5,10,1.1552973245856113
1,5,11,1.0680522118991274
1,5,12,0.9659877180999815
1,5,13,0.9091923785454846
1,5,14,0.8856976383403357
1,5,15,0.8663316809327444
1,5,16,0.8898509972259738
1,5,17,1.1928495871729203
1,5,18,1.3511195944126262
1,5,19,1.1196865729566774
1,5,20,1.0292711449077832
1,5,21,0.9785215230211385
1,5,22,0.9079389980533689
1,5,23,0.8467445387324266
1,6,0,0.84886735828963
1,6,1,0.7760005525835858
1,6,2,0.7409651037279804
1,6,3,0.751084806116358
1,6,4,0.7850810679296364
1,6,5,0.8477044585041684
1,6,6,1.0596738725903077
1,6,7,1.1537697850181805
1,6,8,1.2382903311274664
1,6,9,1.1885330658388908
1,6,10,1.0902309201444549
1,6,11,1.024193057859419
1,6,12,0.9652068219330323
1,6,13,0.9314085005087686
1,6,14,0.9004308296279648
1,6,15,0.8986246235782054
1,6,16,0.9227733510380014
1,6,17,1.2744391946712796
1,6,18,1.5434154407936582
1,6,19,1.193877456342288
1,6,20,1.0830555810426716
1,6,21,1.0120692090322674
1,6,22,0.9141134590186072
1,6,23,0.8561911526831747
2,0,0,0.6563738104963317
2,0,1,0.6082161047275291
2,0,2,0.5944975891376031
2,0,3,0.6245925827130032
2,0,4,0.6978437399150452
2,0,5,0.8511767318732799
2,0,6,1.3922578509326091
2,0,7,1.2889974408776042
2,0,8,1.1314917337607666
2,0,9,1.1236893280189963
2,0,10,1.0646997109823146
2,0,11,1.056611502832421
2,0,12,1.0529246517676285
2,0,13,1.076617671401063
2,0,14,1.074216931172826
2,0,15,1.093565754202784
2,0,16,1.0666431673575543
2,0,17,1.2054573969831173
2,0,18,1.6526810052147032
2,0,19,1.151440741847784
2,0,20,1.0328041622357371
2,0,21,0.9482066494311936
2,0,22,0.8355719203897393
2,0,23,0.7194218217283662
2,1,0,0.6171450574241688
2,1,1,0.5617868258861687
2,1,2,0.5380026311697352
2,1,3,0.5766852691518797
2,1,4,0.6608629545617226
2,1,5,0.8152973147752769
2,1,6,1.2269445603157405
2,1,7,1.1094156877941863
2,1,8,1.0624693009628698
2,1,9,1.0762422157114897
2,1,10,1.0646018813110434
2,1,11,1.0588557620395762
2,1,12,1.0636836869944686
2,1,13,1.107223869103008
2,1,14,1.1311561596769535
2,1,15,1.1585835124881834
2,1,16,1.1489276625783984
2,1,17,1.27368361294654
2,1,18,1.8332193817985258
2,1,19,1.1768585413051689
2,1,20,1.0706441922975345
2,1,21,0.9960334992829691
2,1,22,0.8775271941018357
2,1,23,0.7941492263225577
2,2,0,0.6746245326304965
2,2,1,0.6226415792127358
2,2,2,0.60201999780569
2,2,3,0.6227303378127661
2,2,4,0.7001870094392305
2,2,5,0.846845802889339
2,2,6,1.3640125790660376
2,2,7,1.1540984899943167
2,2,8,1.0518781689593915
2,2,9,1.0407537577555908
2,2,10,1.0444816189568642
2,2,11,1.059333891361939
2,2,12,1.053653340959998
2,2,13,1.072677267566498
2,2,14,1.0966125033746756
2,2,15,1.143802492390799
2,2,16,1.0900147807724214
2,2,17,1.2013476514104602
2,2,18,1.692656088778324
2,2,19,1.2008150998102782
2,2,20,1.090724849572664
2,2,21,0.9837115641361013
2,2,22,0.8317272546841734
2,2,23,0.7586493406592051
2,3,0,0.6391477639417381
2,3,1,0.6067643553147024
2,3,2,0.5986538632806256
2,3,3,0.6223119050262358
2,3,4,0.6734636363747271
2,3,5,0.8715118967303052
2,3,6,1.6177357233746377
2,3,7,1.3274562359167428
2,3,8,1.1130113129651973
2,3,9,1.0753282687491077
2,3,10,1.0684768061643644
2,3,11,1.0408074380336694
2,3,12,1.0219805558029424
2,3,13,1.0303838453833758
2,3,14,1.0279829055032517
2,3,15,1.0340145349581968
2,3,16,1.0353614036714371
2,3,17,1.170604590333533
2,3,18,1.607634208025337
2,3,19,1.1485276553382482
2,3,20,1.0618888613713418
2,3,21,0.9863470944113488
2,3,22,0.8636063629786781
2,3,23,0.7569987763502541
2,4,0,0.7053233283052595
2,4,1,0.6593446091581231
2,4,2,0.6363408722489867
2,4,3,0.6706164402435999
2,4,4,0.7342217727973621
2,4,5,0.8521446791278229
2,4,6,1.534205478483718
2,4,7,1.2554001871449845
2,4,8,1.1546150648118305
2,4,9,1.1295122369097355
2,4,10,1.078472695642589
2,4,11,1.0630601919134675
2,4,12,1.030337376160221
2,4,13,1.0382161560516001
2,4,14,1.0599259327595978
2,4,15,1.0366058944679606
2,4,16,1.031918883072724
2,4,17,1.1806092875191547
2,4,18,1.5124957017757206
2,4,19,1.0707376891068918
2,4,20,0.9985059552122033
2,4,21,0.9522971986959756
2,4,22,0.8463362355582658
2,4,23,0.7687561328322033
2,5,0,0.8020418154402502
2,5,1,0.7354922093774683
2,5,2,0.7159722448873019
2,5,3,0.7262178763291709
2,5,4,0.7660411104656096
2,5,5,0.8448102769636481
2,5,6,0.9496791712631449
2,5,7,1.0323021991292258
2,5,8,1.182790785720347
2,5,9,1.2972473351305833
2,5,10,1.2272511863809341
2,5,11,1.0914260723121207
2,5,12,1.0496289091822946
2,5,13,1.076511942139859
2,5,14,1.0705274907472078
2,5,15,1.0598745406241634
2,5,16,1.030202941310861
2,5,17,1.1578190173436818
2,5,18,1.5123115987910989
2,5,19,1.068647558372553
2,5,20,1.0210852692937848
2,5,21,0.9413134721959308
2,5,22,0.865301539847386
2,5,23,0.7755034367513723
2,6,0,0.7441862996550762
2,6,1,0.6867452666526066
2,6,2,0.6348883249766989
2,6,3,0.6543183503527474
2,6,4,0.6830225391015654
2,6,5,0.7328548394777838
2,6,6,0.8965568852090973
2,6,7,0.9659824884855328
2,6,8,1.1380116879494384
2,6,9,1.1892481750335058
2,6,10,1.13546455857241
2,6,11,1.091673526590425
2,6,12,1.0861874017783641
2,6,13,1.0734517548932232
2,6,14,1.0887998421650598
2,6,15,1.0816156311016467
2,6,16,1.0571240024763757
2,6,17,1.2219363353720345
2,6,18,1.75931532291532
2,6,19,1.2362721019940266
2,6,20,1.0953635986366326
2,6,21,1.0161739994149221
2,6,22,0.9162481546238153
2,6,23,0.8145589125716889
3,0,0,0.5664525832507461
3,0,1,0.514734246666017
3,0,2,0.4860949971408556
3,0,3,0.4983185289104545
3,0,4,0.5573180306286991
3,0,5,0.7114801542283159
3,0,6,1.1545059563975881
3,0,7,1.1059207272339477
3,0,8,0.9574732150573023
3,0,9,0.9690789509973909
3,0,10,0.9888704816784923
3,0,11,1.026886989330151
3,0,12,1.024084843960586
3,0,13,1.129154263250893
3,0,14,1.2553611255651635
3,0,15,1.4164072598364679
3,0,16,1.5769679830988712
3,0,17,1.4430828011892567
3,0,18,1.567502468425301
3,0,19,1.4243944773465669
3,0,20,1.1862121209335335
3,0,21,0.9267599366759273
3,0,22,0.8052747996300578
3,0,23,0.7076630585674123
3,1,0,0.5807399233152735
3,1,1,0.5252776053520933
3,1,2,0.500427871143093
3,1,3,0.5049441468504853
3,1,4,0.5686215907610487
3,1,5,0.7025158823213862
3,1,6,2.205148247771877
3,1,7,1.9693005647899091
3,1,8,1.1702262991317411
3,1,9,0.9432272468343923
3,1,10,0.8732147555514687
3,1,11,0.9059730811575768
3,1,12,0.9373622191057878
3,1,13,1.0566654660730117
3,1,14,1.1780327123454237
3,1,15,1.28045612341081
3,1,16,1.3501620801434582
3,1,17,1.1473179504078188
3,1,18,1.2224189152253158
3,1,19,1.143557793257773
3,1,20,0.9815236299821445
3,1,21,0.835960589874653
3,1,22,0.7541567362244652
3,1,23,0.6627685689689966
3,2,0,0.6839715793064916
3,2,1,0.6249704569165426
3,2,2,0.5949714952508566
3,2,3,0.598934965660801
3,2,4,0.6510771482395288
3,2,5,0.7936671495745302
3,2,6,1.3398191320514026
3,2,7,1.1656875009270842
3,2,8,0.9780515903820576
3,2,9,1.0059857500976528
3,2,10,1.0078844185575064
3,2,11,1.013295623668089
3,2,12,1.049488991184047
3,2,13,1.166636835157011
3,2,14,1.2585086552581743
3,2,15,1.3465356717281345
3,2,16,1.367895691901487
3,2,17,1.1629344316602965
3,2,18,1.3255316518910045
3,2,19,1.2193960849851913
3,2,20,1.12892453287317
3,2,21,0.931842746740372
3,2,22,0.8409677275806314
3,2,23,0.7430201684079368
3,3,0,0.6906250212359467
3,3,1,0.6085198132595795
3,3,2,0.5556779824734271
3,3,3,0.5582874555986693
3,3,4,0.6182121420104787
3,3,5,0.7314446365522336
3,3,6,1.1196037639319945
3,3,7,1.0775493086546555
3,3,8,0.9843305410288198
3,3,9,1.003365715522773
3,3,10,1.004204474741601
3,3,11,1.0291575615017288
3,3,12,1.0432300772842842
3,3,13,1.1270827002998758
3,3,14,1.2133584055031923
3,3,15,1.310304991879374
3,3,16,1.4348607358753045
3,3,17,1.2902679660962653
3,3,18,1.4204853348192832
3,3,19,1.343435981023073
3,3,20,1.221303319214867
3,3,21,0.9704910139181608
3,3,22,0.8753850380499626
3,3,23,0.7688160195244507
3,4,0,0.6969280075796761
3,4,1,0.6246735856991623
3,4,2,0.5922588691394071
3,4,3,0.5917948073418444
3,4,4,0.6424703556356921
3,4,5,0.7747743741208204
3,4,6,1.1713847894077896
3,4,7,1.053977154624424
3,4,8,0.9997051273994655
3,4,9,1.0797325843891548
3,4,10,1.049150911929772
3,4,11,1.0448119341225608
3,4,12,1.0659035428217858
3,4,13,1.1566740304250516
3,4,14,1.242223822805737
3,4,15,1.3825097042089438
3,4,16,1.3914892999917823
3,4,17,1.2102963711334227
3,4,18,1.2623873079098364
3,4,19,1.1783689194611084
3,4,20,1.106903402636451
3,4,21,0.9928602158854154
3,4,22,0.8885855299730747
3,4,23,0.8001353513576224
3,5,0,0.724149763160282
3,5,1,0.6538432716616644
3,5,2,0.6171163531810671
3,5,3,0.6090705076376374
3,5,4,0.6512875324890455
3,5,5,0.6936938713532403
3,5,6,0.7789561698619981
3,5,7,0.8320350861970367
3,5,8,0.9669686488106743
3,5,9,1.0993464722516932
3,5,10,1.1177335957435903
3,5,11,1.1659850047525708
3,5,12,1.1570872461516013
3,5,13,1.1843721282444677
3,5,14,1.2474136945024001
3,5,15,1.4130397914390629
3,5,16,1.4630423550663192
3,5,17,1.2959254102789624
3,5,18,1.2191349138424041
3,5,19,1.2408823610612632
3,5,20,1.1732972584964527
3,5,21,0.9758427431600455
3,5,22,0.8959995582673037
3,5,23,0.8237762623892219
3,6,0,0.7848896356907497
3,6,1,0.708194514388378
3,6,2,0.648240073151387
3,6,3,0.6219768444679264
3,6,4,0.6323487014762672
3,6,5,0.6598868826150383
3,6,6,0.781672558454912
3,6,7,0.8167000953987132
3,6,8,0.9339818631084141
3,6,9,1.0350238249316062
3,6,10,1.075533261485275
3,6,11,1.0404285146878136
3,6,12,1.0398108358585327
3,6,13,1.0681725887696785
3,6,14,1.1296573689010094
3,6,15,1.2577999893588983
3,6,16,1.3945901134267191
3,6,17,1.2587779808385933
3,6,18,1.3236599945309686
3,6,19,1.524843136551318
3,6,20,1.3768833203206683
3,6,21,1.1016559286402776
3,6,22,0.9437875145232477
3,6,23,0.8414844584236072
4,0,0,0.5938070497523147
4,0,1,0.5376655916624722
4,0,2,0.5004986293053405
4,0,3,0.5062815287640082
4,0,4,0.5578748701977453
4,0,5,0.6907169200400962
4,0,6,1.0324224809358968
4,0,7,0.93777637911948
4,0,8,0.9069068090554171
4,0,9,0.9339485524315361
4,0,10,0.9093146355204138
4,0,11,0.9435798582915238
4,0,12,1.0170494350439936
4,0,13,1.1632271391540194
4,0,14,1.3810839849527998
4,0,15,1.7552025944158667
4,0,16,2.0509742350563416
4,0,17,1.6345848943188845
4,0,18,1.1855767078804011
4,0,19,1.1276859741535952
4,0,20,1.181090330364424
4,0,21,0.9093557949471659
4,0,22,0.8271398400098784
4,0,23,0.7162357646263882
4,1,0,0.6631806545094183
4,1,1,0.5591258192629075
4,1,2,0.5160849555927598
4,1,3,0.5057695628345559
4,1,4,0.5700493246946299
4,1,5,0.7096674899961711
4,1,6,0.9331151134768281
4,1,7,0.8878219806455003
4,1,8,0.8675290355032697
4,1,9,0.9088356519193088
4,1,10,0.9377097425656349
4,1,11,1.0144220301954219
4,1,12,1.0699179423268945
4,1,13,1.2346263860839797
4,1,14,1.4565649892266461
4,1,15,1.8618157793977432
4,1,16,1.9368613878482572
4,1,17,1.5176240061862325
4,1,18,1.1413373974279089
4,1,19,1.0484087718376265
4,1,20,1.141742805876921
4,1,21,0.949106224521205
4,1,22,0.8440829135353869
4,1,23,0.7246000345347939
4,2,0,0.6376034668250152
4,2,1,0.5792217914715249
4,2,2,0.5235691037394321
4,2,3,0.5266712862492261
4,2,4,0.5572965917782445
4,2,5,0.6838329836251024
4,2,6,0.9208117377567293
4,2,7,0.8500679817251127
4,2,8,0.847059097937418
4,2,9,0.9021053439758667
4,2,10,0.933337091198529
4,2,11,1.0105884330965553
4,2,12,1.0826616959180837
4,2,13,1.221466869720969
4,2,14,1.437360112658207
4,2,15,1.705477315290397
4,2,16,1.8782898732983915
4,2,17,1.571453700995089
4,2,18,1.1318067977837665
4,2,19,1.136751630055017
4,2,20,1.3621380179658351
4,2,21,0.9400779238701865
4,2,22,0.851140917029252
4,2,23,0.7092102360360483
4,3,0,0.6752365258663932
4,3,1,0.5837829223267545
4,3,2,0.5168477111569924
4,3,3,0.5009352745089426
4,3,4,0.5453626014831584
4,3,5,0.6811454584275334
4,3,6,0.9086516212276154
4,3,7,0.8503223657796797
4,3,8,0.8522102819921602
4,3,9,0.8793276239532435
4,3,10,0.9476113467033489
4,3,11,0.9787006682283521
4,3,12,1.0417864917960438
4,3,13,1.1808548133179821
4,3,14,1.3866867172630934
4,3,15,1.717439830332725
4,3,16,2.0404696498058454
4,3,17,1.5856779897370097
4,3,18,1.1569493807573528
4,3,19,1.1240702165893486
4,3,20,1.2322944005099827
4,3,21,0.9603854291280545
4,3,22,0.8926656294024562
4,3,23,0.7605850497059324
4,4,0,0.6819448011537625
4,4,1,0.6255210699962463
4,4,2,0.5675563545844281
4,4,3,0.5585001086591462
4,4,4,0.593539719856965
4,4,5,0.7215125353142225
4,4,6,0.9046525870754885
4,4,7,0.8364699606851452
4,4,8,0.8450046427089712
4,4,9,0.9172412430606318
4,4,10,0.9660785901969694
4,4,11,1.0093209791176876
4,4,12,1.0889780113400638
4,4,13,1.2229251042139992
4,4,14,1.4781358041764625
4,4,15,1.7152340122883616
4,4,16,1.8873500997688522
4,4,17,1.4630104510342377
4,4,18,1.114487227611277
4,4,19,1.0678546733310943
4,4,20,1.123330106485963
4,4,21,0.9490566410494498
4,4,22,0.8875595155777705
4,4,23,0.7747357607128039
4,5,0,0.7455130047660747
4,5,1,0.6557415872718783
4,5,2,0.5851757985395242
4,5,3,0.5466957857816086
4,5,4,0.5532733698563684
4,5,5,0.6179720452676822
4,5,6,0.7511280155616014
4,5,7,0.7585994176813634
4,5,8,0.8733060667899805
4,5,9,0.9846207910098712
4,5,10,1.0507633263400349
4,5,11,1.1437204030202646
4,5,12,1.1824754367151042
4,5,13,1.294981918328331
4,5,14,1.4378323766488126
4,5,15,1.6010343843016521
4,5,16,1.679736209084667
4,5,17,1.3465712624129458
4,5,18,1.126256573525606
4,5,19,1.1141556523009606
4,5,20,1.2510931604775815
4,5,21,1.0273636282901049
4,5,22,0.8898073230054058
4,5,23,0.7821824630225758
4,6,0,0.8146958298571081
4,6,1,0.728010938749335
4,6,2,0.6669369357409746
4,6,3,0.6341206877360812
4,6,4,0.6276750766641715
4,6,5,0.6761764618782746
4,6,6,0.7698951567033026
4,6,7,0.8091325077532163
4,6,8,0.9124338410919959
4,6,9,0.980786728086505
4,6,10,1.0044369740347667
4,6,11,1.0397530407823778
4,6,12,1.05935946229389
4,6,13,1.12406065328188
4,6,14,1.2285628799382398
4,6,15,1.3380402360531456
4,6,16,1.4357782472880336
4,6,17,1.3104932138294711
4,6,18,1.1931732891099602
4,6,19,1.2945629963513674
4,6,20,1.566724634958045
4,6,21,1.0737701821048513
4,6,22,0.9158159488027319
4,6,23,0.795604076910273
5,0,0,0.6374095136147722
5,0,1,0.556205258580317
5,0,2,0.4933056800695791
5,0,3,0.4874610289690238
5,0,4,0.5395276644142637
5,0,5,0.6221877299792601
5,0,6,0.7269846791998392
5,0,7,0.7380531210276309
5,0,8,0.7747695189670167
5,0,9,0.808017662407172
5,0,10,0.8965866060078944
5,0,11,0.9767418211012242
5,0,12,1.1245065899511606
5,0,13,1.3794018866662205
5,0,14,1.6444878570950692
5,0,15,2.093305680069579
5,0,16,2.1435097343948617
5,0,17,1.6298227068977047
5,0,18,1.152980531210276
5,0,19,1.0229209874891283
5,0,20,1.0706844182779152
5,0,21,0.9087254967552014
5,0,22,0.8470676389911017
5,0,23,0.7253361878637853
5,1,0,0.584651895619473
5,1,1,0.5357261810367974
5,1,2,0.4923185462757291
5,1,3,0.48294536959245105
5,1,4,0.5160916435893659
5,1,5,0.5999022052634355
5,1,6,0.7478887911641432
5,1,7,0.7331298173947073
5,1,8,0.7608902943054644
5,1,9,0.8036932079901922
5,1,10,0.8933620050913106
5,1,11,0.985600866766876
5,1,12,1.1419401625345371
5,1,13,1.3932206672876606
5,1,14,1.7741949453821908
5,1,15,2.170438430654319
5,1,16,2.2871307008544046
5,1,17,1.5814023072313774
5,1,18,1.1054679226177493
5,1,19,1.0102243530941168
5,1,20,1.029877788075184
5,1,21,0.8811541983626863
5,1,22,0.7997247259267075
5,1,23,0.6890229738891203
5,2,0,0.5647091736784471
5,2,1,0.5155532272475123
5,2,2,0.4827880818360659
5,2,3,0.470198761775917
5,2,4,0.49934344913085005
5,2,5,0.5616482409579403
5,2,6,0.6812385532155907
5,2,7,0.6686492331554417
5,2,8,0.6940747226886838
5,2,9,0.7465055379980101
5,2,10,0.8048442825904651
5,2,11,0.9081425335938051
5,2,12,1.041507043093736
5,2,13,1.32071018576104
5,2,14,1.785626370099953
5,2,15,2.389123814865683
5,2,16,2.8315437893716244
5,2,17,2.003824794515006
5,2,18,1.0582763465464051
5,2,19,0.910660397605835
5,2,20,0.9335021966169286
5,2,21,0.779715012352756
5,2,22,0.7200268243028731
5,2,23,0.6277874269994289
5,3,0,0.6049528216854401
5,3,1,0.5386908648649947
5,3,2,0.49896445662615563
5,3,3,0.48615817013677176
5,3,4,0.5214427582869507
5,3,5,0.6128942576015293
5,3,6,0.7460719456277636
5,3,7,0.7111527019870415
5,3,8,0.728708467099365
5,3,9,0.7792221526963787
5,3,10,0.8495798137544195
5,3,11,0.9278019960949799
5,3,12,1.1087436715681052
5,3,13,1.3108945572481225
5,3,14,1.7265604657181062
5,3,15,2.2374851478643767
5,3,16,2.49491842642274
5,3,17,1.6079196434365777
5,3,18,1.1138200373837166
5,3,19,1.0025245626081112
5,3,20,1.0267911294994057
5,3,21,0.8693661032402693
5,3,22,0.7991045854741906
5,3,23,0.6962312630744862
5,4,0,0.6360522083140271
5,4,1,0.5750651400414181
5,4,2,0.5386915942482483
5,4,3,0.5368553800817184
5,4,4,0.5660697537874066
5,4,5,0.6477503367682115
5,4,6,0.7311433441964543
5,4,7,0.7097896176531017
5,4,8,0.7406338893268333
5,4,9,0.7833000791738414
5,4,10,0.8611638124826457
5,4,11,0.951365254460943
5,4,12,1.0967769111542274
5,4,13,1.3465639326618313
5,4,14,1.652840329315039
5,4,15,2.1938632966061844
5,4,16,2.3582354119403783
5,4,17,1.6228625856749508
5,4,18,1.1063293511441523
5,4,19,1.0007160891389135
5,4,20,0.9927522838773346
5,4,21,0.853901482295921
5,4,22,0.7975977917289556
5,4,23,0.6996801239272633
5,5,0,0.6449290090299351
5,5,1,0.5725879039516855
5,5,2,0.5318443134636044
5,5,3,0.5054731279579571
5,5,4,0.5198455329403907
5,5,5,0.5391393978107487
5,5,6,0.6489358613280682
5,5,7,0.6600635870038617
5,5,8,0.7154844516709735
5,5,9,0.7907000377457101
5,5,10,0.9024781510409106
5,5,11,0.9645625852907871
5,5,12,1.1202636392671526
5,5,13,1.3797291019424522
5,5,14,1.6829432943294331
5,5,15,2.2072965361052233
5,5,16,2.492523445892976
5,5,17,1.671576028570599
5,5,18,1.1320228797073257
5,5,19,1.001125112511251
5,5,20,0.9969440492436339
5,5,21,0.869944252489765
5,5,22,0.7691632066432449
5,5,23,0.6804244940623095
5,6,0,0.6838649426115629
5,6,1,0.6108597024217863
5,6,2,0.5437806614514576
5,6,3,0.49627883113214616
5,6,4,0.499414874298858
5,6,5,0.5212749399021139
5,6,6,0.6391071500631245
5,6,7,0.6611286296529022
5,6,8,0.7400139507802637
5,6,9,0.809929266085192
5,6,10,0.8942796036133673
5,6,11,0.9642640963410908
5,6,12,1.1252630183262524
5,6,13,1.3787752137294125
5,6,14,1.6754080026748603
5,6,15,2.0263220093735406
5,6,16,2.1282895305735385
5,6,17,1.652256625179429
5,6,18,1.2330875613229029
5,6,19,1.0969002749802554
5,6,20,1.0929110435990705
5,6,21,0.962373246784691
5,6,22,0.8285379928170775
5,6,23,0.7356788322851032
6,0,0,0.6152020938273265
6,0,1,0.5768477480013275
6,0,2,0.5454302554687797
6,0,3,0.5389168728705684
6,0,4,0.5470838077073348
6,0,5,0.5869908794158794
6,0,6,0.6305478652119664
6,0,7,0.6427478542891112
6,0,8,0.6928383879546113
6,0,9,0.7532737057466823
6,0,10,0.8668041826133351
6,0,11,1.0247789172089585
6,0,12,1.2574256510651887
6,0,13,1.5484306797796945
6,0,14,1.868493864296127
6,0,15,2.2638340062092235
6,0,16,2.26326937861557
6,0,17,1.4883381715980557
6,0,18,1.1348611327000877
6,0,19,0.9732969798305278
6,0,20,0.9209076052480119
6,0,21,0.8198997617977339
6,0,22,0.758375519360761
6,0,23,0.6814046791831384
6,1,0,0.6283216186736098
6,1,1,0.584980536835267
6,1,2,0.5589469385363769
6,1,3,0.5462092923472456
6,1,4,0.5559486289626365
6,1,5,0.5932310576623179
6,1,6,0.6419277407392727
6,1,7,0.6566297966491306
6,1,8,0.7012529143052106
6,1,9,0.7762933656369598
6,1,10,0.8940338808981834
6,1,11,1.0521585244181297
6,1,12,1.2465110187876833
6,1,13,1.564579969568881
6,1,14,1.8630875351310552
6,1,15,2.2179426426824875
6,1,16,2.1548747516486393
6,1,17,1.4262648472326807
6,1,18,1.1338572908032885
6,1,19,0.9666343285768196
6,1,20,0.9175240855586593
6,1,21,0.8344192153734015
6,1,22,0.7761279416604776
6,1,23,0.7082420773115846
6,2,0,0.6164595938417299
6,2,1,0.5676343377463607
6,2,2,0.5420044329958665
6,2,3,0.5264577966812437
6,2,4,0.5353908824057989
6,2,5,0.5762798777930869
6,2,6,0.6374504283232493
6,2,7,0.6468435871323308
6,2,8,0.7050428323249267
6,2,9,0.7845396273887257
6,2,10,0.9168106391900795
6,2,11,1.0410112023003655
6,2,12,1.2133852513029413
6,2,13,1.5462289582459712
6,2,14,1.8134739112202718
6,2,15,2.253514646857964
6,2,16,2.306806445815611
6,2,17,1.5260624213742287
6,2,18,1.131741448511352
6,2,19,0.9636997543880668
6,2,20,0.8937303061163362
6,2,21,0.8077158090217457
6,2,22,0.7619385371113638
6,2,23,0.6857772719103816
6,3,0,0.619503278256245
6,3,1,0.5605080738512697
6,3,2,0.5295266528713234
6,3,3,0.5088962086642502
6,3,4,0.5213209562586314
6,3,5,0.5637259940915409
6,3,6,0.6259391187367876
6,3,7,0.6427080586555352
6,3,8,0.6762459384930302
6,3,9,0.74391165021207
6,3,10,0.8496560847743209
6,3,11,0.9947842876105601
6,3,12,1.1981747241303795
6,3,13,1.538273138857728
6,3,14,1.951025041676537
6,3,15,2.378132444233889
6,3,16,2.362185861709878
6,3,17,1.4844802388411913
6,3,18,1.10573102656125
6,3,19,0.9629447545665417
6,3,20,0.9072389797405107
6,3,21,0.8244847975615315
6,3,22,0.7707097748796632
6,3,23,0.6798929147653378
6,4,0,0.5849771927872724
6,4,1,0.5398420183313507
6,4,2,0.5093068832424754
6,4,3,0.4963157579440133
6,4,4,0.5019127249698329
6,4,5,0.533355013735676
6,4,6,0.5923884671670275
6,4,7,0.5903345343135157
6,4,8,0.6356237537334508
6,4,9,0.7238915181131204
6,4,10,0.8541450932399934
6,4,11,0.9983311795565216
6,4,12,1.2527278795710703
6,4,13,1.6092563907264932
6,4,14,2.0531968609059557
6,4,15,2.5420328800417638
6,4,16,2.4248046624275776
6,4,17,1.5088875386182168
6,4,18,1.1036637027274518
6,4,19,0.9238418814024938
6,4,20,0.8511668906024015
6,4,21,0.7604344067985178
6,4,22,0.7420003594382494
6,4,23,0.6675624096055592
6,5,0,0.6663750147043334
6,5,1,0.6005180538459232
6,5,2,0.5672666547238008
6,5,3,0.5445331787424162
6,5,4,0.5370783700602091
6,5,5,0.543426028938128
6,5,6,0.5626166255457902
6,5,7,0.593487652588693
6,5,8,0.6613190305980838
6,5,9,0.7562755788125357
6,5,10,0.9020687555405544
6,5,11,1.0557780533692336
6,5,12,1.2849027053666782
6,5,13,1.5424072973473768
6,5,14,1.850988400299238
6,5,15,2.2039293054095803
6,5,16,2.218765112787042
6,5,17,1.5500466309969654
6,5,18,1.1245689612090077
6,5,19,0.9587548255201106
6,5,20,0.9268135536663957
6,5,21,0.8418398061872759
6,5,22,0.7922394949551641
6,5,23,0.7140009087854644
6,6,0,0.6701665450607225
6,6,1,0.6186700292616951
6,6,2,0.5847051077038848
6,6,3,0.5646108906385456
6,6,4,0.5520825123872815
6,6,5,0.5544824290003483
6,6,6,0.564793935125983
6,6,7,0.5877761874375551
6,6,8,0.6530417163471439
6,6,9,0.7371608274627746
6,6,10,0.851767014874907
6,6,11,0.9935451395332874
6,6,12,1.2240184874932314
6,6,13,1.5108695375838637
6,6,14,1.8153742115740048
6,6,15,2.1655179777651794
6,6,16,2.182683483031522
6,6,17,1.5572408077346465
6,6,18,1.1720745296138015
6,6,19,1.027977841447882
6,6,20,1.0040193518699774
6,6,21,0.8752170475432632
6,6,22,0.8025077094778912
6,6,23,0.7296966800306091
7,0,0,0.4246170750193075
7,0,1,0.3946340885807795
7,0,2,0.37550066323646936
7,0,3,0.3582656234494721
7,0,4,0.3615676637824949
7,0,5,0.38389958115670175
7,0,6,0.4089237544121884
7,0,7,0.42115395954808843
7,0,8,0.46005360542247953
7,0,9,0.503302280028169
7,0,10,0.602777683231359
7,0,11,0.7267250020733631
7,0,12,0.8930120715269493
7,0,13,1.203587948703321
7,0,14,2.1707406052685956
7,0,15,3.853331498866482
7,0,16,4.132750842168896
7,0,17,2.4385165171528245
7,0,18,0.9115127016854885
7,0,19,0.7273693026261481
7,0,20,0.6707283808161428
7,0,21,0.5938150023274399
7,0,22,0.5150262490154522
7,0,23,0.4681878999013895
7,1,0,0.48138726550325206
7,1,1,0.45217213452905414
7,1,2,0.4282003874433041
7,1,3,0.4146177919450374
7,1,4,0.4160123089366459
7,1,5,0.4342386460169689
7,1,6,0.46766521830582447
7,1,7,0.476924811130105
7,1,8,0.5200293313407234
7,1,9,0.5659647210443073
7,1,10,0.6568732837272651
7,1,11,0.7825889905207708
7,1,12,0.966177152466029
7,1,13,1.3146251131592432
7,1,14,1.9543458378897238
7,1,15,3.023494125016124
7,1,16,4.018468053358869
7,1,17,2.217477249036331
7,1,18,1.0291256494672365
7,1,19,0.8280781347870398
7,1,20,0.752927614109258
7,1,21,0.6678760227910561
7,1,22,0.5924326535450365
7,1,23,0.5382975039307948
7,2,0,0.39347808777509524
7,2,1,0.3679505072615089
7,2,2,0.34516317550361836
7,2,3,0.3299836396332514
7,2,4,0.3333248201336172
7,2,5,0.3564847295732032
7,2,6,0.3850049501752467
7,2,7,0.3939107586312578
7,2,8,0.4244621285302862
7,2,9,0.45593893331610663
7,2,10,0.5428817381349782
7,2,11,0.6614936458979648
7,2,12,0.8004651211703746
7,2,13,1.125701400020732
7,2,14,1.9282457450276653
7,2,15,3.9958595802792223
7,2,16,4.382150524388064
7,2,17,3.173760916300724
7,2,18,0.8923115290257546
7,2,19,0.6681159137242292
7,2,20,0.6031912480300705
7,2,21,0.5380742841776174
7,2,22,0.47108241328179334
7,2,23,0.43096421000761675
7,3,0,0.42795893608808344
7,3,1,0.39801573442641036
7,3,2,0.37841203610095037
7,3,3,0.36539804790177016
7,3,4,0.3655910519640461
7,3,5,0.38544289836957524
7,3,6,0.4131114092972814
7,3,7,0.42209988419756267
7,3,8,0.448417366689337
7,3,9,0.4974541845118836
7,3,10,0.5927154752495267
7,3,11,0.6961242946161057
7,3,12,0.8584407109902027
7,3,13,1.110972740473871
7,3,14,1.7951721412422113
7,3,15,3.410822932558866
7,3,16,4.947645350440233
7,3,17,2.5428147344815546
7,3,18,0.9109653879381652
7,3,19,0.7419214013933055
7,3,20,0.6777199786776464
7,3,21,0.6143181442199879
7,3,22,0.5255638475819349
7,3,23,0.47290131058948964
7,4,0,0.49113396368093243
7,4,1,0.4569068077918983
7,4,2,0.4387340340417966
7,4,3,0.42482830625133583
7,4,4,0.4226191264282594
7,4,5,0.4474950964908465
7,4,6,0.4711000315867321
7,4,7,0.4853235181188683
7,4,8,0.5266472859053192
7,4,9,0.5891398384348112
7,4,10,0.7041079774466951
7,4,11,0.8482947893240628
7,4,12,1.0281462371123296
7,4,13,1.4054469144302186
7,4,14,1.9498735585007085
7,4,15,3.247736441820833
7,4,16,3.8192028416710335
7,4,17,1.7770128030293002
7,4,18,0.9782732460379457
7,4,19,0.8628965600724792
7,4,20,0.7668728946119088
7,4,21,0.6851181097894281
7,4,22,0.6167091921173135
7,4,23,0.5563804253049444
7,5,0,0.46905389171075107
7,5,1,0.4274242839378676
7,5,2,0.4070394334731385
7,5,3,0.385301494298902
7,5,4,0.37618395262081905
7,5,5,0.3813686850591187
7,5,6,0.39709992201825195
7,5,7,0.4162707863510865
7,5,8,0.46065715429848036
7,5,9,0.5137690475688663
7,5,10,0.6237738950829347
7,5,11,0.7563260058591692
7,5,12,0.9427361055493497
7,5,13,1.1988998250679705
7,5,14,2.02877315741775
7,5,15,3.706489346007124
7,5,16,3.9614011423272286
7,5,17,2.405817016881995
7,5,18,0.9985921133053723
7,5,19,0.7665184310915336
7,5,20,0.6969165595295804
7,5,21,0.6355217400467891
7,5,22,0.5475330368621831
7,5,23,0.4965329736337386
7,6,0,0.4782682022624205
7,6,1,0.4393809746018312
7,6,2,0.4187081667937593
7,6,3,0.3936028110052179
7,6,4,0.3835954337720011
7,6,5,0.38081422719602015
7,6,6,0.3900145578781712
7,6,7,0.4084524675448299
7,6,8,0.4558943886467175
7,6,9,0.5126111370354698
7,6,10,0.5944456573135489
7,6,11,0.715552304376572
7,6,12,0.8790351034209463
7,6,13,1.1039900174549686
7,6,14,1.6924759463914159
7,6,15,3.4343307256072775
7,6,16,4.049362278023398
7,6,17,2.762234773980406
7,6,18,1.192802386374571
7,6,19,0.810845877906273
7,6,20,0.7364982664019278
7,6,21,0.6777825257866894
7,6,22,0.5745178155526148
7,6,23,0.5147839546729548
8,0,0,0.266793150677631
8,0,1,0.24804225134433666
8,0,2,0.23624086677076728
8,0,3,0.2314060509808728
8,0,4,0.23700829784852825
8,0,5,0.24764148178150602
8,0,6,0.2701272123599039
8,0,7,0.27622402592211637
8,0,8,0.2929881314652072
8,0,9,0.3253822499586973
8,0,10,0.370421927211294
8,0,11,0.43120246856996675
8,0,12,0.5322134524272671
8,0,13,1.0863242716066488
8,0,14,2.9015375268467647
8,0,15,5.880628227607267
8,0,16,5.184431807886421
8,0,17,2.492232425028912
8,0,18,0.6151812789452086
8,0,19,0.44828207355613703
8,0,20,0.4333427485757225
8,0,21,0.3698506174089608
8,0,22,0.3270961793656969
8,0,23,0.29540127585416676
8,1,0,0.2672862078021778
8,1,1,0.2503888967453888
8,1,2,0.23709569890300808
8,1,3,0.2306794076648013
8,1,4,0.2334996666599325
8,1,5,0.2504050586880543
8,1,6,0.27442170548899975
8,1,7,0.2802400048485828
8,1,8,0.29818784217862987
8,1,9,0.3227378330875371
8,1,10,0.37105396068607444
8,1,11,0.44354027354087955
8,1,12,0.6175478292490756
8,1,13,1.642643285722944
8,1,14,3.2497464595244345
8,1,15,5.171724681306693
8,1,16,4.9966100325259095
8,1,17,2.2911978019757973
8,1,18,0.6575890422028728
8,1,19,0.4627406614275036
8,1,20,0.4308612295197882
8,1,21,0.3812117416513465
8,1,22,0.33427746015071014
8,1,23,0.3043132184488575
8,2,0,0.2824782517555812
8,2,1,0.2644376899696048
8,2,2,0.25444659888900534
8,2,3,0.24883397966670162
8,2,4,0.2510271460014673
8,2,5,0.26376166020333297
8,2,6,0.28831883450372076
8,2,7,0.29342050099570277
8,2,8,0.3175689131118331
8,2,9,0.3450896132480872
8,2,10,0.3999030499947595
8,2,11,0.4756812703070957
8,2,12,0.6557331516612515
8,2,13,1.3928728644796144
8,2,14,3.5185541347867098
8,2,15,5.403537365056074
8,2,16,4.6798317786395565
8,2,17,2.021871397128184
8,2,18,0.628723404255319
8,2,19,0.49719631065926007
8,2,20,0.45774289906718363
8,2,21,0.4019390001048108
8,2,22,0.3448302064773085
8,2,23,0.3121999790378367
8,3,0,0.38930759368414375
8,3,1,0.3682528992297702
8,3,2,0.35693613896981596
8,3,3,0.34938427163536845
8,3,4,0.34971549388687934
8,3,5,0.3655368767673812
8,3,6,0.3944525793242789
8,3,7,0.40356119124082757
8,3,8,0.4315384307517779
8,3,9,0.4697504378344138
8,3,10,0.5493100226473214
8,3,11,0.663217354941905
8,3,12,0.8472113156561857
8,3,13,1.431321756195581
8,3,14,2.5982508704934797
8,3,15,4.399558922368405
8,3,16,4.407022463769116
8,3,17,1.6937491460676326
8,3,18,0.8014916042059707
8,3,19,0.6652267699344041
8,3,20,0.6208429882319495
8,3,21,0.5449268481856611
8,3,22,0.47026935269511405
8,3,23,0.4291646712826167
8,4,0,0.2862036265616762
8,4,1,0.26784948887325394
8,4,2,0.25779574004063105
8,4,3,0.25269113045293334
8,4,4,0.25294161044962243
8,4,5,0.26236484066988996
8,4,6,0.28704143896439477
8,4,7,0.2970606388319571
8,4,8,0.31964702474029794
8,4,9,0.3482881167755019
8,4,10,0.4157104220911841
8,4,11,0.4970818720500672
8,4,12,0.6329629516332483
8,4,13,1.5778685087982898
8,4,14,3.482414756726701
8,4,15,4.840508661533506
8,4,16,4.792744717337283
8,4,17,2.274582938209536
8,4,18,0.6491232300403251
8,4,19,0.48750317148702704
8,4,20,0.44293500655890505
8,4,21,0.3925107920530182
8,4,22,0.35757315113552735
8,4,23,0.3245961639852232
8,5,0,0.5442204192003037
8,5,1,0.5025122034080138
8,5,2,0.4787449573688778
8,5,3,0.4634612977631556
8,5,4,0.45618257866367007
8,5,5,0.46453412484131096
8,5,6,0.4873275739941214
8,5,7,0.5018354970971775
8,5,8,0.555212770493404
8,5,9,0.612518241498877
8,5,10,0.6899103364138142
8,5,11,0.8516596497357132
8,5,12,1.0908340680364925
8,5,13,1.5014462534265134
8,5,14,2.0011691064313233
8,5,15,3.076125333711115
8,5,16,3.558682953465438
8,5,17,1.6898842034465258
8,5,18,0.9722619183523578
8,5,19,0.8340157705580489
8,5,20,0.7823220104229277
8,5,21,0.6886229439200277
8,5,22,0.622784371385226
8,5,23,0.5737314163655645
8,6,0,0.5617957739738353
8,6,1,0.5168447611135146
8,6,2,0.4888560478730125
8,6,3,0.4744849554540548
8,6,4,0.4690452580678508
8,6,5,0.46832854118250633
8,6,6,0.4879004253592199
8,6,7,0.49541676397731926
8,6,8,0.5461015119203956
8,6,9,0.5938826376100248
8,6,10,0.6641025150177458
8,6,11,0.7831877821211299
8,6,12,0.9525718726908662
8,6,13,1.3700318923699517
8,6,14,1.8861783139541564
8,6,15,2.918287383562221
8,6,16,3.6155426488661555
8,6,17,1.8845978613351917
8,6,18,1.066474725392529
8,6,19,0.9107082556443369
8,6,20,0.8608872434348811
8,6,21,0.7463963153401151
8,6,22,0.6454127439306867
8,6,23,0.5929637698083011
9,0,0,0.5842270784614143
9,0,1,0.5525919125628826
9,0,2,0.5248274022566417
9,0,3,0.5158579022783522
9,0,4,0.524287743544255
9,0,5,0.5581373710556841
9,0,6,0.6272881219256512
9,0,7,0.6287396177727602
9,0,8,0.6539733148071184
9,0,9,0.7167784235762623
9,0,10,0.8052452345654506
9,0,11,0.9286223815697243
9,0,12,1.1590008249955028
9,0,13,1.6367476568266826
9,0,14,1.9987469993114697
9,0,15,2.494432831099229
9,0,16,2.5013739586757895
9,0,17,1.4771203314869146
9,0,18,1.0959910180940744
9,0,19,1.0022206645866027
9,0,20,0.9025698920062277
9,0,21,0.7738892024836707
9,0,22,0.7035288717411126
9,0,23,0.6338012443165251
9,1,0,0.5365071661371552
9,1,1,0.5071900305013496
9,1,2,0.48174361692992895
9,1,3,0.4738229727055855
9,1,4,0.4835893779143349
9,1,5,0.5170639557674431
9,1,6,0.5944425570360303
9,1,7,0.5935107165390487
9,1,8,0.60972832518844
9,1,9,0.6678787562020032
9,1,10,0.7521565611501659
9,1,11,0.8596228584655246
9,1,12,1.045937197833172
9,1,13,1.6217250249200132
9,1,14,2.1576945907704483
9,1,15,2.888902660748086
9,1,16,3.017192009169072
9,1,17,1.6395375144200077
9,1,18,0.9476997054398429
9,1,19,0.8677764628141136
9,1,20,0.7969924250626266
9,1,21,0.7115139794741223
9,1,22,0.6446544238156927
9,1,23,0.5831171109957924
9,2,0,0.5131619211534619
9,2,1,0.48476785798945776
9,2,2,0.4666487563589972
9,2,3,0.45289134141978926
9,2,4,0.46352834018857536
9,2,5,0.49469802215610403
9,2,6,0.5575028625364731
9,2,7,0.5539686895257743
9,2,8,0.5718809127360964
9,2,9,0.6153771005702087
9,2,10,0.6789922147627866
9,2,11,0.7893618519066576
9,2,12,0.9249189367023866
9,2,13,1.3192464453546455
9,2,14,1.9618280581730625
9,2,15,3.1602230264301543
9,2,16,4.063299049939588
9,2,17,1.5313313057332616
9,2,18,0.9126441504408377
9,2,19,0.8584592442329047
9,2,20,0.7775180623537306
9,2,21,0.6721135072931826
9,2,22,0.6152219417551048
9,2,23,0.5604164002867564
9,3,0,0.25791547837900486
9,3,1,0.24110334194111838
9,3,2,0.22953943857114362
9,3,3,0.22041770220657603
9,3,4,0.22936961901116493
9,3,5,0.24663460760899447
9,3,6,0.2804772199190257
9,3,7,0.2815608304446037
9,3,8,0.28938870349504825
9,3,9,0.30887751966402677
9,3,10,0.34554237132798893
9,3,11,0.4119013860510753
9,3,12,0.5029246701996322
9,3,13,1.1235828153387493
9,3,14,3.0863249429891475
9,3,15,5.090689036125742
9,3,16,5.7729189017256894
9,3,17,2.58405529109229
9,3,18,0.7542737922594627
9,3,19,0.4265058682092393
9,3,20,0.3903585618709264
9,3,21,0.34175782113417896
9,3,22,0.3059744138529632
9,3,23,0.27790566658220617
9,4,0,0.31962641648355894
9,4,1,0.2962024619721703
9,4,2,0.2765596525494611
9,4,3,0.2722137288272827
9,4,4,0.27927824800562545
9,4,5,0.30843614152491033
9,4,6,0.35070838636442503
9,4,7,0.34757817258215123
9,4,8,0.35884502769449467
9,4,9,0.38449937918224364
9,4,10,0.42658017363752143
9,4,11,0.4911372432022151
9,4,12,0.5904521300251239
9,4,13,1.1132839843377633
9,4,14,2.7718378080207344
9,4,15,4.798445422879996
9,4,16,5.206263458862299
9,4,17,2.5141647358762467
9,4,18,0.7826395982413688
9,4,19,0.49890055628302266
9,4,20,0.4617783267794815
9,4,21,0.41762029565523295
9,4,22,0.37951209667287156
9,4,23,0.3534365543398013
9,5,0,0.7054767975522692
9,5,1,0.656338602753697
9,5,2,0.622967873533911
9,5,3,0.6058133605303416
9,5,4,0.6031412544620092
9,5,5,0.6078735339112696
9,5,6,0.6546455889852115
9,5,7,0.663314635390107
9,5,8,0.7122080571137175
9,5,9,0.793227944926058
9,5,10,0.8925446200917899
9,5,11,1.0336562978072412
9,5,12,1.1862111167771543
9,5,13,1.4440591534931158
9,5,14,1.7094135645079038
9,5,15,2.0427944926058133
9,5,16,2.0182559918408973
9,5,17,1.4340234574196837
9,5,18,1.1281591024987252
9,5,19,1.0499541050484447
9,5,20,1.0030800611932686
9,5,21,0.8950943396226414
9,5,22,0.7969403365629779
9,5,23,0.740805711371749
9,6,0,0.6800958068703699
9,6,1,0.641660031880218
9,6,2,0.6199788240886794
9,6,3,0.6042614443833139
9,6,4,0.5969014023639231
9,6,5,0.5990555610037447
9,6,6,0.6212354166285755
9,6,7,0.6262817327014911
9,6,8,0.6691853922779397
9,6,9,0.7353459867991299
9,6,10,0.8099437026596215
9,6,11,0.9359619830891898
9,6,12,1.139968784645636
9,6,13,1.4012403033773417
9,6,14,1.7106014191517336
9,6,15,2.147616380248892
9,6,16,2.2129990841501463
9,6,17,1.5130371476014208
9,6,18,1.1968944212942572
9,6,19,1.0928166455295392
9,6,20,1.0161046628558892
9,6,21,0.898663125158944
9,6,22,0.8013470140136663
9,6,23,0.7288037272263379
10,0,0,0.6358869675061802
10,0,1,0.5799904666228509
10,0,2,0.5265362241552518
10,0,3,0.553015446978432
10,0,4,0.5888413580242191
10,0,5,0.660181011746865
10,0,6,0.7868846438411399
10,0,7,0.7811554361290509
10,0,8,0.7838915000684781
10,0,9,0.8163753732822132
10,0,10,0.8791028525914948
10,0,11,0.9724411949009442
10,0,12,1.1001731463281579
10,0,13,1.4311634316179123
10,0,14,1.7601521667774813
10,0,15,2.100764582968308
10,0,16,2.0308388683284533
10,0,17,1.418327802801405
10,0,18,1.1670689915048886
10,0,19,1.0736388349692843
10,0,20,0.9698153080329031
10,0,21,0.8688563849525666
10,0,22,0.8034846559300131
10,0,23,0.7114133499415067
10,1,0,0.6346730512367648
10,1,1,0.5589899484300505
10,1,2,0.5217145165427788
10,1,3,0.5240143770768773
10,1,4,0.549666667649513
10,1,5,0.653337304032717
10,1,6,0.8225539656377248
10,1,7,0.7884806472633135
10,1,8,0.7994492128874748
10,1,9,0.8476047542245195
10,1,10,0.9425889942827825
10,1,11,1.0144861728256733
10,1,12,1.1170422614115836
10,1,13,1.3750512308676666
10,1,14,1.652609014863586
10,1,15,2.0792331439388354
10,1,16,2.1048500520417157
10,1,17,1.3070107415281098
10,1,18,1.1939637506597358
10,1,19,1.1398993368735462
10,1,20,0.9761492668457412
10,1,21,0.8794666682392207
10,1,22,0.8029166949235002
10,1,23,0.7142482257165688
10,2,0,0.5829944794067481
10,2,1,0.5313156117033547
10,2,2,0.4997827432741657
10,2,3,0.49931999677730116
10,2,4,0.5163589838582728
10,2,5,0.5927947891439121
10,2,6,0.7389069955288496
10,2,7,0.6980696171805655
10,2,8,0.6997388099013978
10,2,9,0.7354363968023666
10,2,10,0.7888009838871946
10,2,11,0.8457022763409148
10,2,12,0.9774693413230555
10,2,13,1.3205297621056067
10,2,14,1.6618879368461208
10,2,15,2.673236932403892
10,2,16,3.0717277728465584
10,2,17,1.6394777850694016
10,2,18,1.035147386825084
10,2,19,0.9619508070174955
10,2,20,0.8556017460416927
10,2,21,0.7693325776976845
10,2,22,0.6846334421108953
10,2,23,0.6197828259074686
10,3,0,0.5594100092614824
10,3,1,0.5083524851644771
10,3,2,0.47785956848351807
10,3,3,0.4615099646691593
10,3,4,0.4834246904263713
10,3,5,0.5580104963468597
10,3,6,0.7686289575686893
10,3,7,0.7258697218125065
10,3,8,0.6786649744451686
10,3,9,0.7059801735670429
10,3,10,0.7601166260762187
10,3,11,0.853208932185367
10,3,12,1.0286255273899771
10,3,13,1.4306644256165746
10,3,14,1.8890625321579255
10,3,15,2.776040887730251
10,3,16,2.941924330257607
10,3,17,1.5564394744966217
10,3,18,1.0009645662539022
10,3,19,1.0026769114670875
10,3,20,0.8418811100058313
10,3,21,0.7279772236133503
10,3,22,0.6716509450142354
10,3,23,0.5910554659897782
10,4,0,0.6896446092565647
10,4,1,0.6180737465549233
10,4,2,0.5816461261513961
10,4,3,0.5713489568579977
10,4,4,0.5953756852092604
10,4,5,0.6764243725508468
10,4,6,0.833029923610874
10,4,7,0.8061465611975718
10,4,8,0.8220684208146758
10,4,9,0.8518748506402976
10,4,10,0.9144772110541404
10,4,11,0.9645679571652519
10,4,12,1.0908799004976042
10,4,13,1.3216693593702857
10,4,14,1.6287685932645808
10,4,15,2.090967555612557
10,4,16,1.9674679574420577
10,4,17,1.2669504231896682
10,4,18,1.1167889071068
10,4,19,1.1130907839412139
10,4,20,0.9877531964129681
10,4,21,0.8764551902438934
10,4,22,0.8406254699928861
10,4,23,0.7739042418616839
10,5,0,0.6879884378125642
10,5,1,0.5967543561594013
10,5,2,0.5517498815545783
10,5,3,0.5221935613547285
10,5,4,0.5228444129653469
10,5,5,0.5448393688653647
10,5,6,0.637643151461784
10,5,7,0.6686351737438803
10,5,8,0.7400565666620406
10,5,9,0.8114396741913408
10,5,10,0.8757016993926978
10,5,11,0.9593169886627392
10,5,12,1.0813708083481288
10,5,13,1.2649301052369626
10,5,14,1.590394195935049
10,5,15,2.3973927650186404
10,5,16,2.5257062457826254
10,5,17,1.6568959163847108
10,5,18,1.1401005948592295
10,5,19,1.0502065018161633
10,5,20,0.9106945448106549
10,5,21,0.832439209981001
10,5,22,0.7589504060644057
10,5,23,0.671755432935963
10,6,0,0.7276764984959521
10,6,1,0.6609129267357114
10,6,2,0.6125411341933659
10,6,3,0.5706498697837805
10,6,4,0.5718006177699716
10,6,5,0.5996002664890072
10,6,6,0.669816082207821
10,6,7,0.6953142349544748
10,6,8,0.7856176690287282
10,6,9,0.8562574445319282
10,6,10,0.9009145418206044
10,6,11,0.9944077685583348
10,6,12,1.0951486887529527
10,6,13,1.3653120142127468
10,6,14,1.7826903276603474
10,6,15,2.091656067672057
10,6,16,1.958976843720348
10,6,17,1.375143843498274
10,6,18,1.1656673328891847
10,6,19,1.090263056951931
10,6,20,0.9805786041628812
10,6,21,0.902933397936729
10,6,22,0.8192316233622029
10,6,23,0.7268891446106636
11,0,0,0.5960077285425267
11,0,1,0.550146047614859
11,0,2,0.5494180844255308
11,0,3,0.5812786066784557
11,0,4,0.635414802524819
11,0,5,0.7734123577817749
11,0,6,1.1556172976186505
11,0,7,1.0694992523211408
11,0,8,1.0081319554607853
11,0,9,1.0037156454455285
11,0,10,1.0354305750605877
11,0,11,1.049553060933552
11,0,12,1.1098041475702711
11,0,13,1.2130535932566342
11,0,14,1.3301343395402303
11,0,15,1.321787028302602
11,0,16,1.3029570471386496
11,0,17,1.6412172757797545
11,0,18,1.3540600630294792
11,0,19,1.1058003500289668
11,0,20,1.010776888382011
11,0,21,0.9427608610591256
11,0,22,0.889765140876043
11,0,23,0.77025785062802
11,1,0,0.5411498505861356
11,1,1,0.5100360037551195
11,1,2,0.4864530283387723
11,1,3,0.5153385625320234
11,1,4,0.578288394548887
11,1,5,0.7493320220217811
11,1,6,1.4375505067004124
11,1,7,1.2992094304391635
11,1,8,1.0769971423953675
11,1,9,1.0260348070687029
11,1,10,1.0343703469358982
11,1,11,1.029336010976503
11,1,12,1.0617290743217918
11,1,13,1.1496855259402414
11,1,14,1.2524767626193676
11,1,15,1.2546638102082854
11,1,16,1.2123465026151725
11,1,17,1.6867914017393217
11,1,18,1.4358792722220886
11,1,19,1.187896961173028
11,1,20,1.0426852542786698
11,1,21,0.9015587872202144
11,1,22,0.8139737210413922
11,1,23,0.716216820321661
11,2,0,0.6980167560131912
11,2,1,0.6426153316748374
11,2,2,0.6109191264492886
11,2,3,0.6198369021885106
11,2,4,0.6735907005242368
11,2,5,0.811311639018873
11,2,6,1.3768592644208035
11,2,7,1.2056503274227608
11,2,8,1.096495104748681
11,2,9,1.057013866660717
11,2,10,1.0236288447824746
11,2,11,0.9934566936093563
11,2,12,1.0164204810209787
11,2,13,1.0797922961470436
11,2,14,1.083499454652956
11,2,15,1.1308275115784343
11,2,16,1.1366147979126637
11,2,17,1.6247857871661946
11,2,18,1.3813902359280295
11,2,19,1.1070811018155635
11,2,20,1.0219400281297812
11,2,21,0.9573324935017458
11,2,22,0.856806712016428
11,2,23,0.7941145426164472
11,3,0,0.7413849424591807
11,3,1,0.6875766452283159
11,3,2,0.6588945950722139
11,3,3,0.6724966128833602
11,3,4,0.683785216641587
11,3,5,0.8093736110144214
11,3,6,1.1949640403348025
11,3,7,1.0463271874347346
11,3,8,1.0078131275537254
11,3,9,1.0727386645388972
11,3,10,1.0820351617515545
11,3,11,1.076572934126606
11,3,12,1.077279810642776
11,3,13,1.136507494497609
11,3,14,1.1887092541917244
11,3,15,1.2198118209031956
11,3,16,1.1672459127007504
11,3,17,1.519891612267521
11,3,18,1.2899639600079258
11,3,19,1.0894680754215822
11,3,20,0.9905053631578103
11,3,21,0.9490995357106521
11,3,22,0.8529857500120492
11,3,23,0.7845686714470084
11,4,0,0.7343478307826895
11,4,1,0.6729811752762147
11,4,2,0.6466935231285977
11,4,3,0.6687259020855159
11,4,4,0.7037833050728473
11,4,5,0.8254365975094773
11,4,6,1.334492553271916
11,4,7,1.2046527200267845
11,4,8,1.0484820338909828
11,4,9,1.0526725059671027
11,4,10,1.0366450302945212
11,4,11,1.0604486397166033
11,4,12,1.0635158924733505
11,4,13,1.1386851853851887
11,4,14,1.177112246330637
11,4,15,1.2234666436262702
11,4,16,1.1425300515168861
11,4,17,1.4869479755051789
11,4,18,1.22610188895249
11,4,19,1.0588286118521237
11,4,20,0.958926893542569
11,4,21,0.9069996003931268
11,4,22,0.8434297069909602
11,4,23,0.7840934864079663
11,5,0,0.8096426019480764
11,5,1,0.7216156247257774
11,5,2,0.6733775432174599
11,5,3,0.6816261548683105
11,5,4,0.7128405059482767
11,5,5,0.7713329405423022
11,5,6,0.9451555076406213
11,5,7,1.0348121497787417
11,5,8,1.1765428539193439
11,5,9,1.2713893520201576
11,5,10,1.1384588384249914
11,5,11,1.0922014265835955
11,5,12,1.0679820987576938
11,5,13,1.0848553985784308
11,5,14,1.1320404658334482
11,5,15,1.1410913740582416
11,5,16,1.1410161587544345
11,5,17,1.4468917275701696
11,5,18,1.2438605508267415
11,5,19,1.111205826678868
11,5,20,0.9962517706936105
11,5,21,0.9390630680322422
11,5,22,0.8742776196863523
11,5,23,0.7924684409121108
11,6,0,0.7866431339135372
11,6,1,0.7327341948484909
11,6,2,0.7012489941100493
11,6,3,0.7026825986110266
11,6,4,0.7228883073323459
11,6,5,0.762190709972342
11,6,6,0.8693053104227102
11,6,7,0.8994110049432305
11,6,8,0.9782592524969738
11,6,9,1.047856693648185
11,6,10,1.020077225299062
11,6,11,1.0242968913774098
11,6,12,1.0637074905835173
11,6,13,1.0901345018562472
11,6,14,1.1316819832430567
11,6,15,1.1602188275549603
11,6,16,1.1337377179991748
11,6,17,1.666822199230452
11,6,18,1.4341995820907631
11,6,19,1.1787745386430797
11,6,20,1.0876730299772108
11,6,21,1.018589522515029
11,6,22,0.9410937320376793
11,6,23,0.8457725572934627
12,0,0,0.7475942751402613
12,0,1,0.6986069221493201
12,0,2,0.6835669453538556
12,0,3,0.7039138853900054
12,0,4,0.7663727604534555
12,0,5,0.9032150636110448
12,0,6,1.5900048611353572
12,0,7,1.4616708877077733
12,0,8,1.209923161832836
12,0,9,1.164395003504852
12,0,10,1.0628107030920582
12,0,11,0.9963125199749694
12,0,12,0.9516652745735765
12,0,13,0.9270211983101513
12,0,14,0.9053636317246826
12,0,15,0.8877883445551256
12,0,16,0.9196301239992373
12,0,17,1.5072635030791668
12,0,18,1.283533105406066
12,0,19,1.0832006144904807
12,0,20,0.9940565234556495
12,0,21,0.9293416518728801
12,0,22,0.8487488619303273
12,0,23,0.7740001772568695
12,1,0,0.7493875982644614
12,1,1,0.7151171168286395
12,1,2,0.7017163259097968
12,1,3,0.7338013737011478
12,1,4,0.7765734321715045
12,1,5,0.8930978722041658
12,1,6,1.4076354088281913
12,1,7,1.2315759137994522
12,1,8,1.1209353335788277
12,1,9,1.1177412382522935
12,1,10,1.07528138458829
12,1,11,1.0244640484157608
12,1,12,0.9787620679165532
12,1,13,0.9379833170559887
12,1,14,0.9128148065130726
12,1,15,0.8978289758081301
12,1,16,0.9317392209289295
12,1,17,1.6108327062553032
12,1,18,1.3399109816039318
12,1,19,1.1411325829744312
12,1,20,1.0652187835219904
12,1,21,0.9724219087721546
12,1,22,0.866056132823132
12,1,23,0.7979714692838501
12,2,0,0.7885783952003593
12,2,1,0.7528505887259777
12,2,2,0.744149635856139
12,2,3,0.7540055824697616
12,2,4,0.7950206936379094
12,2,5,0.9159100388206229
12,2,6,1.5461002919567517
12,2,7,1.3441817190156886
12,2,8,1.158279059321762
12,2,9,1.1230902499278128
12,2,10,1.0883121049760978
12,2,11,1.037133048862652
12,2,12,0.9895473066187557
12,2,13,0.9533061695915814
12,2,14,0.9125990567551092
12,2,15,0.9173986974237223
12,2,16,0.9543584972248066
12,2,17,1.4118900189290642
12,2,18,1.249728897301806
12,2,19,1.0737848503320606
12,2,20,0.9985305912926306
12,2,21,0.9238409958612723
12,2,22,0.8286181783182007
12,2,23,0.7387853315794539
12,3,0,0.6919845127275721
12,3,1,0.6557621135428203
12,3,2,0.6373091932034184
12,3,3,0.6436310270233986
12,3,4,0.6992338742894801
12,3,5,0.8323096966313045
12,3,6,1.3911695697674773
12,3,7,1.2044435901425767
12,3,8,1.0900647743880298
12,3,9,1.0894057415187655
12,3,10,1.0248693375804339
12,3,11,0.9953593102122634
12,3,12,0.967362617580922
12,3,13,0.9583802436590967
12,3,14,0.92843086104475
12,3,15,0.9140541810448722
12,3,16,0.9798842420969447
12,3,17,1.6714293995783405
12,3,18,1.442500907695734
12,3,19,1.2089103684787017
12,3,20,1.1371734202280375
12,3,21,1.040759352317141
12,3,22,0.9388777524538294
12,3,23,0.8566939127940858
12,4,0,0.7819811349907247
12,4,1,0.7578216373584492
12,4,2,0.7360668525137581
12,4,3,0.741910079848076
12,4,4,0.7700025189553732
12,4,5,0.8994974262643705
12,4,6,1.488809376881608
12,4,7,1.3307950253908827
12,4,8,1.126754021666762
12,4,9,1.0787047138176407
12,4,10,1.0198229614487455
12,4,11,1.0147663224094323
12,4,12,0.9751447462925001
12,4,13,0.9541091278889562
12,4,14,0.9115659381048653
12,4,15,0.90619466374755
12,4,16,0.9477939475776358
12,4,17,1.5603439638244296
12,4,18,1.2686096021829698
12,4,19,1.0918744492711414
12,4,20,1.0003829935864959
12,4,21,0.9623570680108585
12,4,22,0.8618086099580204
12,4,23,0.8128828180087516
12,5,0,0.7903960175262388
12,5,1,0.7434433837304817
12,5,2,0.7207103501245476
12,5,3,0.7274342051347534
12,5,4,0.7737236015315447
12,5,5,0.8342154263682606
12,5,6,0.962128763348129
12,5,7,1.0625520536536186
12,5,8,1.165308109983057
12,5,9,1.165399591003604
12,5,10,1.1192474161376333
12,5,11,1.0827922294496464
12,5,12,1.0252277972704351
12,5,13,0.995130541510466
12,5,14,0.9894587182365508
12,5,15,0.9736325016819167
12,5,16,1.0162626572568274
12,5,17,1.5982420397218216
12,5,18,1.320848715168125
12,5,19,1.1233869323173857
12,5,20,1.042471969643548
12,5,21,1.00489614045386
12,5,22,0.9105334677596109
12,5,23,0.8525573709879377
12,6,0,0.7807300386611761
12,6,1,0.7227298800990547
12,6,2,0.7069035149491436
12,6,3,0.7180065943188124
12,6,4,0.751718766759783
12,6,5,0.7973398872343502
12,6,6,0.9251819966701955
12,6,7,0.945530180434367
12,6,8,1.0840500496672527
12,6,9,1.1385357254450232
12,6,10,1.07417815853414
12,6,11,1.022445867358122
12,6,12,0.9700644042028289
12,6,13,0.9442766069571462
12,6,14,0.9325019703675377
12,6,15,0.9267713487573859
12,6,16,0.9935912921413814
12,6,17,1.6856533925298587
12,6,18,1.4790600064357566
12,6,19,1.2561253946564563
12,6,20,1.189238295550467
12,6,21,1.0810504274181891
12,6,22,0.9689899126509256
12,6,23,0.9053262882006463
