Month,DayOfWeek,Hour,NormalizedPrice
1,0,0,0.7640769724574328
1,0,1,0.7324840277565494
1,0,2,0.7287699079876502
1,0,3,0.7503209733133616
1,0,4,0.8140800293461314
1,0,5,0.9397410815272215
1,0,6,1.5426665240118607
1,0,7,1.396623666432305
1,0,8,1.1672653073701587
1,0,9,1.1483508085470608
1,0,10,1.0509354079417967
1,0,11,0.9590911869898816
1,0,12,0.9141549231192492
1,0,13,0.8898068046342433
1,0,14,0.8719698590774311
1,0,15,0.8541329135206186
1,0,16,0.8912053312138905
1,0,17,1.3156466848042063
1,0,18,1.394308073243053
1,0,19,1.1273270565218718
1,0,20,1.0557729343074618
1,0,21,0.984654418732614
1,0,22,0.898243817442607
1,0,23,0.8083712897013421
1,1,0,0.6978024056282623
1,1,1,0.6589946289431878
1,1,2,0.576045843104622
1,1,3,0.7112678720024208
1,1,4,0.8028406082154474
1,1,5,1.015810575686512
1,1,6,1.6425410394129658
1,1,7,1.4803691655949767
1,1,8,1.1584650881307208
1,1,9,1.0893978364475376
1,1,10,0.9800854830168697
1,1,11,0.9164082003177243
1,1,12,0.8741394961797413
1,1,13,0.8431802708223012
1,1,14,0.818878129964445
1,1,15,0.824930024964067
1,1,16,0.8988198804750738
1,1,17,1.4345071488009684
1,1,18,1.5986837128375824
1,1,19,1.2134805961116575
1,1,20,1.071261063620546
1,1,21,1.020368409108102
1,1,22,0.8803048642106059
1,1,23,0.7914176564036616
1,2,0,0.5713794183813201
1,2,1,0.5487309858208705
1,2,2,0.5526488783462977
1,2,3,0.5747548334801496
1,2,4,0.6834462134259396
1,2,5,1.05394322697469
1,2,6,3.4539989815990895
1,2,7,3.4828557669306
1,2,8,1.5859327566580625
1,2,9,0.901898859353309
1,2,10,0.8418797596272477
1,2,11,0.7627533994310265
1,2,12,0.719973026816844
1,2,13,0.6860983252893056
1,2,14,0.6492249290980746
1,2,15,0.6399877440285101
1,2,16,0.6678047809590422
1,2,17,0.9517465073306657
1,2,18,1.0323797492674356
1,2,19,0.8505744672702147
1,2,20,0.7983459461427906
1,2,21,0.731967805471613
1,2,22,0.6599388582733772
1,2,23,0.5977347800235198
1,3,0,0.7230769368227967
1,3,1,0.6864942187261273
1,3,2,0.6904183907142225
1,3,3,0.7205251528523959
1,3,4,0.8096874868769863
1,3,5,1.0621854385700003
1,3,6,1.9870034139938904
1,3,7,1.7554558231334942
1,3,8,1.2578150617797976
1,3,9,1.1241787785567947
1,3,10,1.01027057308815
1,3,11,0.9269194445759847
1,3,12,0.8792504045238768
1,3,13,0.850108602710645
1,3,14,0.8123036015357165
1,3,15,0.8110813184574573
1,3,16,0.8453052446487141
1,3,17,1.2070581486878773
1,3,18,1.275956315888697
1,3,19,1.0394981491524877
1,3,20,0.9886983489350143
1,3,21,0.9036960660890604
1,3,22,0.8462273178481028
1,3,23,0.7867857618317091
1,4,0,0.7969099623838184
1,4,1,0.7434499700745967
1,4,2,0.7474951983100475
1,4,3,0.7684480271942689
1,4,4,0.8352790733116874
1,4,5,0.9864301163608693
1,4,6,1.6115268818940711
1,4,7,1.4293947196045207
1,4,8,1.1728497361215264
1,4,9,1.094827699316813
1,4,10,1.0359417721289024
1,4,11,0.9662281981071805
1,4,12,0.9123079702502129
1,4,13,0.8829497868887373
1,4,14,0.8548754184762369
1,4,15,0.8397118683241875
1,4,16,0.8794132400481633
1,4,17,1.308813006095093
1,4,18,1.3255268233553392
1,4,19,1.0961599601129193
1,4,20,1.0221104827729597
1,4,21,0.9769347303231641
1,4,22,0.8823442137995978
1,4,23,0.830071144745089
1,5,0,0.8830303940714035
1,5,1,0.8165339742626808
1,5,2,0.7855640678984528
1,5,3,0.780206299133744
1,5,4,0.8223423964748885
1,5,5,0.8898402683891642
1,5,6,1.0736317660607881
1,5,7,1.1850182765009265
1,5,8,1.3797506384257177
1,5,9,1.3275749837264033
1,5,10,1.153322317360172
1,5,11,1.0604376345701265
1,5,12,0.9556857443292777
1,5,13,0.8931700966401281
1,5,14,0.8665815432376947
1,5,15,0.8485053327324621
1,5,16,0.8724650743578188
1,5,17,1.1798607981573281
1,5,18,1.3438235441390016
1,5,19,1.123228681588303
1,5,20,1.02986830904812
1,5,21,0.9720344499524312
1,5,22,0.9107205447899454
1,5,23,0.8468028641530219
1,6,0,0.8474226353107347
1,6,1,0.7710251023144044
1,6,2,0.7404010912147628
1,6,3,0.7531756787020417
1,6,4,0.7874995703263747
1,6,5,0.8554223769857431
1,6,6,1.0566158801122045
1,6,7,1.1613374984766116
1,6,8,1.2511845971640496
1,6,9,1.1978863182543062
1,6,10,1.096714585258184
1,6,11,1.024866905339515
1,6,12,0.9577940712331163
1,6,13,0.9213202490336247
1,6,14,0.8905712419703112
1,6,15,0.8878463299622614
1,6,16,0.9171453838469799
1,6,17,1.269334011089225
1,6,18,1.5205508988772238
1,6,19,1.189336594339141
1,6,20,1.0892898250160672
1,6,21,1.0245919142194366
1,6,22,0.925445115834801
1,6,23,0.8632221251188763
2,0,0,0.6909360400194289
2,0,1,0.6392893446768451
2,0,2,0.6254988658157363
2,0,3,0.6574663375112042
2,0,4,0.734891313600697
2,0,5,0.8959905459607518
2,0,6,1.4553011221664172
2,0,7,1.3249375322353696
2,0,8,1.1597822766808712
2,0,9,1.1425667115666767
2,0,10,1.0730735141685404
2,0,11,1.0441405487148416
2,0,12,1.0128340585769868
2,0,13,1.0117524523918018
2,0,14,0.9887382763403656
2,0,15,1.0055332168269882
2,0,16,0.9951377796027101
2,0,17,1.1641988352703767
2,0,18,1.6589435311437484
2,0,19,1.1414550607652365
2,0,20,1.024731726614022
2,0,21,0.955538975378437
2,0,22,0.8522155400770143
2,0,23,0.7450463938949339
2,1,0,0.6371182826550508
2,1,1,0.5791500655350728
2,1,2,0.5599942616055767
2,1,3,0.5975859618005517
2,1,4,0.6877935221352045
2,1,5,0.8585368398401074
2,1,6,1.2837831669416315
2,1,7,1.1572672200739471
2,1,8,1.0804249020234362
2,1,9,1.0730693237171756
2,1,10,1.0479038558097984
2,1,11,1.031283378870971
2,1,12,1.0165722222584497
2,1,13,1.037731247513906
2,1,14,1.0314085802038435
2,1,15,1.0489367668059966
2,1,16,1.0663710524084955
2,1,17,1.2358936571178913
2,1,18,1.8841235580653788
2,1,19,1.220431292508135
2,1,20,1.1022725346096913
2,1,21,1.0150698062639791
2,1,22,0.9157538489628505
2,1,23,0.8315246522728608
2,2,0,0.7029005389007668
2,2,1,0.6446619834240129
2,2,2,0.6256839794793214
2,2,3,0.6522407607767211
2,2,4,0.733992162384623
2,2,5,0.8926495177847605
2,2,6,1.4273881690315835
2,2,7,1.2135983144467855
2,2,8,1.0767765347800653
2,2,9,1.0618053434521746
2,2,10,1.0472068788793347
2,2,11,1.0423924916265899
2,2,12,1.021178127151591
2,2,13,1.0192213116875721
2,2,14,1.0151834385078504
2,2,15,1.043231126825455
2,2,16,1.008256932976482
2,2,17,1.1462279534712767
2,2,18,1.6896635623359613
2,2,19,1.1985650019930527
2,2,20,1.1064704329324795
2,2,21,0.9966092218811312
2,2,22,0.8532026028751727
2,2,23,0.7808936123952352
2,3,0,0.6477237200293828
2,3,1,0.6168564943432963
2,3,2,0.6117627920808689
2,3,3,0.6410744559981904
2,3,4,0.6978372099525452
2,3,5,0.9036898840191445
2,3,6,1.694555787986081
2,3,7,1.387652601372046
2,3,8,1.146449023579978
2,3,9,1.103899834022576
2,3,10,1.062997709867396
2,3,11,1.027128285552339
2,3,12,0.996352563499709
2,3,13,0.9804614324893818
2,3,14,0.9592325895274092
2,3,15,0.9685964613511528
2,3,16,0.9850366141622207
2,3,17,1.1438869218431882
2,3,18,1.6074748301463804
2,3,19,1.1452289751338878
2,3,20,1.0490891575819656
2,3,21,0.9753677302269543
2,3,22,0.8776113484839628
2,3,23,0.7700335767499435
2,4,0,0.7123991490386545
2,4,1,0.6672420021675429
2,4,2,0.6502027054148437
2,4,3,0.6865692610283788
2,4,4,0.7511439810540682
2,4,5,0.8650002006984305
2,4,6,1.5758640067434673
2,4,7,1.3027535824669851
2,4,8,1.1862481435395176
2,4,9,1.1554208646088389
2,4,10,1.0856982298398428
2,4,11,1.0507164933970217
2,4,12,0.998605145907759
2,4,13,0.999749126961827
2,4,14,0.9968289647974953
2,4,15,0.9848472684943603
2,4,16,0.9883093164211456
2,4,17,1.1721591137157308
2,4,18,1.5053887528599528
2,4,19,1.0652570946895197
2,4,20,0.9996889174326656
2,4,21,0.942249026612612
2,4,22,0.8642174768193314
2,4,23,0.7934411752900092
2,5,0,0.8129561788080796
2,5,1,0.7421696394610935
2,5,2,0.7232078153464256
2,5,3,0.7321121854543271
2,5,4,0.7737833563549736
2,5,5,0.8593678057373931
2,5,6,0.977014393529918
2,5,7,1.0682361419734552
2,5,8,1.21624727243609
2,5,9,1.3267191159690108
2,5,10,1.234984885792645
2,5,11,1.0815606670270055
2,5,12,1.0279742958380877
2,5,13,1.0443737112886113
2,5,14,1.013752927752087
2,5,15,0.9985386263087304
2,5,16,0.9932536584389327
2,5,17,1.1481192320781535
2,5,18,1.5246972153824594
2,5,19,1.0859487918643527
2,5,20,1.022080755910556
2,5,21,0.938994654975677
2,5,22,0.8682721758452945
2,5,23,0.7856344964266411
2,6,0,0.7674516423920541
2,6,1,0.6975609482521719
2,6,2,0.6482639492560583
2,6,3,0.66475236530254
2,6,4,0.697695547566837
2,6,5,0.7512660748035691
2,6,6,0.9189768208763538
2,6,7,0.9961022281794881
2,6,8,1.1665722602029085
2,6,9,1.2188640939503217
2,6,10,1.1462141138598034
2,6,11,1.092946435081068
2,6,12,1.0646132793440528
2,6,13,1.045432877004268
2,6,14,1.0284733633564582
2,6,15,1.0182438154419065
2,6,16,1.0183447649279054
2,6,17,1.1925162781046172
2,6,18,1.7549731642616386
2,6,19,1.2254931101975806
2,6,20,1.0965806165770273
2,6,21,1.0188158625292334
2,6,22,0.9312926581682155
2,6,23,0.8385537303639228
3,0,0,0.5773231229925566
3,0,1,0.5234095842888943
3,0,2,0.49671001264555403
3,0,3,0.5120194000557262
3,0,4,0.5739918002921031
3,0,5,0.7394556594212439
3,0,6,1.2244080625357858
3,0,7,1.17551600290266
3,0,8,1.0133834664739725
3,0,9,1.0189928260210597
3,0,10,1.0276150730104685
3,0,11,1.0355269644240457
3,0,12,0.9915094137423184
3,0,13,1.025410521223404
3,0,14,1.0878728218569063
3,0,15,1.1874205825528097
3,0,16,1.3276300762101305
3,0,17,1.356754654819242
3,0,18,1.6598805255406508
3,0,19,1.5083298376898746
3,0,20,1.3224861220403126
3,0,21,1.0195317164578979
3,0,22,0.8424817129367386
3,0,23,0.7523400398656448
3,1,0,0.5975600036278388
3,1,1,0.5394706103838639
3,1,2,0.5108656517879474
3,1,3,0.5241017663726835
3,1,4,0.5913596974602382
3,1,5,0.7824478566893774
3,1,6,2.4275517860234768
3,1,7,2.182793600712376
3,1,8,1.2656539866374608
3,1,9,0.985694772339379
3,1,10,0.8872154414007856
3,1,11,0.8918546775758343
3,1,12,0.8827960742387723
3,1,13,0.9478992889985793
3,1,14,0.9774057105479412
3,1,15,1.0680357177211677
3,1,16,1.1383938018925228
3,1,17,1.061307725922282
3,1,18,1.2496035486858708
3,1,19,1.1751339139707522
3,1,20,0.9988209524175972
3,1,21,0.8605013563169743
3,1,22,0.7703110871698187
3,1,23,0.6832209711064635
3,2,0,0.7168530162886024
3,2,1,0.6481189776165848
3,2,2,0.6225980213318455
3,2,3,0.629602764126446
3,2,4,0.6924136747000881
3,2,5,0.8471618344528618
3,2,6,1.431414039530442
3,2,7,1.2328862373114151
3,2,8,1.0254994956756873
3,2,9,1.037551773719338
3,2,10,1.0315771401592377
3,2,11,1.0177479236860743
3,2,12,1.010794686353199
3,2,13,1.0702062364529907
3,2,14,1.0953666545056548
3,2,15,1.1564006266497844
3,2,16,1.206927484602013
3,2,17,1.1444771122604462
3,2,18,1.3785694358005882
3,2,19,1.2620898341094922
3,2,20,1.1639976822542226
3,2,21,0.9552717986136448
3,2,22,0.8682533210292507
3,2,23,0.7542202287700925
3,3,0,0.6973255335208949
3,3,1,0.6125626157963356
3,3,2,0.565703698620737
3,3,3,0.5725742812049681
3,3,4,0.6380378096479791
3,3,5,0.7658769642489536
3,3,6,1.1904120634049271
3,3,7,1.1279592396898372
3,3,8,1.0212207507033555
3,3,9,1.0356566938859535
3,3,10,1.0320798737391066
3,3,11,1.0427074041034792
3,3,12,1.0419354285322173
3,3,13,1.0866842791463664
3,3,14,1.1276247169422904
3,3,15,1.2124133671858919
3,3,16,1.3192033212104577
3,3,17,1.2543831057434982
3,3,18,1.4463219652782542
3,3,19,1.3626140808344198
3,3,20,1.2311723735675564
3,3,21,0.9691895972003018
3,3,22,0.8854045151993412
3,3,23,0.7609363205928772
3,4,0,0.6967172764852438
3,4,1,0.608160483928176
3,4,2,0.5870853602698236
3,4,3,0.5958043220770735
3,4,4,0.656966033452782
3,4,5,0.8047756522561605
3,4,6,1.225401070093488
3,4,7,1.1074113325007042
3,4,8,1.0547880127173022
3,4,9,1.1312208051281942
3,4,10,1.0954679025694714
3,4,11,1.073206174641493
3,4,12,1.0679180469181608
3,4,13,1.1222954773610094
3,4,14,1.168134516211551
3,4,15,1.2466825597117757
3,4,16,1.2873624495639446
3,4,17,1.1780916737784102
3,4,18,1.2843443473998963
3,4,19,1.2039906017502413
3,4,20,1.1102230687048171
3,4,21,0.9927750417568622
3,4,22,0.9008132108608684
3,4,23,0.8003645798625517
3,5,0,0.7099431665664879
3,5,1,0.6499917365724566
3,5,2,0.6151274410007064
3,5,3,0.6185633425932846
3,5,4,0.6676007322344203
3,5,5,0.7162086341764836
3,5,6,0.7998576795663859
3,5,7,0.8562216240740487
3,5,8,1.0088160771562018
3,5,9,1.1417551520102234
3,5,10,1.1453679014788904
3,5,11,1.1630021611231525
3,5,12,1.1458731811248577
3,5,13,1.1579998926280752
3,5,14,1.191272557315028
3,5,15,1.3352267284511388
3,5,16,1.3839104223400973
3,5,17,1.2864925065975839
3,5,18,1.2398299312924947
3,5,19,1.2606474527063514
3,5,20,1.1668928143971014
3,5,21,0.9886806832644011
3,5,22,0.913570863891348
3,5,23,0.8371473174387796
3,6,0,0.8076087435269004
3,6,1,0.7276354846030064
3,6,2,0.6681046379649667
3,6,3,0.6400614614012214
3,6,4,0.6499755017636877
3,6,5,0.6858037420736003
3,6,6,0.7995398162318932
3,6,7,0.8610619444811975
3,6,8,0.9764503586999014
3,6,9,1.0789505204473993
3,6,10,1.1056908904250513
3,6,11,1.07605892534168
3,6,12,1.0500070303891995
3,6,13,1.0432875141435276
3,6,14,1.0606921627798573
3,6,15,1.1558118722575192
3,6,16,1.265224323257737
3,6,17,1.203592039004405
3,6,18,1.326526139498986
3,6,19,1.5481875586031264
3,6,20,1.366127222946837
3,6,21,1.1032123803344347
3,6,22,0.9539234558762977
3,6,23,0.8464662739475666
4,0,0,0.610020940045194
4,0,1,0.546006679103092
4,0,2,0.5053949898156533
4,0,3,0.5050750327813123
4,0,4,0.5686093581719027
4,0,5,0.7258225324027918
4,0,6,1.119004019460244
4,0,7,1.0319299979717012
4,0,8,0.9760517873314156
4,0,9,0.9781086539807512
4,0,10,0.9483526497870286
4,0,11,0.9763717443657567
4,0,12,1.0194288195585166
4,0,13,1.134544789699669
4,0,14,1.2833248106682815
4,0,15,1.5909863532611332
4,0,16,1.923901647493051
4,0,17,1.556956637251569
4,0,18,1.1656491842524006
4,0,19,1.1482572340285733
4,0,20,1.2177336186283558
4,0,21,0.9440560838973052
4,0,22,0.8230437626947238
4,0,23,0.7013686733495788
4,1,0,0.6685252033227504
4,1,1,0.5677206106206236
4,1,2,0.5261253424955421
4,1,3,0.5202539903448876
4,1,4,0.5921976253642413
4,1,5,0.747775409907363
4,1,6,1.0055408167703215
4,1,7,0.9712521202104989
4,1,8,0.9453137911538294
4,1,9,0.9751402600791546
4,1,10,0.9895446440220936
4,1,11,1.0264428304266517
4,1,12,1.0437959378941417
4,1,13,1.160283564563128
4,1,14,1.2935502109337624
4,1,15,1.6547557952420302
4,1,16,1.7742182403340148
4,1,17,1.4743617622754752
4,1,18,1.1589005349454182
4,1,19,1.097186100117427
4,1,20,1.2154220849823858
4,1,21,0.9826034010350977
4,1,22,0.8690905927891097
4,1,23,0.7399991301700517
4,2,0,0.6387621557144493
4,2,1,0.5798890738407003
4,2,2,0.529669041088505
4,2,3,0.5348716531771651
4,2,4,0.572718634381718
4,2,5,0.7031343716093726
4,2,6,0.9811910746898312
4,2,7,0.907950157358798
4,2,8,0.889943189093384
4,2,9,0.9161449453119208
4,2,10,0.9306475634658022
4,2,11,0.9822423797232909
4,2,12,1.0108163114019422
4,2,13,1.0968615849097292
4,2,14,1.2152277490615753
4,2,15,1.4728783518771857
4,2,16,1.7312567812544226
4,2,17,1.5494079670051955
4,2,18,1.2516999467608345
4,2,19,1.260622561275583
4,2,20,1.509512288812362
4,2,21,1.0371258937777568
4,2,22,0.9225066885913187
4,2,23,0.7749196358171538
4,3,0,0.6875853775689919
4,3,1,0.6015213814388739
4,3,2,0.52464154195722
4,3,3,0.5084534438884137
4,3,4,0.555954883171123
4,3,5,0.7081066534036905
4,3,6,0.9340859617985413
4,3,7,0.9121747987559146
4,3,8,0.9150635839331762
4,3,9,0.9186609390595777
4,3,10,0.9676067709309177
4,3,11,0.978507847071528
4,3,12,1.0186238072689737
4,3,13,1.130005552735659
4,3,14,1.2799771077401045
4,3,15,1.581800653383251
4,3,16,1.913574905722724
4,3,17,1.564576953081087
4,3,18,1.1893619123212817
4,3,19,1.169576459126074
4,3,20,1.284664570480567
4,3,21,0.9815874010812504
4,3,22,0.8983576847476911
4,3,23,0.7755298093333651
4,4,0,0.7028791312962044
4,4,1,0.6369176649766717
4,4,2,0.5893132720382597
4,4,3,0.5800403891555791
4,4,4,0.6263239354043071
4,4,5,0.767843223584751
4,4,6,0.9759170112923405
4,4,7,0.9093355557103033
4,4,8,0.9208727472038709
4,4,9,0.9807151890630301
4,4,10,0.9911741383609369
4,4,11,1.0211492714002994
4,4,12,1.0688345325033863
4,4,13,1.146306234261595
4,4,14,1.3214666789466474
4,4,15,1.5400263720070355
4,4,16,1.7377220785813927
4,4,17,1.3864038151803024
4,4,18,1.1373029119278297
4,4,19,1.1063304048574811
4,4,20,1.188222899617898
4,4,21,0.9940045241245459
4,4,22,0.8877976678519843
4,4,23,0.7831003506533474
4,5,0,0.7572842070737441
4,5,1,0.666511780462472
4,5,2,0.5964849942600995
4,5,3,0.5695347947302246
4,5,4,0.5817525829552288
4,5,5,0.6545673208331055
4,5,6,0.804324058382988
4,5,7,0.8308915978789702
4,5,8,0.9497075384026676
4,5,9,1.0552943748975017
4,5,10,1.1000382660033892
4,5,11,1.1649538074673371
4,5,12,1.1570272781938447
4,5,13,1.2083583884545999
4,5,14,1.271989285519051
4,5,15,1.3843820040452632
4,5,16,1.4901601705570438
4,5,17,1.2837424151314711
4,5,18,1.1418028754168261
4,5,19,1.1571366096320999
4,5,20,1.3118132619034604
4,5,21,1.077269993986771
4,5,22,0.9369977587055158
4,5,23,0.8479746351063249
4,6,0,0.8013717637768629
4,6,1,0.7267550341248803
4,6,2,0.6724981668452819
4,6,3,0.6456946246263184
4,6,4,0.6495933216763495
4,6,5,0.6939951491905917
4,6,6,0.7741891815669243
4,6,7,0.8287980145524283
4,6,8,0.9510925602120819
4,6,9,1.0140944215691805
4,6,10,1.0277940098144285
4,6,11,1.0517006035309382
4,6,12,1.027766935529359
4,6,13,1.076473574369677
4,6,14,1.1389880985955214
4,6,15,1.2156895481978678
4,6,16,1.3283185740876533
4,6,17,1.2513734559196799
4,6,18,1.2017733656720628
4,6,19,1.3602933047549213
4,6,20,1.6493654464436802
4,6,21,1.1285374245586328
4,6,22,0.9608393028371596
4,6,23,0.8230041175475211
5,0,0,0.6857724544358943
5,0,1,0.6068869760566622
5,0,2,0.5437505119014653
5,0,3,0.5360047114435816
5,0,4,0.5951395687157025
5,0,5,0.681068811257542
5,0,6,0.7891121971005901
5,0,7,0.7890419934710624
5,0,8,0.8257584917140216
5,0,9,0.8572565201620923
5,0,10,0.9190591153562638
5,0,11,0.9871098335783959
5,0,12,1.0808082777879615
5,0,13,1.2860602893169577
5,0,14,1.477388580989637
5,0,15,1.8429388799400925
5,0,16,1.9427216387087207
5,0,17,1.5547061783094183
5,0,18,1.1866753511156527
5,0,19,1.0814869128733955
5,0,20,1.1233984797014005
5,0,21,0.9618599281582856
5,0,22,0.8718588751038427
5,0,23,0.7741354228013588
5,1,0,0.6309266872290779
5,1,1,0.5856836018962277
5,1,2,0.5392959122886276
5,1,3,0.5305136758532721
5,1,4,0.5689515684980624
5,1,5,0.655837438445003
5,1,6,0.7864888136610255
5,1,7,0.7739814105860289
5,1,8,0.7918580482589441
5,1,9,0.8294426904443752
5,1,10,0.8812620476103352
5,1,11,0.9637151773659707
5,1,12,1.0658346896604947
5,1,13,1.268866677014352
5,1,14,1.6124560693075227
5,1,15,2.001767199630258
5,1,16,2.167672386508584
5,1,17,1.547172003673139
5,1,18,1.141815602517089
5,1,19,1.060298967168067
5,1,20,1.0911408496258792
5,1,21,0.9390749689786229
5,1,22,0.838495469708308
5,1,23,0.7274480440707332
5,2,0,0.5848626404602792
5,2,1,0.5401665885963924
5,2,2,0.5059135395044416
5,2,3,0.4959427420752366
5,2,4,0.5353718881932773
5,2,5,0.5970854941394323
5,2,6,0.7059106638949828
5,2,7,0.7024780942882073
5,2,8,0.7212754992776923
5,2,9,0.7521867874826234
5,2,10,0.7933957845078812
5,2,11,0.8777207616732718
5,2,12,0.9883984293118442
5,2,13,1.2136767012824463
5,2,14,1.6457445898813354
5,2,15,2.247788240119444
5,2,16,2.752648398474716
5,2,17,2.0168616657800205
5,2,18,1.1209609984116042
5,2,19,0.9563247894940364
5,2,20,0.9811518934753178
5,2,21,0.8359669123294784
5,2,22,0.7560915624321299
5,2,23,0.6720753349139096
5,3,0,0.6341749610016703
5,3,1,0.5659865542042269
5,3,2,0.527802702963873
5,3,3,0.5146744157152915
5,3,4,0.5557572578307265
5,3,5,0.6428305194715553
5,3,6,0.7622068222918594
5,3,7,0.737006308756333
5,3,8,0.7562224768425848
5,3,9,0.7774886456190726
5,3,10,0.833045735032234
5,3,11,0.8998053534698159
5,3,12,1.0196786261544195
5,3,13,1.189952925910076
5,3,14,1.592871243390991
5,3,15,2.128521928795262
5,3,16,2.5050180151575807
5,3,17,1.6015682160162341
5,3,18,1.1863291873162247
5,3,19,1.0387705517745964
5,3,20,1.0776998578114
5,3,21,0.9012341418296774
5,3,22,0.8188820938996949
5,3,23,0.732471458744599
5,4,0,0.6765639050543784
5,4,1,0.6153480717351838
5,4,2,0.5768223643654175
5,4,3,0.5724336460860665
5,4,4,0.6023628949705062
5,4,5,0.6869475220142859
5,4,6,0.7718488606864726
5,4,7,0.7635238693112087
5,4,8,0.7824813224972711
5,4,9,0.8109627467947089
5,4,10,0.8770423658358644
5,4,11,0.952917423098458
5,4,12,1.0508718053128376
5,4,13,1.2250632009365616
5,4,14,1.507117528291963
5,4,15,1.9517354100567252
5,4,16,2.212841525418936
5,4,17,1.6011808819287738
5,4,18,1.1248465928049907
5,4,19,1.0468676654394091
5,4,20,1.0541294106335928
5,4,21,0.9215403496270157
5,4,22,0.8584694910557245
5,4,23,0.7560811460436496
5,5,0,0.7014411416888817
5,5,1,0.6290673668597543
5,5,2,0.5840652622717524
5,5,3,0.555875809264196
5,5,4,0.5709807380088592
5,5,5,0.5946483333667395
5,5,6,0.6834258683930968
5,5,7,0.7031248120903569
5,5,8,0.760754444689423
5,5,9,0.8269707963360124
5,5,10,0.8932833577198291
5,5,11,0.9578641438335571
5,5,12,1.0739892966667335
5,5,13,1.2560421719348178
5,5,14,1.5003667996231782
5,5,15,1.996712833978072
5,5,16,2.3200016034956206
5,5,17,1.6381391433324644
5,5,18,1.1664228017077227
5,5,19,1.0477721432723337
5,5,20,1.0521015814475556
5,5,21,0.9236375298149966
5,5,22,0.823603455533062
5,5,23,0.7397085646709827
5,6,0,0.7336475110869238
5,6,1,0.6565943117475603
5,6,2,0.5856043149791631
5,6,3,0.5394734487517276
5,6,4,0.5430608436062161
5,6,5,0.5681473442435891
5,6,6,0.6681649233204877
5,6,7,0.6971167155968517
5,6,8,0.7734120146148447
5,6,9,0.8412188300334847
5,6,10,0.9029119161930668
5,6,11,0.9631144650539532
5,6,12,1.089608028690738
5,6,13,1.2841863045306652
5,6,14,1.4977373517489079
5,6,15,1.8603168654926932
5,6,16,1.969681881866498
5,6,17,1.6038939234289096
5,6,18,1.2641272093583849
5,6,19,1.1383410193548795
5,6,20,1.1470063463625522
5,6,21,1.005177932890032
5,6,22,0.8801243798638517
5,6,23,0.7873321171840213
6,0,0,0.695353314750424
6,0,1,0.654386620305181
6,0,2,0.6194660766113967
6,0,3,0.6122015000431047
6,0,4,0.6225466249030144
6,0,5,0.6649846259949999
6,0,6,0.7054915371131354
6,0,7,0.7257679818385585
6,0,8,0.7722750653754418
6,0,9,0.8205523147216873
6,0,10,0.9097502801804649
6,0,11,1.0361217276358514
6,0,12,1.1830684789792811
6,0,13,1.3668898531567
6,0,14,1.5403661024742088
6,0,15,1.92635420558062
6,0,16,1.9933446363401246
6,0,17,1.3714646972614155
6,0,18,1.1776200465530617
6,0,19,1.061064973131412
6,0,20,1.0195235495272852
6,0,21,0.9125089801431076
6,0,22,0.8447139285611656
6,0,23,0.7641828788183567
6,1,0,0.7006812210829788
6,1,1,0.653623491664923
6,1,2,0.6258864011531934
6,1,3,0.6128199762851363
6,1,4,0.6236544139871196
6,1,5,0.6640859315058939
6,1,6,0.6996814768315083
6,1,7,0.7214433517007278
6,1,8,0.7699890725628329
6,1,9,0.8261839994420034
6,1,10,0.924275185417684
6,1,11,1.0325730627048895
6,1,12,1.1678175350491737
6,1,13,1.4131501243867848
6,1,14,1.5988700564971756
6,1,15,1.9372253609541745
6,1,16,1.905070795842924
6,1,17,1.3609774243798098
6,1,18,1.157982841598661
6,1,19,1.0452209899793077
6,1,20,0.9984190090906978
6,1,21,0.9233684406314664
6,1,22,0.8551068331357095
6,1,23,0.7818930041152263
6,2,0,0.6829469416194873
6,2,1,0.6333193198257524
6,2,2,0.6070903547157855
6,2,3,0.5898276338567543
6,2,4,0.598664245660689
6,2,5,0.6440139967033749
6,2,6,0.6907680992552436
6,2,7,0.7130000639159981
6,2,8,0.7665382645276113
6,2,9,0.8091441287754326
6,2,10,0.9064980964735473
6,2,11,1.0240963313117275
6,2,12,1.1381944900808674
6,2,13,1.3844529285680205
6,2,14,1.559802418545362
6,2,15,1.9796819143831703
6,2,16,2.1088822532279834
6,2,17,1.4433708757301953
6,2,18,1.193461123319167
6,2,19,1.0522265723110495
6,2,20,0.9857899432227887
6,2,21,0.8955873655175892
6,2,22,0.8350274073600623
6,2,23,0.7576152310923425
6,3,0,0.6827342015649844
6,3,1,0.6228915805462375
6,3,2,0.5919237861718503
6,3,3,0.5705877073705993
6,3,4,0.5875956101864537
6,3,5,0.635286826326012
6,3,6,0.6906793509090693
6,3,7,0.7158356038194966
6,3,8,0.7539154244609677
6,3,9,0.8006922372233294
6,3,10,0.8965217111535199
6,3,11,1.0089323663235397
6,3,12,1.1416021363172233
6,3,13,1.3798550162645267
6,3,14,1.6512905787665377
6,3,15,2.070249886122913
6,3,16,2.1074559435372846
6,3,17,1.4052754301505888
6,3,18,1.1498520867870403
6,3,19,1.044411217358763
6,3,20,0.9995038515008916
6,3,21,0.9081651141564883
6,3,22,0.8397067813170457
6,3,23,0.7450355516646374
6,4,0,0.6588091077823445
6,4,1,0.6123854174647387
6,4,2,0.5815219674707937
6,4,3,0.5666735043410995
6,4,4,0.5751357443138145
6,4,5,0.6079961247686106
6,4,6,0.6551315922801833
6,4,7,0.6660652808430605
6,4,8,0.7069726979074245
6,4,9,0.7695300046216088
6,4,10,0.8757429792324175
6,4,11,0.9843285444897818
6,4,12,1.160750430649917
6,4,13,1.4104458246111793
6,4,14,1.7600865995585995
6,4,15,2.270509933987608
6,4,16,2.1846616957597353
6,4,17,1.441566305258501
6,4,18,1.1550166699207405
6,4,19,1.0128984901920561
6,4,20,0.9377071382849629
6,4,21,0.8488338469827319
6,4,22,0.8126122964453154
6,4,23,0.7446178028327743
6,5,0,0.7423799715795691
6,5,1,0.6799614674309313
6,5,2,0.6447286487522154
6,5,3,0.6199698764722475
6,5,4,0.6126465594780007
6,5,5,0.6208640023843357
6,5,6,0.6233122042864823
6,5,7,0.6629730751012545
6,5,8,0.7309053557077697
6,5,9,0.8104186957470475
6,5,10,0.9190975714901565
6,5,11,1.024583140404379
6,5,12,1.1764781018984207
6,5,13,1.3328011155285187
6,5,14,1.5874354020639405
6,5,15,1.9241163853895569
6,5,16,2.012379386139984
6,5,17,1.4650465956688112
6,5,18,1.168494834826204
6,5,19,1.0445732411532096
6,5,20,1.0004204520658033
6,5,21,0.9230572719579759
6,5,22,0.873859058080929
6,5,23,0.7994975863922552
6,6,0,0.7383922320873632
6,6,1,0.6914124113071051
6,6,2,0.656729167883715
6,6,3,0.634664281411578
6,6,4,0.6218620504063903
6,6,5,0.6240455547968622
6,6,6,0.6162998602748725
6,6,7,0.6488225835645326
6,6,8,0.7109260452809012
6,6,9,0.7819244143563497
6,6,10,0.8757461503764149
6,6,11,0.9848524171297834
6,6,12,1.1307564789267883
6,6,13,1.3458431535166389
6,6,14,1.5828108405246921
6,6,15,1.892109983499219
6,6,16,2.008984929031319
6,6,17,1.479956291605096
6,6,18,1.2003987768544704
6,6,19,1.0842363432813666
6,6,20,1.0529317855990223
6,6,21,0.9494566617473972
6,6,22,0.880802686859613
6,6,23,0.8060348996785076
7,0,0,0.43554155566707853
7,0,1,0.40666810809095255
7,0,2,0.3881491120363556
7,0,3,0.3707250694759893
7,0,4,0.37460501337945884
7,0,5,0.39637316491150115
7,0,6,0.4169154445967417
7,0,7,0.4299834765170163
7,0,8,0.4672476003261057
7,0,9,0.5079156013020425
7,0,10,0.5896443583116293
7,0,11,0.696247602309717
7,0,12,0.8401625767905563
7,0,13,1.1316820429610557
7,0,14,2.0865290966038588
7,0,15,3.828742925945835
7,0,16,4.182198674550861
7,0,17,2.481485962973909
7,0,18,0.9304962400645862
7,0,19,0.7441637193507242
7,0,20,0.6841912122047642
7,0,21,0.6071279092140732
7,0,22,0.5255300705570575
7,0,23,0.47767346185812815
7,1,0,0.49201527097366815
7,1,1,0.4636979485609308
7,1,2,0.43994469534598896
7,1,3,0.42659694580526636
7,1,4,0.42893639007960815
7,1,5,0.4461592927127985
7,1,6,0.47612714329454986
7,1,7,0.48677663808940586
7,1,8,0.5278102036129823
7,1,9,0.5706234690753215
7,1,10,0.6477390156154317
7,1,11,0.7649121631965707
7,1,12,0.9362656919779546
7,1,13,1.263931414574403
7,1,14,1.891519634109002
7,1,15,2.9887333511941208
7,1,16,4.03269959430496
7,1,17,2.2274236451316596
7,1,18,1.041999961726883
7,1,19,0.8444963257807716
7,1,20,0.7708397121861605
7,1,21,0.6817686007348438
7,1,22,0.6008640156154317
7,1,23,0.5481188763012859
7,2,0,0.3977288988865839
7,2,1,0.37320594851415834
7,2,2,0.35145032352381
7,2,3,0.33682303221854454
7,2,4,0.34083812484879056
7,2,5,0.36455805669516694
7,2,6,0.3901187540858716
7,2,7,0.3990631450529426
7,2,8,0.42844126897517343
7,2,9,0.4544837774815075
7,2,10,0.5330436975914592
7,2,11,0.6388321228000639
7,2,12,0.7698229755954435
7,2,13,1.0819006830805025
7,2,14,1.8706007711036874
7,2,15,3.9875305636057594
7,2,16,4.416231269335501
7,2,17,3.2186835643727445
7,2,18,0.9017403882285719
7,2,19,0.6748938316852581
7,2,20,0.6104423293714322
7,2,21,0.5448789552523075
7,2,22,0.47806781388501396
7,2,23,0.4366197038097052
7,3,0,0.430279703305069
7,3,1,0.4035466844477307
7,3,2,0.3843969980870393
7,3,3,0.37173921132160825
7,3,4,0.37311413328829
7,3,5,0.39358204380260414
7,3,6,0.418685000534495
7,3,7,0.4299536908799795
7,3,8,0.45680010536343585
7,3,9,0.5006983871243991
7,3,10,0.587573611184116
7,3,11,0.6862986781731728
7,3,12,0.8274053604238633
7,3,13,1.0661173278556944
7,3,14,1.7273839215633002
7,3,15,3.3778572597120102
7,3,16,4.9936598851751155
7,3,17,2.5737830493619427
7,3,18,0.9205598672798692
7,3,19,0.7486804469913837
7,3,20,0.6873901110745593
7,3,21,0.6270919868862681
7,3,22,0.5331437106474358
7,3,23,0.4802588255166144
7,4,0,0.5063621824986433
7,4,1,0.4740985648787551
7,4,2,0.45623215297096775
7,4,3,0.4426391723315036
7,4,4,0.4404630338996637
7,4,5,0.4660090067951762
7,4,6,0.4873288557795792
7,4,7,0.5026879777550293
7,4,8,0.5436719182213485
7,4,9,0.6029638059294516
7,4,10,0.7082542139685485
7,4,11,0.8466440029383127
7,4,12,0.9954256413760658
7,4,13,1.3295575053779265
7,4,14,1.8159244448941565
7,4,15,3.177414416391474
7,4,16,3.8473812092548965
7,4,17,1.772117832114074
7,4,18,0.993454501492153
7,4,19,0.878513392581418
7,4,20,0.7897332522099763
7,4,21,0.7083488286829763
7,4,22,0.638570476792456
7,4,23,0.5762036108654487
7,5,0,0.4896792959650219
7,5,1,0.4476046453550603
7,5,2,0.4273248232354136
7,5,3,0.40534394133115687
7,5,4,0.39561600568791866
7,5,5,0.4009583965739594
7,5,6,0.4145270062621371
7,5,7,0.43525867238707083
7,5,8,0.47879517124943183
7,5,9,0.5281923526509567
7,5,10,0.6205147145547483
7,5,11,0.7318543932692965
7,5,12,0.8904649286546067
7,5,13,1.1200947100473828
7,5,14,1.9075790740852518
7,5,15,3.6438826911075886
7,5,16,3.978340281726952
7,5,17,2.4434660643556545
7,5,18,1.0176191475542007
7,5,19,0.7732645674008947
7,5,20,0.7104183820772976
7,5,21,0.6479841721702855
7,5,22,0.5722870117551427
7,5,23,0.5189295505425728
7,6,0,0.4935700318731363
7,6,1,0.45454589202273304
7,6,2,0.4328971830692211
7,6,3,0.4071291880611284
7,6,4,0.39726086726370646
7,6,5,0.39445051322646935
7,6,6,0.40421617268919763
7,6,7,0.4243891249564893
7,6,8,0.46991942689309907
7,6,9,0.5223408709210166
7,6,10,0.5996320232784577
7,6,11,0.6998808166067542
7,6,12,0.842990717169627
7,6,13,1.0471969445420264
7,6,14,1.597833845837965
7,6,15,3.3803682654565463
7,6,16,4.059575655789377
7,6,17,2.7931325983423405
7,6,18,1.2087088893487263
7,6,19,0.8246015055926366
7,6,20,0.7437428718545932
7,6,21,0.6841479670649606
7,6,22,0.5898535311488927
7,6,23,0.5276150969909001
8,0,0,0.2704783419443646
8,0,1,0.2518195828861712
8,0,2,0.24019794057449567
8,0,3,0.2364107238032785
8,0,4,0.24196588616105924
8,0,5,0.2519669116850515
8,0,6,0.27330358832289275
8,0,7,0.2791880738781707
8,0,8,0.29701485854268705
8,0,9,0.3270439343144661
8,0,10,0.3681140036023336
8,0,11,0.4179891352232825
8,0,12,0.5031798465758333
8,0,13,1.0452198304563292
8,0,14,2.869670344590505
8,0,15,5.9026156639401215
8,0,16,5.206426424431159
8,0,17,2.495481194634343
8,0,18,0.6231834864638056
8,0,19,0.4546480069446751
8,0,20,0.4395338054595431
8,0,21,0.3754631107464803
8,0,22,0.330874483085354
8,0,23,0.2982108217335978
8,1,0,0.27029820310735253
8,1,1,0.2542240540810949
8,1,2,0.24187963573238772
8,1,3,0.2356991749414909
8,1,4,0.23879353114521093
8,1,5,0.25566808697616417
8,1,6,0.2768087285599795
8,1,7,0.28459825457681076
8,1,8,0.30147281040776397
8,1,9,0.3239007041723268
8,1,10,0.3656621354977324
8,1,11,0.4299339767531333
8,1,12,0.5828611861492492
8,1,13,1.5957141103674346
8,1,14,3.2218601825463873
8,1,15,5.194945472286431
8,1,16,5.022800247961078
8,1,17,2.3076470824862536
8,1,18,0.6651628095516589
8,1,19,0.4676851224385178
8,1,20,0.43645275382230353
8,1,21,0.385152453772897
8,1,22,0.3361791095886879
8,1,23,0.304600173077657
8,2,0,0.28614742398516835
8,2,1,0.269047044502536
8,2,2,0.2598564966976923
8,2,3,0.2542745075401491
8,2,4,0.2565540211499394
8,2,5,0.26905509932094523
8,2,6,0.2901103946424718
8,2,7,0.2975691564893477
8,2,8,0.3210006232415744
8,2,9,0.3443354321728913
8,2,10,0.38978877245574295
8,2,11,0.4616860815758447
8,2,12,0.6270192842421237
8,2,13,1.3521543115261432
8,2,14,3.4973457695254675
8,2,15,5.436213053974331
8,2,16,4.706341793465731
8,2,17,2.025577404623398
8,2,18,0.6303459242451042
8,2,19,0.4991409871784071
8,2,20,0.46053424254333575
8,2,21,0.4041746781344906
8,2,22,0.34637330123040705
8,2,23,0.31535419553675803
8,3,0,0.40063230533051636
8,3,1,0.38027237768083777
8,3,2,0.36940842972443044
8,3,3,0.361485613533766
8,3,4,0.36245459105348754
8,3,5,0.37848261920323456
8,3,6,0.40520359927649674
8,3,7,0.4144829839947713
8,3,8,0.44111276618382456
8,3,9,0.4785494976516545
8,3,10,0.54650332112295
8,3,11,0.6492491374200118
8,3,12,0.8195611861804806
8,3,13,1.3699290176467906
8,3,14,2.5409326503625116
8,3,15,4.393583468863523
8,3,16,4.4249783405025
8,3,17,1.6809366022708274
8,3,18,0.806155097201745
8,3,19,0.6766199024182639
8,3,20,0.6292084023650651
8,3,21,0.5551671201228131
8,3,22,0.47840130108981466
8,3,23,0.43668966879968385
8,4,0,0.29026598870783343
8,4,1,0.2721347808670583
8,4,2,0.2622841052960904
8,4,3,0.25739824038689263
8,4,4,0.25780174090004
8,4,5,0.26734540521100447
8,4,6,0.29041510846269225
8,4,7,0.30091489355481027
8,4,8,0.3228705845201999
8,4,9,0.349817401398217
8,4,10,0.408316204054303
8,4,11,0.4818410149499864
8,4,12,0.6143295312669038
8,4,13,1.5445385620762146
8,4,14,3.460692325010892
8,4,15,4.834181756513755
8,4,16,4.805936720593438
8,4,17,2.2848391991976773
8,4,18,0.6586268702102588
8,4,19,0.49566529340042753
8,4,20,0.45042060542620466
8,4,21,0.39993918253135163
8,4,22,0.3616943512852076
8,4,23,0.32773013417854024
8,5,0,0.5617385845065761
8,5,1,0.5195253358502976
8,5,2,0.4947201407677736
8,5,3,0.47941335371960475
8,5,4,0.4734512234966014
8,5,5,0.4814121194390644
8,5,6,0.5019122806642906
8,5,7,0.5173044850508981
8,5,8,0.5692723937568467
8,5,9,0.6204202960137863
8,5,10,0.6875070736233395
8,5,11,0.8258148280228662
8,5,12,1.0265284898855194
8,5,13,1.4198582499268615
8,5,14,1.9244013846150563
8,5,15,3.0547973580417223
8,5,16,3.5660884624665536
8,5,17,1.703119227656426
8,5,18,0.9874756827514634
8,5,19,0.8524308706802851
8,5,20,0.798840032544006
8,5,21,0.7045051239725896
8,5,22,0.6415183786080818
8,5,23,0.5879446239394904
8,6,0,0.5757558043084993
8,6,1,0.5308222803289437
8,6,2,0.5038242473555736
8,6,3,0.49002188218379444
8,6,4,0.48535789615047353
8,6,5,0.48423929787418923
8,6,6,0.5021179110019195
8,6,7,0.5103841626707323
8,6,8,0.5607590036891623
8,6,9,0.6034174125305125
8,6,10,0.6689786470964634
8,6,11,0.7695197769123212
8,6,12,0.907695102972659
8,6,13,1.2964174836278606
8,6,14,1.809607621635713
8,6,15,2.8861352271560268
8,6,16,3.6265904081777744
8,6,17,1.8724576773286354
8,6,18,1.0823101898299194
8,6,19,0.9256874718572997
8,6,20,0.8754453458885982
8,6,21,0.7614431181716922
8,6,22,0.6626652025879434
8,6,23,0.6083468286632909
9,0,0,0.5717991081466226
9,0,1,0.5408213615075714
9,0,2,0.5141716591373533
9,0,3,0.5064180138727632
9,0,4,0.5151477712490475
9,0,5,0.5487407616590531
9,0,6,0.6190024164913835
9,0,7,0.6201258662803145
9,0,8,0.64360780858994
9,0,9,0.6891167336464771
9,0,10,0.7674267090978715
9,0,11,0.8646143244452391
9,0,12,1.029632522950529
9,0,13,1.458385163709809
9,0,14,1.8075386243418725
9,0,15,2.339427639166959
9,0,16,2.4027275887498476
9,0,17,1.580399177671589
9,0,18,1.5994425724544539
9,0,19,1.4077562543692912
9,0,20,0.9207868138917942
9,0,21,0.7584759452057317
9,0,22,0.6753038264055209
9,0,23,0.6191313369589658
9,1,0,0.5502194975145305
9,1,1,0.5222948587151783
9,1,2,0.49764234803079704
9,1,3,0.4907076674235012
9,1,4,0.5017325081745104
9,1,5,0.5342306896800146
9,1,6,0.6125386647951085
9,1,7,0.6114789414851464
9,1,8,0.6257573187141093
9,1,9,0.6756758641044291
9,1,10,0.7336074050490238
9,1,11,0.8277368632654816
9,1,12,0.9748896702540779
9,1,13,1.5229339462376337
9,1,14,2.088063936639701
9,1,15,2.8584084164340773
9,1,16,2.9479271486703498
9,1,17,1.67651945963407
9,1,18,1.0337136097754827
9,1,19,0.9129423357138375
9,1,20,0.8213227484946584
9,1,21,0.7261707502422722
9,1,22,0.6542768898980016
9,1,23,0.5992084610540064
9,2,0,0.5155412388665923
9,2,1,0.4884370549654067
9,2,2,0.47258532046879353
9,2,3,0.46020938157608904
9,2,4,0.4701803507832609
9,2,5,0.5002336945907931
9,2,6,0.5647641220653775
9,2,7,0.5620431709613076
9,2,8,0.5782986594927182
9,2,9,0.6148822859500178
9,2,10,0.6683709182990545
9,2,11,0.7636568705112536
9,2,12,0.8736008496389254
9,2,13,1.2185472315419674
9,2,14,1.8279525062373416
9,2,15,3.1192983457056154
9,2,16,4.100701522635461
9,2,17,1.6261983705013794
9,2,18,1.0200055735611326
9,2,19,0.9189968467687609
9,2,20,0.7882858666338981
9,2,21,0.6738303750304462
9,2,22,0.6096685925441552
9,2,23,0.5637108506702537
9,3,0,0.2576722362213578
9,3,1,0.24238756536006173
9,3,2,0.2314781213103191
9,3,3,0.22302207547266245
9,3,4,0.23246765858919377
9,3,5,0.2491262324492581
9,3,6,0.28551012793449426
9,3,7,0.2862625033862007
9,3,8,0.2926822287078258
9,3,9,0.30901368280627867
9,3,10,0.34026997602825493
9,3,11,0.39725423850097374
9,3,12,0.4744626802353218
9,3,13,1.0784484300807067
9,3,14,3.0426799286470017
9,3,15,5.088086196057185
9,3,16,5.781105767019172
9,3,17,2.6070054741447604
9,3,18,0.7974116648862493
9,3,19,0.46460819741677617
9,3,20,0.3930834615404274
9,3,21,0.34214273666348066
9,3,22,0.3032481970078764
9,3,23,0.280570619534161
9,4,0,0.32176622295361346
9,4,1,0.3000673212328567
9,4,2,0.28122713273340466
9,4,3,0.27731469586738694
9,4,4,0.2846127077770658
9,4,5,0.31307300288473106
9,4,6,0.3577586907808938
9,4,7,0.3565293465287286
9,4,8,0.36422738315538195
9,4,9,0.3865799838038773
9,4,10,0.4221626702137693
9,4,11,0.47369756180056655
9,4,12,0.5538976392037231
9,4,13,1.0557432816987065
9,4,14,2.7218852546986643
9,4,15,4.785378608759565
9,4,16,5.234860040132561
9,4,17,2.5486647955483424
9,4,18,0.8160796927289816
9,4,19,0.5228420617859315
9,4,20,0.4705461475668415
9,4,21,0.417625804521255
9,4,22,0.37844289565859357
9,4,23,0.3550170579645572
9,5,0,0.7363529610330848
9,5,1,0.6884765519792291
9,5,2,0.6546484861760999
9,5,3,0.6371742432676045
9,5,4,0.6357952647890055
9,5,5,0.6403631309993644
9,5,6,0.6912991485526112
9,5,7,0.6995730194242046
9,5,8,0.7497333615832397
9,5,9,0.8250816075154328
9,5,10,0.9064197912140399
9,5,11,1.0240854392082364
9,5,12,1.135114753274176
9,5,13,1.3330412580305744
9,5,14,1.5937974697181356
9,5,15,1.9441657359758966
9,5,16,1.9444458409793621
9,5,17,1.397249943440336
9,5,18,1.138066629079927
9,5,19,1.0795893229718425
9,5,20,1.0303554819781158
9,5,21,0.913896440152693
9,5,22,0.8246937698183269
9,5,23,0.776580348838462
9,6,0,0.6986215911885378
9,6,1,0.6611806427397332
9,6,2,0.6401408177264667
9,6,3,0.6247544102610564
9,6,4,0.6177756494052782
9,6,5,0.6207576718481032
9,6,6,0.6458563607418817
9,6,7,0.6517996971383456
9,6,8,0.6926782547920738
9,6,9,0.755217892134657
9,6,10,0.8209466368119281
9,6,11,0.9383637704981687
9,6,12,1.0948578232789306
9,6,13,1.3047383611819368
9,6,14,1.6056120005694834
9,6,15,2.077165007830397
9,6,16,2.173418065568254
9,6,17,1.517890840376377
9,6,18,1.2193572602668805
9,6,19,1.1279914059769878
9,6,20,1.0369983044924478
9,6,21,0.9115048600235558
9,6,22,0.814568422142552
9,6,23,0.7478042530059666
10,0,0,0.6888526255275159
10,0,1,0.6359734263462773
10,0,2,0.586084665496271
10,0,3,0.617638945818929
10,0,4,0.6582882834110588
10,0,5,0.7341835458864717
10,0,6,0.8462321766008511
10,0,7,0.8454278518083129
10,0,8,0.8503981665519472
10,0,9,0.8685057862403744
10,0,10,0.9186420316419313
10,0,11,0.9932173765090757
10,0,12,1.0496232305499056
10,0,13,1.3027380556479327
10,0,14,1.484020489658497
10,0,15,1.7905301067534927
10,0,16,1.8016050404353665
10,0,17,1.377395895365594
10,0,18,1.206672802221174
10,0,19,1.1502257007550858
10,0,20,1.0235136103613531
10,0,21,0.9404412958909831
10,0,22,0.8503156717014305
10,0,23,0.779473218820169
10,1,0,0.6602457428690469
10,1,1,0.5944219341225888
10,1,2,0.5593951694446543
10,1,3,0.5634104802535884
10,1,4,0.5935837867207239
10,1,5,0.7014708999607728
10,1,6,0.8648511679242938
10,1,7,0.8532925304985759
10,1,8,0.8434491714766744
10,1,9,0.8715563471392128
10,1,10,0.9338716318778646
10,1,11,0.9795019357793918
10,1,12,1.0442536955234645
10,1,13,1.2461887439727701
10,1,14,1.4677325432657047
10,1,15,1.9125938956555215
10,1,16,2.0418635135431464
10,1,17,1.283554524655909
10,1,18,1.2440836295680862
10,1,19,1.204164423079266
10,1,20,1.0228906826759316
10,1,21,0.9228587648533607
10,1,22,0.833976156655597
10,1,23,0.7567886284838548
10,2,0,0.6034894532460666
10,2,1,0.5600444841479645
10,2,2,0.5302182275619405
10,2,3,0.5314032560937814
10,2,4,0.5501449381050482
10,2,5,0.628101584291991
10,2,6,0.7728209148420264
10,2,7,0.7374341397604419
10,2,8,0.7370330531804342
10,2,9,0.7582177170881114
10,2,10,0.7825928424276678
10,2,11,0.8305226887385827
10,2,12,0.91642814169295
10,2,13,1.1839893529744214
10,2,14,1.4833457913255912
10,2,15,2.4905288873493645
10,2,16,3.047237060399993
10,2,17,1.6825946655484856
10,2,18,1.0905544110408196
10,2,19,1.0248309055441103
10,2,20,0.8961732694025633
10,2,21,0.7887549907932397
10,2,22,0.7087746804980766
10,2,23,0.6647645439463272
10,3,0,0.623129321415647
10,3,1,0.5746686180757271
10,3,2,0.5450580138541502
10,3,3,0.5287251043224563
10,3,4,0.5547232532593761
10,3,5,0.6357536997242621
10,3,6,0.8769043051628006
10,3,7,0.8241586149692717
10,3,8,0.75225538265445
10,3,9,0.7731615068550182
10,3,10,0.8019650731938524
10,3,11,0.8623584080857511
10,3,12,0.9578194605015804
10,3,13,1.2286767461001173
10,3,14,1.5390596727653536
10,3,15,2.4784901986530152
10,3,16,2.705306274079032
10,3,17,1.4962482346046313
10,3,18,1.083121699391199
10,3,19,1.105027013351353
10,3,20,0.9067262764489051
10,3,21,0.7906473276477728
10,3,22,0.7085024002971949
10,3,23,0.6475133945870817
10,4,0,0.737373064203064
10,4,1,0.6661973825609584
10,4,2,0.6311093709649204
10,4,3,0.6217875559183946
10,4,4,0.6477786756191635
10,4,5,0.732099865879158
10,4,6,0.9046659058155131
10,4,7,0.8708024758207613
10,4,8,0.8728517756433221
10,4,9,0.8855224464974468
10,4,10,0.9307319999000343
10,4,11,0.9782157762764391
10,4,12,1.038820069809482
10,4,13,1.2008647045592757
10,4,14,1.3919494172824287
10,4,15,1.8654126506776851
10,4,16,1.7648969935272119
10,4,17,1.2248565073599855
10,4,18,1.166576419723261
10,4,19,1.1827458951524896
10,4,20,1.0261493989553572
10,4,21,0.9369548737514685
10,4,22,0.8898709607550754
10,4,23,0.8317658133471064
10,5,0,0.7037258708357838
10,5,1,0.6184560457575866
10,5,2,0.5830449196692046
10,5,3,0.555398843569633
10,5,4,0.5584174286859266
10,5,5,0.5815668538536402
10,5,6,0.6718121399166244
10,5,7,0.7067028202953008
10,5,8,0.7806269289019114
10,5,9,0.8296945504129736
10,5,10,0.8768677495407066
10,5,11,0.9409242074912955
10,5,12,1.0067085451981075
10,5,13,1.1287218373815333
10,5,14,1.4082428191503202
10,5,15,2.26435519378796
10,5,16,2.4908739844803085
10,5,17,1.696757102782823
10,5,18,1.1918831287114284
10,5,19,1.109631888749525
10,5,20,0.9436929786669301
10,5,21,0.8630655293193088
10,5,22,0.7818968164335937
10,5,23,0.7069318164075713
10,6,0,0.7686358190936964
10,6,1,0.7008762522173961
10,6,2,0.6583465469534222
10,6,3,0.6128264717880749
10,6,4,0.618497099156605
10,6,5,0.6460085022492381
10,6,6,0.719704507151968
10,6,7,0.7486114161985754
10,6,8,0.838566173009512
10,6,9,0.9004336036356991
10,6,10,0.9328625038994791
10,6,11,1.0122734379470557
10,6,12,1.078438140875957
10,6,13,1.2521897075898172
10,6,14,1.5481255733849695
10,6,15,1.894144597306083
10,6,16,1.8367516460878766
10,6,17,1.346508189367943
10,6,18,1.1985181055822083
10,6,19,1.1408593437061019
10,6,20,1.0011758429797375
10,6,21,0.9312233381757636
10,6,22,0.8454550992267496
10,6,23,0.7689680824160712
11,0,0,0.6138364034326407
11,0,1,0.5649631884438386
11,0,2,0.564836179049377
11,0,3,0.5972235746370707
11,0,4,0.6583658971308579
11,0,5,0.7959932769693865
11,0,6,1.200670609602757
11,0,7,1.108436387344784
11,0,8,1.044093428110566
11,0,9,1.0327133863668116
11,0,10,1.0401053331244736
11,0,11,1.0355583968027502
11,0,12,1.0671837360236747
11,0,13,1.1520768152817706
11,0,14,1.2126094926821422
11,0,15,1.2211953277477425
11,0,16,1.2282570500798045
11,0,17,1.6663886572143456
11,0,18,1.3971287409558728
11,0,19,1.1374453330398007
11,0,20,1.0304272172665039
11,0,21,0.9716726713885937
11,0,22,0.8879734804384365
11,0,23,0.7708454168660008
11,1,0,0.565711214124587
11,1,1,0.5305596265787018
11,1,2,0.5098523864873681
11,1,3,0.5452024459830104
11,1,4,0.6213936222509108
11,1,5,0.7980557099736747
11,1,6,1.5543661531817532
11,1,7,1.399205193349352
11,1,8,1.1224691380712386
11,1,9,1.0424849423190896
11,1,10,1.0219541217386512
11,1,11,0.9925802731745863
11,1,12,1.0124274681503058
11,1,13,1.054194787354764
11,1,14,1.1040112467438195
11,1,15,1.116625241772832
11,1,16,1.144014370839325
11,1,17,1.6646503999301672
11,1,18,1.4672810721160692
11,1,19,1.1968299619136002
11,1,20,1.0525408544401207
11,1,21,0.9252762297680357
11,1,22,0.8247171085577245
11,1,23,0.7335964311803109
11,2,0,0.7137925586682671
11,2,1,0.661210392223447
11,2,2,0.6325549637630499
11,2,3,0.6451284863650644
11,2,4,0.7112865706280042
11,2,5,0.8370435878485003
11,2,6,1.4481560104670397
11,2,7,1.2785115157414184
11,2,8,1.1329462974026705
11,2,9,1.0507498896820482
11,2,10,1.0034847761226555
11,2,11,0.9634543410794998
11,2,12,0.9610791002413375
11,2,13,0.993853065567906
11,2,14,0.9733257548381006
11,2,15,1.009063323412284
11,2,16,1.0777056045151368
11,2,17,1.6300907421901245
11,2,18,1.4193044612034917
11,2,19,1.1455851936057355
11,2,20,1.0567424697783292
11,2,21,0.980429686152237
11,2,22,0.871626222804128
11,2,23,0.8028749856995248
11,3,0,0.7533220357472676
11,3,1,0.7004177348277244
11,3,2,0.6748909582321598
11,3,3,0.6905771737351815
11,3,4,0.710529137051255
11,3,5,0.8381855901233268
11,3,6,1.246907426877597
11,3,7,1.1119382632688644
11,3,8,1.056776952924426
11,3,9,1.1190252728630354
11,3,10,1.1024136834958067
11,3,11,1.0734788226686505
11,3,12,1.066730364488214
11,3,13,1.0534591490698302
11,3,14,1.0669560654307033
11,3,15,1.065827560718256
11,3,16,1.108891300545256
11,3,17,1.5313808947913867
11,3,18,1.3117738777490846
11,3,19,1.1179419083390856
11,3,20,1.0060619511470312
11,3,21,0.9546021362594206
11,3,22,0.8524273195944156
11,3,23,0.7854844200520241
11,4,0,0.7434728200879088
11,4,1,0.6887185700786866
11,4,2,0.6683786828447468
11,4,3,0.6937581403531674
11,4,4,0.7318500273828003
11,4,5,0.8495535042890263
11,4,6,1.405449886638045
11,4,7,1.2694949930620782
11,4,8,1.0958114247285131
11,4,9,1.0869581255976688
11,4,10,1.0443260851676026
11,4,11,1.0470501772078626
11,4,12,1.0307964280343123
11,4,13,1.052770770492408
11,4,14,1.0636671386534475
11,4,15,1.0840297266543895
11,4,16,1.1144487544372907
11,4,17,1.4874677578168676
11,4,18,1.2497453257701945
11,4,19,1.084801552732463
11,4,20,0.9735904951888563
11,4,21,0.9184730329075994
11,4,22,0.8355244302816882
11,4,23,0.7798621495923795
11,5,0,0.7967452571553899
11,5,1,0.7190788463647331
11,5,2,0.6808114924882115
11,5,3,0.6912073692290822
11,5,4,0.7224739554775744
11,5,5,0.784428117118105
11,5,6,0.9825024673758089
11,5,7,1.063327119201667
11,5,8,1.2075271411338964
11,5,9,1.302932339072267
11,5,10,1.1536264941331287
11,5,11,1.0861190920057024
11,5,12,1.0412983879811384
11,5,13,1.0330343239390285
11,5,14,1.051009979164382
11,5,15,1.0890931023138504
11,5,16,1.1179910077859416
11,5,17,1.4770040574624412
11,5,18,1.2640859743392916
11,5,19,1.1266761706327446
11,5,20,0.9990305954600285
11,5,21,0.9422875315275798
11,5,22,0.8711744708849654
11,5,23,0.7965347077530431
11,6,0,0.7868275679122086
11,6,1,0.7289422123766134
11,6,2,0.7050676446086759
11,6,3,0.7101776398151467
11,6,4,0.7392180497317022
11,6,5,0.781857190061106
11,6,6,0.8901723343556428
11,6,7,0.9178724176606647
11,6,8,1.0041000963359754
11,6,9,1.0723171361688069
11,6,10,1.0376082616243085
11,6,11,1.0250426996411837
11,6,12,1.0326937307153532
11,6,13,1.0340340573268865
11,6,14,1.0613711355079514
11,6,15,1.1199266543493136
11,6,16,1.1266841343491274
11,6,17,1.6959040921846862
11,6,18,1.4292628669027754
11,6,19,1.1809115151740799
11,6,20,1.1021114798043499
11,6,21,1.0388927412936946
11,6,22,0.9304659031148632
11,6,23,0.8485384389848889
12,0,0,0.7509438940129134
12,0,1,0.6998399212797743
12,0,2,0.6865772745260921
12,0,3,0.7084606416696675
12,0,4,0.7728914352536838
12,0,5,0.9161066288277175
12,0,6,1.6243747482057993
12,0,7,1.4977806458053315
12,0,8,1.2199495876814255
12,0,9,1.157636539304852
12,0,10,1.0438558649776997
12,0,11,0.9774784571120944
12,0,12,0.9265028325733458
12,0,13,0.898694057122077
12,0,14,0.8813884422450954
12,0,15,0.8722757204433716
12,0,16,0.918010460377843
12,0,17,1.4969677739075251
12,0,18,1.2816422864517785
12,0,19,1.0900826063240008
12,0,20,1.011683250917155
12,0,21,0.9454341912459401
12,0,22,0.8478039980462553
12,0,23,0.7736187416885631
12,1,0,0.7474453744695375
12,1,1,0.7120367209907739
12,1,2,0.7029400227213676
12,1,3,0.7414542694265147
12,1,4,0.7906791447391883
12,1,5,0.9208206183676275
12,1,6,1.4721734567555311
12,1,7,1.2527033842611224
12,1,8,1.1497052845010725
12,1,9,1.123075433922085
12,1,10,1.066612325577841
12,1,11,1.0058943099785522
12,1,12,0.9400655149752153
12,1,13,0.901013291490695
12,1,14,0.8776602085678915
12,1,15,0.8710822197655522
12,1,16,0.909303024591041
12,1,17,1.562700276630105
12,1,18,1.3324217615682838
12,1,19,1.1510257729595346
12,1,20,1.0799150241223487
12,1,21,0.992151448614557
12,1,22,0.8847028136796897
12,1,23,0.8124182973238712
12,2,0,0.7818644390889623
12,2,1,0.7443443515932087
12,2,2,0.7366000828526
12,2,3,0.7501717221306962
12,2,4,0.7930335659524801
12,2,5,0.94822564447715
12,2,6,1.6433440502142136
12,2,7,1.3822369563064352
12,2,8,1.1713781539631336
12,2,9,1.126522736010104
12,2,10,1.0581789254081662
12,2,11,1.0091830073363954
12,2,12,0.9625129257510778
12,2,13,0.936852048471966
12,2,14,0.8935301490814331
12,2,15,0.8985907603376722
12,2,16,0.9327371069959329
12,2,17,1.3870930984210084
12,2,18,1.2471850882358892
12,2,19,1.0786258395747894
12,2,20,0.9861802288989443
12,2,21,0.9542319255135956
12,2,22,0.837556721550302
12,2,23,0.7398204718338431
12,3,0,0.6958405095276408
12,3,1,0.6582989436845923
12,3,2,0.641265743015256
12,3,3,0.6457687730772643
12,3,4,0.7114298038183983
12,3,5,0.8528836829401851
12,3,6,1.4306664912769091
12,3,7,1.213517655732339
12,3,8,1.0893906531534978
12,3,9,1.082171121260604
12,3,10,1.015506697951305
12,3,11,0.9730215882358341
12,3,12,0.9449755423061512
12,3,13,0.9344766298246208
12,3,14,0.9080947471787235
12,3,15,0.8984768623180204
12,3,16,0.9702561404260137
12,3,17,1.6620586066915273
12,3,18,1.4477975839041153
12,3,19,1.218877240425708
12,3,20,1.1412978638139322
12,3,21,1.0560584414988483
12,3,22,0.9478144090843739
12,3,23,0.8600542688541442
12,4,0,0.7865439751811778
12,4,1,0.7605852008974252
12,4,2,0.7409152897027517
12,4,3,0.7471582486816912
12,4,4,0.7876915779346594
12,4,5,0.9176002096287696
12,4,6,1.5182554908010075
12,4,7,1.3547450504849576
12,4,8,1.1278410340665876
12,4,9,1.099403437835315
12,4,10,1.0156972929963717
12,4,11,0.9845513542668827
12,4,12,0.9478051141004037
12,4,13,0.921364346660189
12,4,14,0.8818638598853545
12,4,15,0.8851689558153812
12,4,16,0.938532483852273
12,4,17,1.55415250492991
12,4,18,1.2762260700917507
12,4,19,1.1001149515424737
12,4,20,0.9963257585176033
12,4,21,0.9664651348720135
12,4,22,0.8722699008662488
12,4,23,0.8187227563888001
12,5,0,0.7810765453855095
12,5,1,0.7306897461240367
12,5,2,0.7137859372599714
12,5,3,0.7233856311827739
12,5,4,0.7723347951224744
12,5,5,0.8313705939810616
12,5,6,0.9703110915304148
12,5,7,1.0772526093370938
12,5,8,1.179371092515891
12,5,9,1.1815507331650297
12,5,10,1.126781464938799
12,5,11,1.0746787783577916
12,5,12,1.0135792771824668
12,5,13,0.9723747938471528
12,5,14,0.960641834608172
12,5,15,0.9525261513401022
12,5,16,1.0086634918886643
12,5,17,1.602314129114724
12,5,18,1.3364443452527603
12,5,19,1.1439171504676664
12,5,20,1.0661689047595584
12,5,21,1.0127677088556597
12,5,22,0.9095130300193328
12,5,23,0.8585001637628946
12,6,0,0.7783694241724262
12,6,1,0.7158410101140243
12,6,2,0.7009543442449453
12,6,3,0.715266747038956
12,6,4,0.7521300190500733
12,6,5,0.8006110748106499
12,6,6,0.9368218588085881
12,6,7,0.9716972970983149
12,6,8,1.1071350346490463
12,6,9,1.1520379897111201
12,6,10,1.084164511646313
12,6,11,1.0268044652635262
12,6,12,0.9713439044367345
12,6,13,0.932382363497483
12,6,14,0.9172748272149162
12,6,15,0.9097431461149814
12,6,16,0.9843752588325159
12,6,17,1.6596865480715253
12,6,18,1.4690312071488392
12,6,19,1.2628486761579594
12,6,20,1.188393259771215
12,6,21,1.0928888929790816
12,6,22,0.9637459622127533
12,6,23,0.9064521769540128
